[{
      "startDate": 0,
      "code": "CCA",
      "endDate": 0,
      "enabled": true,
      "tenantId": "{{rdmTenant}}",
      "parents": [],
      "sourceMappings": [{
            "source": "Reltio",
            "values": [{
                  "downStreamDefaultValue": true,
                  "code": "CCA",
                  "enabled": true,
                  "value": "Anesthesiology, Critical Care Medicine",
                  "canonicalValue": true
               }
            ]
         }, {
            "source": "ReltioRDM",
            "values": [{
                  "downStreamDefaultValue": true,
                  "code": "CCA",
                  "enabled": true,
                  "value": "Anesthesiology, Critical Care Medicine",
                  "canonicalValue": false
               }
            ]
         }
      ],
      "type": "rdm/lookupTypes/App-LSCustomer360ProfessionalDesignation",
      "localizations": []
   }, {
      "startDate": 0,
      "code": "DNTR",
      "endDate": 0,
      "enabled": true,
      "tenantId": "{{rdmTenant}}",
      "parents": [],
      "sourceMappings": [{
            "source": "Reltio",
            "values": [{
                  "downStreamDefaultValue": true,
                  "code": "DNTR",
                  "enabled": true,
                  "value": "Nutrition",
                  "canonicalValue": true
               }
            ]
         }, {
            "source": "ReltioRDM",
            "values": [{
                  "downStreamDefaultValue": true,
                  "code": "DNTR",
                  "enabled": true,
                  "value": "Nutrition",
                  "canonicalValue": false
               }
            ]
         }
      ],
      "type": "rdm/lookupTypes/App-LSCustomer360ProfessionalDesignation",
      "localizations": []
   }, {
      "startDate": 0,
      "code": "NNM",
      "endDate": 0,
      "enabled": true,
      "tenantId": "{{rdmTenant}}",
      "parents": [],
      "sourceMappings": [{
            "source": "Reltio",
            "values": [{
                  "downStreamDefaultValue": true,
                  "code": "NNM",
                  "enabled": true,
                  "value": "Neurology, Nuclear Medicine",
                  "canonicalValue": true
               }
            ]
         }, {
            "source": "ReltioRDM",
            "values": [{
                  "downStreamDefaultValue": true,
                  "code": "NNM",
                  "enabled": true,
                  "value": "Neurology, Nuclear Medicine",
                  "canonicalValue": false
               }
            ]
         }
      ],
      "type": "rdm/lookupTypes/App-LSCustomer360ProfessionalDesignation",
      "localizations": []
   }, {
      "startDate": 0,
      "code": "PIC",
      "endDate": 0,
      "enabled": true,
      "tenantId": "{{rdmTenant}}",
      "parents": [],
      "sourceMappings": [{
            "source": "Reltio",
            "values": [{
                  "downStreamDefaultValue": true,
                  "code": "PIC",
                  "enabled": true,
                  "value": "Pediatric Critical Care Medicine",
                  "canonicalValue": true
               }
            ]
         }, {
            "source": "ReltioRDM",
            "values": [{
                  "downStreamDefaultValue": true,
                  "code": "PIC",
                  "enabled": true,
                  "value": "Pediatric Critical Care Medicine",
                  "canonicalValue": false
               }
            ]
         }
      ],
      "type": "rdm/lookupTypes/App-LSCustomer360ProfessionalDesignation",
      "localizations": []
   }, {
      "startDate": 0,
      "code": "HPLT",
      "endDate": 0,
      "enabled": true,
      "tenantId": "{{rdmTenant}}",
      "parents": [],
      "sourceMappings": [{
            "source": "Reltio",
            "values": [{
                  "downStreamDefaultValue": true,
                  "code": "HPLT",
                  "enabled": true,
                  "value": "Hospitalist",
                  "canonicalValue": true
               }
            ]
         }, {
            "source": "ReltioRDM",
            "values": [{
                  "downStreamDefaultValue": true,
                  "code": "HPLT",
                  "enabled": true,
                  "value": "Hospitalist",
                  "canonicalValue": false
               }
            ]
         }
      ],
      "type": "rdm/lookupTypes/App-LSCustomer360ProfessionalDesignation",
      "localizations": []
   }, {
      "startDate": 0,
      "code": "TCHR",
      "endDate": 0,
      "enabled": true,
      "tenantId": "{{rdmTenant}}",
      "parents": [],
      "sourceMappings": [{
            "source": "Reltio",
            "values": [{
                  "downStreamDefaultValue": true,
                  "code": "TCHR",
                  "enabled": true,
                  "value": "Technologist - Radiologic",
                  "canonicalValue": true
               }
            ]
         }, {
            "source": "ReltioRDM",
            "values": [{
                  "downStreamDefaultValue": true,
                  "code": "TCHR",
                  "enabled": true,
                  "value": "Technologist - Radiologic",
                  "canonicalValue": false
               }
            ]
         }
      ],
      "type": "rdm/lookupTypes/App-LSCustomer360ProfessionalDesignation",
      "localizations": []
   }, {
      "startDate": 0,
      "code": "D",
      "endDate": 0,
      "enabled": true,
      "tenantId": "{{rdmTenant}}",
      "parents": [],
      "sourceMappings": [{
            "source": "Reltio",
            "values": [{
                  "downStreamDefaultValue": true,
                  "code": "D",
                  "enabled": true,
                  "value": "Dermatology",
                  "canonicalValue": true
               }
            ]
         }, {
            "source": "ReltioRDM",
            "values": [{
                  "downStreamDefaultValue": true,
                  "code": "D",
                  "enabled": true,
                  "value": "Dermatology",
                  "canonicalValue": false
               }
            ]
         }
      ],
      "type": "rdm/lookupTypes/App-LSCustomer360ProfessionalDesignation",
      "localizations": []
   }, {
      "startDate": 0,
      "code": "TCHV",
      "endDate": 0,
      "enabled": true,
      "tenantId": "{{rdmTenant}}",
      "parents": [],
      "sourceMappings": [{
            "source": "Reltio",
            "values": [{
                  "downStreamDefaultValue": true,
                  "code": "TCHV",
                  "enabled": true,
                  "value": "Technologist - Vision",
                  "canonicalValue": true
               }
            ]
         }, {
            "source": "ReltioRDM",
            "values": [{
                  "downStreamDefaultValue": true,
                  "code": "TCHV",
                  "enabled": true,
                  "value": "Technologist - Vision",
                  "canonicalValue": false
               }
            ]
         }
      ],
      "type": "rdm/lookupTypes/App-LSCustomer360ProfessionalDesignation",
      "localizations": []
   }, {
      "startDate": 0,
      "code": "T",
      "endDate": 0,
      "enabled": true,
      "tenantId": "{{rdmTenant}}",
      "parents": [],
      "sourceMappings": [{
            "source": "Reltio",
            "values": [{
                  "downStreamDefaultValue": true,
                  "code": "T",
                  "enabled": true,
                  "value": "Other Specialty",
                  "canonicalValue": true
               }
            ]
         }, {
            "source": "ReltioRDM",
            "values": [{
                  "downStreamDefaultValue": true,
                  "code": "T",
                  "enabled": true,
                  "value": "Other Specialty",
                  "canonicalValue": false
               }
            ]
         }
      ],
      "type": "rdm/lookupTypes/App-LSCustomer360ProfessionalDesignation",
      "localizations": []
   }, {
      "startDate": 0,
      "code": "PPTA",
      "endDate": 0,
      "enabled": true,
      "tenantId": "{{rdmTenant}}",
      "parents": [],
      "sourceMappings": [{
            "source": "Reltio",
            "values": [{
                  "downStreamDefaultValue": true,
                  "code": "PPTA",
                  "enabled": true,
                  "value": "Physical Therapy - Assistant",
                  "canonicalValue": true
               }
            ]
         }, {
            "source": "ReltioRDM",
            "values": [{
                  "downStreamDefaultValue": true,
                  "code": "PPTA",
                  "enabled": true,
                  "value": "Physical Therapy - Assistant",
                  "canonicalValue": false
               }
            ]
         }
      ],
      "type": "rdm/lookupTypes/App-LSCustomer360ProfessionalDesignation",
      "localizations": []
   }, {
      "startDate": 0,
      "code": "UCM",
      "endDate": 0,
      "enabled": true,
      "tenantId": "{{rdmTenant}}",
      "parents": [],
      "sourceMappings": [{
            "source": "Reltio",
            "values": [{
                  "downStreamDefaultValue": true,
                  "code": "UCM",
                  "enabled": true,
                  "value": "Urgent Care Medicine",
                  "canonicalValue": true
               }
            ]
         }, {
            "source": "ReltioRDM",
            "values": [{
                  "downStreamDefaultValue": true,
                  "code": "UCM",
                  "enabled": true,
                  "value": "Urgent Care Medicine",
                  "canonicalValue": false
               }
            ]
         }
      ],
      "type": "rdm/lookupTypes/App-LSCustomer360ProfessionalDesignation",
      "localizations": []
   }, {
      "startDate": 0,
      "code": "ON",
      "endDate": 0,
      "enabled": true,
      "tenantId": "{{rdmTenant}}",
      "parents": [],
      "sourceMappings": [{
            "source": "Reltio",
            "values": [{
                  "downStreamDefaultValue": true,
                  "code": "ON",
                  "enabled": true,
                  "value": "Oncology",
                  "canonicalValue": true
               }
            ]
         }, {
            "source": "ReltioRDM",
            "values": [{
                  "downStreamDefaultValue": true,
                  "code": "ON",
                  "enabled": true,
                  "value": "Oncology",
                  "canonicalValue": false
               }
            ]
         }
      ],
      "type": "rdm/lookupTypes/App-LSCustomer360ProfessionalDesignation",
      "localizations": []
   }, {
      "startDate": 0,
      "code": "OM",
      "endDate": 0,
      "enabled": true,
      "tenantId": "{{rdmTenant}}",
      "parents": [],
      "sourceMappings": [{
            "source": "Reltio",
            "values": [{
                  "downStreamDefaultValue": true,
                  "code": "OM",
                  "enabled": true,
                  "value": "Occupational Medicine",
                  "canonicalValue": true
               }
            ]
         }, {
            "source": "ReltioRDM",
            "values": [{
                  "downStreamDefaultValue": true,
                  "code": "OM",
                  "enabled": true,
                  "value": "Occupational Medicine",
                  "canonicalValue": false
               }
            ]
         }
      ],
      "type": "rdm/lookupTypes/App-LSCustomer360ProfessionalDesignation",
      "localizations": []
   }, {
      "startDate": 0,
      "code": "OE",
      "endDate": 0,
      "enabled": true,
      "tenantId": "{{rdmTenant}}",
      "parents": [],
      "sourceMappings": [{
            "source": "Reltio",
            "values": [{
                  "downStreamDefaultValue": true,
                  "code": "OE",
                  "enabled": true,
                  "value": "General Preventative Medicine",
                  "canonicalValue": true
               }
            ]
         }, {
            "source": "ReltioRDM",
            "values": [{
                  "downStreamDefaultValue": true,
                  "code": "OE",
                  "enabled": true,
                  "value": "General Preventative Medicine",
                  "canonicalValue": false
               }
            ]
         }
      ],
      "type": "rdm/lookupTypes/App-LSCustomer360ProfessionalDesignation",
      "localizations": []
   }, {
      "startDate": 0,
      "code": "OT",
      "endDate": 0,
      "enabled": true,
      "tenantId": "{{rdmTenant}}",
      "parents": [],
      "sourceMappings": [{
            "source": "Reltio",
            "values": [{
                  "downStreamDefaultValue": true,
                  "code": "OT",
                  "enabled": true,
                  "value": "Otology",
                  "canonicalValue": true
               }
            ]
         }, {
            "source": "ReltioRDM",
            "values": [{
                  "downStreamDefaultValue": true,
                  "code": "OT",
                  "enabled": true,
                  "value": "Otology",
                  "canonicalValue": false
               }
            ]
         }
      ],
      "type": "rdm/lookupTypes/App-LSCustomer360ProfessionalDesignation",
      "localizations": []
   }, {
      "startDate": 0,
      "code": "OS",
      "endDate": 0,
      "enabled": true,
      "tenantId": "{{rdmTenant}}",
      "parents": [],
      "sourceMappings": [{
            "source": "Reltio",
            "values": [{
                  "downStreamDefaultValue": true,
                  "code": "OS",
                  "enabled": true,
                  "value": "Other Specialty",
                  "canonicalValue": true
               }
            ]
         }, {
            "source": "ReltioRDM",
            "values": [{
                  "downStreamDefaultValue": true,
                  "code": "OS",
                  "enabled": true,
                  "value": "Other Specialty",
                  "canonicalValue": false
               }
            ]
         }
      ],
      "type": "rdm/lookupTypes/App-LSCustomer360ProfessionalDesignation",
      "localizations": []
   }, {
      "startDate": 0,
      "code": "OR",
      "endDate": 0,
      "enabled": true,
      "tenantId": "{{rdmTenant}}",
      "parents": [],
      "sourceMappings": [{
            "source": "Reltio",
            "values": [{
                  "downStreamDefaultValue": true,
                  "code": "OR",
                  "enabled": true,
                  "value": "Orthopedics, Foot and Ankle",
                  "canonicalValue": true
               }
            ]
         }, {
            "source": "ReltioRDM",
            "values": [{
                  "downStreamDefaultValue": true,
                  "code": "OR",
                  "enabled": true,
                  "value": "Orthopedics, Foot and Ankle",
                  "canonicalValue": false
               }
            ]
         }
      ],
      "type": "rdm/lookupTypes/App-LSCustomer360ProfessionalDesignation",
      "localizations": []
   }, {
      "startDate": 0,
      "code": "OP",
      "endDate": 0,
      "enabled": true,
      "tenantId": "{{rdmTenant}}",
      "parents": [],
      "sourceMappings": [{
            "source": "Reltio",
            "values": [{
                  "downStreamDefaultValue": true,
                  "code": "OP",
                  "enabled": true,
                  "value": "Orthopedic Surg, Pediatric Orthopedics",
                  "canonicalValue": true
               }
            ]
         }, {
            "source": "ReltioRDM",
            "values": [{
                  "downStreamDefaultValue": true,
                  "code": "OP",
                  "enabled": true,
                  "value": "Orthopedic Surg, Pediatric Orthopedics",
                  "canonicalValue": false
               }
            ]
         }
      ],
      "type": "rdm/lookupTypes/App-LSCustomer360ProfessionalDesignation",
      "localizations": []
   }, {
      "startDate": 0,
      "code": "FLX",
      "endDate": 0,
      "enabled": true,
      "tenantId": "{{rdmTenant}}",
      "parents": [],
      "sourceMappings": [{
            "source": "Reltio",
            "values": [{
                  "downStreamDefaultValue": true,
                  "code": "FLX",
                  "enabled": true,
                  "value": "Flexible",
                  "canonicalValue": true
               }
            ]
         }, {
            "source": "ReltioRDM",
            "values": [{
                  "downStreamDefaultValue": true,
                  "code": "FLX",
                  "enabled": true,
                  "value": "Flexible",
                  "canonicalValue": false
               }
            ]
         }
      ],
      "type": "rdm/lookupTypes/App-LSCustomer360ProfessionalDesignation",
      "localizations": []
   }, {
      "startDate": 0,
      "code": "STDN",
      "endDate": 0,
      "enabled": true,
      "tenantId": "{{rdmTenant}}",
      "parents": [],
      "sourceMappings": [{
            "source": "Reltio",
            "values": [{
                  "downStreamDefaultValue": true,
                  "code": "STDN",
                  "enabled": true,
                  "value": "Student, Health Care",
                  "canonicalValue": true
               }
            ]
         }, {
            "source": "ReltioRDM",
            "values": [{
                  "downStreamDefaultValue": true,
                  "code": "STDN",
                  "enabled": true,
                  "value": "Student, Health Care",
                  "canonicalValue": false
               }
            ]
         }
      ],
      "type": "rdm/lookupTypes/App-LSCustomer360ProfessionalDesignation",
      "localizations": []
   }, {
      "startDate": 0,
      "code": "VDR",
      "endDate": 0,
      "enabled": true,
      "tenantId": "{{rdmTenant}}",
      "parents": [],
      "sourceMappings": [{
            "source": "Reltio",
            "values": [{
                  "downStreamDefaultValue": true,
                  "code": "VDR",
                  "enabled": true,
                  "value": "Diagnostic Radiology",
                  "canonicalValue": true
               }
            ]
         }, {
            "source": "ReltioRDM",
            "values": [{
                  "downStreamDefaultValue": true,
                  "code": "VDR",
                  "enabled": true,
                  "value": "Diagnostic Radiology",
                  "canonicalValue": false
               }
            ]
         }
      ],
      "type": "rdm/lookupTypes/App-LSCustomer360ProfessionalDesignation",
      "localizations": []
   }, {
      "startDate": 0,
      "code": "HS",
      "endDate": 0,
      "enabled": true,
      "tenantId": "{{rdmTenant}}",
      "parents": [],
      "sourceMappings": [{
            "source": "Reltio",
            "values": [{
                  "downStreamDefaultValue": true,
                  "code": "HS",
                  "enabled": true,
                  "value": "Surgery, Hand Surgery",
                  "canonicalValue": true
               }
            ]
         }, {
            "source": "ReltioRDM",
            "values": [{
                  "downStreamDefaultValue": true,
                  "code": "HS",
                  "enabled": true,
                  "value": "Surgery, Hand Surgery",
                  "canonicalValue": false
               }
            ]
         }
      ],
      "type": "rdm/lookupTypes/App-LSCustomer360ProfessionalDesignation",
      "localizations": []
   }, {
      "startDate": 0,
      "code": "AC",
      "endDate": 0,
      "enabled": true,
      "tenantId": "{{rdmTenant}}",
      "parents": [],
      "sourceMappings": [{
            "source": "Reltio",
            "values": [{
                  "downStreamDefaultValue": true,
                  "code": "AC",
                  "enabled": true,
                  "value": "Ambulatory Care",
                  "canonicalValue": true
               }
            ]
         }, {
            "source": "ReltioRDM",
            "values": [{
                  "downStreamDefaultValue": true,
                  "code": "AC",
                  "enabled": true,
                  "value": "Ambulatory Care",
                  "canonicalValue": false
               }
            ]
         }
      ],
      "type": "rdm/lookupTypes/App-LSCustomer360ProfessionalDesignation",
      "localizations": []
   }, {
      "startDate": 0,
      "code": "HT",
      "endDate": 0,
      "enabled": true,
      "tenantId": "{{rdmTenant}}",
      "parents": [],
      "sourceMappings": [{
            "source": "Reltio",
            "values": [{
                  "downStreamDefaultValue": true,
                  "code": "HT",
                  "enabled": true,
                  "value": "Family Practice",
                  "canonicalValue": true
               }
            ]
         }, {
            "source": "ReltioRDM",
            "values": [{
                  "downStreamDefaultValue": true,
                  "code": "HT",
                  "enabled": true,
                  "value": "Family Practice",
                  "canonicalValue": false
               }
            ]
         }
      ],
      "type": "rdm/lookupTypes/App-LSCustomer360ProfessionalDesignation",
      "localizations": []
   }, {
      "startDate": 0,
      "code": "TCHC",
      "endDate": 0,
      "enabled": true,
      "tenantId": "{{rdmTenant}}",
      "parents": [],
      "sourceMappings": [{
            "source": "Reltio",
            "values": [{
                  "downStreamDefaultValue": true,
                  "code": "TCHC",
                  "enabled": true,
                  "value": "TECHNOLOGIST - CARDIOLOGY/VASCULAR",
                  "canonicalValue": true
               }
            ]
         }, {
            "source": "ReltioRDM",
            "values": [{
                  "downStreamDefaultValue": true,
                  "code": "TCHC",
                  "enabled": true,
                  "value": "TECHNOLOGIST - CARDIOLOGY/VASCULAR",
                  "canonicalValue": false
               }
            ]
         }
      ],
      "type": "rdm/lookupTypes/App-LSCustomer360ProfessionalDesignation",
      "localizations": []
   }, {
      "startDate": 0,
      "code": "HH",
      "endDate": 0,
      "enabled": true,
      "tenantId": "{{rdmTenant}}",
      "parents": [],
      "sourceMappings": [{
            "source": "Reltio",
            "values": [{
                  "downStreamDefaultValue": true,
                  "code": "HH",
                  "enabled": true,
                  "value": "Holistic Health/Nutrition/Vitamins",
                  "canonicalValue": true
               }
            ]
         }, {
            "source": "ReltioRDM",
            "values": [{
                  "downStreamDefaultValue": true,
                  "code": "HH",
                  "enabled": true,
                  "value": "Holistic Health/Nutrition/Vitamins",
                  "canonicalValue": false
               }
            ]
         }
      ],
      "type": "rdm/lookupTypes/App-LSCustomer360ProfessionalDesignation",
      "localizations": []
   }, {
      "startDate": 0,
      "code": "HO",
      "endDate": 0,
      "enabled": true,
      "tenantId": "{{rdmTenant}}",
      "parents": [],
      "sourceMappings": [{
            "source": "Reltio",
            "values": [{
                  "downStreamDefaultValue": true,
                  "code": "HO",
                  "enabled": true,
                  "value": "Hematology/Oncology",
                  "canonicalValue": true
               }
            ]
         }, {
            "source": "ReltioRDM",
            "values": [{
                  "downStreamDefaultValue": true,
                  "code": "HO",
                  "enabled": true,
                  "value": "Hematology/Oncology",
                  "canonicalValue": false
               }
            ]
         }
      ],
      "type": "rdm/lookupTypes/App-LSCustomer360ProfessionalDesignation",
      "localizations": []
   }, {
      "startDate": 0,
      "code": "DEN",
      "endDate": 0,
      "enabled": true,
      "tenantId": "{{rdmTenant}}",
      "parents": [],
      "sourceMappings": [{
            "source": "Reltio",
            "values": [{
                  "downStreamDefaultValue": true,
                  "code": "DEN",
                  "enabled": true,
                  "value": "Dentist",
                  "canonicalValue": true
               }
            ]
         }, {
            "source": "ReltioRDM",
            "values": [{
                  "downStreamDefaultValue": true,
                  "code": "DEN",
                  "enabled": true,
                  "value": "Dentist",
                  "canonicalValue": false
               }
            ]
         }
      ],
      "type": "rdm/lookupTypes/App-LSCustomer360ProfessionalDesignation",
      "localizations": []
   }, {
      "startDate": 0,
      "code": "TCHA",
      "endDate": 0,
      "enabled": true,
      "tenantId": "{{rdmTenant}}",
      "parents": [],
      "sourceMappings": [{
            "source": "Reltio",
            "values": [{
                  "downStreamDefaultValue": true,
                  "code": "TCHA",
                  "enabled": true,
                  "value": "Technologist - Audiology/Speech/Language",
                  "canonicalValue": true
               }
            ]
         }, {
            "source": "ReltioRDM",
            "values": [{
                  "downStreamDefaultValue": true,
                  "code": "TCHA",
                  "enabled": true,
                  "value": "Technologist - Audiology/Speech/Language",
                  "canonicalValue": false
               }
            ]
         }
      ],
      "type": "rdm/lookupTypes/App-LSCustomer360ProfessionalDesignation",
      "localizations": []
   }, {
      "startDate": 0,
      "code": "AMI",
      "endDate": 0,
      "enabled": true,
      "tenantId": "{{rdmTenant}}",
      "parents": [],
      "sourceMappings": [{
            "source": "Reltio",
            "values": [{
                  "downStreamDefaultValue": true,
                  "code": "AMI",
                  "enabled": true,
                  "value": "Adolescent Medicine, IM",
                  "canonicalValue": true
               }
            ]
         }, {
            "source": "ReltioRDM",
            "values": [{
                  "downStreamDefaultValue": true,
                  "code": "AMI",
                  "enabled": true,
                  "value": "Adolescent Medicine, IM",
                  "canonicalValue": false
               }
            ]
         }
      ],
      "type": "rdm/lookupTypes/App-LSCustomer360ProfessionalDesignation",
      "localizations": []
   }, {
      "startDate": 0,
      "code": "SCL",
      "endDate": 0,
      "enabled": true,
      "tenantId": "{{rdmTenant}}",
      "parents": [],
      "sourceMappings": [{
            "source": "Reltio",
            "values": [{
                  "downStreamDefaultValue": true,
                  "code": "SCL",
                  "enabled": true,
                  "value": "Other Specialty",
                  "canonicalValue": true
               }
            ]
         }, {
            "source": "ReltioRDM",
            "values": [{
                  "downStreamDefaultValue": true,
                  "code": "SCL",
                  "enabled": true,
                  "value": "Other Specialty",
                  "canonicalValue": false
               }
            ]
         }
      ],
      "type": "rdm/lookupTypes/App-LSCustomer360ProfessionalDesignation",
      "localizations": []
   }, {
      "startDate": 0,
      "code": "SCH",
      "endDate": 0,
      "enabled": true,
      "tenantId": "{{rdmTenant}}",
      "parents": [],
      "sourceMappings": [{
            "source": "Reltio",
            "values": [{
                  "downStreamDefaultValue": true,
                  "code": "SCH",
                  "enabled": true,
                  "value": "School/College Health",
                  "canonicalValue": true
               }
            ]
         }, {
            "source": "ReltioRDM",
            "values": [{
                  "downStreamDefaultValue": true,
                  "code": "SCH",
                  "enabled": true,
                  "value": "School/College Health",
                  "canonicalValue": false
               }
            ]
         }
      ],
      "type": "rdm/lookupTypes/App-LSCustomer360ProfessionalDesignation",
      "localizations": []
   }, {
      "startDate": 0,
      "code": "PTH",
      "endDate": 0,
      "enabled": true,
      "tenantId": "{{rdmTenant}}",
      "parents": [],
      "sourceMappings": [{
            "source": "Reltio",
            "values": [{
                  "downStreamDefaultValue": true,
                  "code": "PTH",
                  "enabled": true,
                  "value": "Pathology",
                  "canonicalValue": true
               }
            ]
         }, {
            "source": "ReltioRDM",
            "values": [{
                  "downStreamDefaultValue": true,
                  "code": "PTH",
                  "enabled": true,
                  "value": "Pathology",
                  "canonicalValue": false
               }
            ]
         }
      ],
      "type": "rdm/lookupTypes/App-LSCustomer360ProfessionalDesignation",
      "localizations": []
   }, {
      "startDate": 0,
      "code": "OSS",
      "endDate": 0,
      "enabled": true,
      "tenantId": "{{rdmTenant}}",
      "parents": [],
      "sourceMappings": [{
            "source": "Reltio",
            "values": [{
                  "downStreamDefaultValue": true,
                  "code": "OSS",
                  "enabled": true,
                  "value": "Orthopedic Surgery of The Spine",
                  "canonicalValue": true
               }
            ]
         }, {
            "source": "ReltioRDM",
            "values": [{
                  "downStreamDefaultValue": true,
                  "code": "OSS",
                  "enabled": true,
                  "value": "Orthopedic Surgery of The Spine",
                  "canonicalValue": false
               }
            ]
         }
      ],
      "type": "rdm/lookupTypes/App-LSCustomer360ProfessionalDesignation",
      "localizations": []
   }, {
      "startDate": 0,
      "code": "AME",
      "endDate": 0,
      "enabled": true,
      "tenantId": "{{rdmTenant}}",
      "parents": [],
      "sourceMappings": [{
            "source": "Reltio",
            "values": [{
                  "downStreamDefaultValue": true,
                  "code": "AME",
                  "enabled": true,
                  "value": "Addiction Medicine",
                  "canonicalValue": true
               }
            ]
         }, {
            "source": "ReltioRDM",
            "values": [{
                  "downStreamDefaultValue": true,
                  "code": "AME",
                  "enabled": true,
                  "value": "Addiction Medicine",
                  "canonicalValue": false
               }
            ]
         }
      ],
      "type": "rdm/lookupTypes/App-LSCustomer360ProfessionalDesignation",
      "localizations": []
   }, {
      "startDate": 0,
      "code": "AMD",
      "endDate": 0,
      "enabled": true,
      "tenantId": "{{rdmTenant}}",
      "parents": [],
      "sourceMappings": [{
            "source": "Reltio",
            "values": [{
                  "downStreamDefaultValue": true,
                  "code": "AMD",
                  "enabled": true,
                  "value": "Administrative Medicine",
                  "canonicalValue": true
               }
            ]
         }, {
            "source": "ReltioRDM",
            "values": [{
                  "downStreamDefaultValue": true,
                  "code": "AMD",
                  "enabled": true,
                  "value": "Administrative Medicine",
                  "canonicalValue": false
               }
            ]
         }
      ],
      "type": "rdm/lookupTypes/App-LSCustomer360ProfessionalDesignation",
      "localizations": []
   }, {
      "startDate": 0,
      "code": "AMF",
      "endDate": 0,
      "enabled": true,
      "tenantId": "{{rdmTenant}}",
      "parents": [],
      "sourceMappings": [{
            "source": "Reltio",
            "values": [{
                  "downStreamDefaultValue": true,
                  "code": "AMF",
                  "enabled": true,
                  "value": "Adolescent Medicine",
                  "canonicalValue": true
               }
            ]
         }, {
            "source": "ReltioRDM",
            "values": [{
                  "downStreamDefaultValue": true,
                  "code": "AMF",
                  "enabled": true,
                  "value": "Adolescent Medicine",
                  "canonicalValue": false
               }
            ]
         }
      ],
      "type": "rdm/lookupTypes/App-LSCustomer360ProfessionalDesignation",
      "localizations": []
   }, {
      "startDate": 0,
      "code": "OSM",
      "endDate": 0,
      "enabled": true,
      "tenantId": "{{rdmTenant}}",
      "parents": [],
      "sourceMappings": [{
            "source": "Reltio",
            "values": [{
                  "downStreamDefaultValue": true,
                  "code": "OSM",
                  "enabled": true,
                  "value": "Orthopedic Surg, Sports Medicine",
                  "canonicalValue": true
               }
            ]
         }, {
            "source": "ReltioRDM",
            "values": [{
                  "downStreamDefaultValue": true,
                  "code": "OSM",
                  "enabled": true,
                  "value": "Orthopedic Surg, Sports Medicine",
                  "canonicalValue": false
               }
            ]
         }
      ],
      "type": "rdm/lookupTypes/App-LSCustomer360ProfessionalDesignation",
      "localizations": []
   }, {
      "startDate": 0,
      "code": "PTX",
      "endDate": 0,
      "enabled": true,
      "tenantId": "{{rdmTenant}}",
      "parents": [],
      "sourceMappings": [{
            "source": "Reltio",
            "values": [{
                  "downStreamDefaultValue": true,
                  "code": "PTX",
                  "enabled": true,
                  "value": "Medical Toxicology (Preventative Medicine)",
                  "canonicalValue": true
               }
            ]
         }, {
            "source": "ReltioRDM",
            "values": [{
                  "downStreamDefaultValue": true,
                  "code": "PTX",
                  "enabled": true,
                  "value": "Medical Toxicology (Preventative Medicine)",
                  "canonicalValue": false
               }
            ]
         }
      ],
      "type": "rdm/lookupTypes/App-LSCustomer360ProfessionalDesignation",
      "localizations": []
   }, {
      "startDate": 0,
      "code": "TCHD",
      "endDate": 0,
      "enabled": true,
      "tenantId": "{{rdmTenant}}",
      "parents": [],
      "sourceMappings": [{
            "source": "Reltio",
            "values": [{
                  "downStreamDefaultValue": true,
                  "code": "TCHD",
                  "enabled": true,
                  "value": "Technologist - Dental",
                  "canonicalValue": true
               }
            ]
         }, {
            "source": "ReltioRDM",
            "values": [{
                  "downStreamDefaultValue": true,
                  "code": "TCHD",
                  "enabled": true,
                  "value": "Technologist - Dental",
                  "canonicalValue": false
               }
            ]
         }
      ],
      "type": "rdm/lookupTypes/App-LSCustomer360ProfessionalDesignation",
      "localizations": []
   }, {
      "startDate": 0,
      "code": "OSG",
      "endDate": 0,
      "enabled": true,
      "tenantId": "{{rdmTenant}}",
      "parents": [],
      "sourceMappings": [{
            "source": "Reltio",
            "values": [{
                  "downStreamDefaultValue": true,
                  "code": "OSG",
                  "enabled": true,
                  "value": "Oral and Maxillofacial Surgery",
                  "canonicalValue": true
               }
            ]
         }, {
            "source": "ReltioRDM",
            "values": [{
                  "downStreamDefaultValue": true,
                  "code": "OSG",
                  "enabled": true,
                  "value": "Oral and Maxillofacial Surgery",
                  "canonicalValue": false
               }
            ]
         }
      ],
      "type": "rdm/lookupTypes/App-LSCustomer360ProfessionalDesignation",
      "localizations": []
   }, {
      "startDate": 0,
      "code": "PTP",
      "endDate": 0,
      "enabled": true,
      "tenantId": "{{rdmTenant}}",
      "parents": [],
      "sourceMappings": [{
            "source": "Reltio",
            "values": [{
                  "downStreamDefaultValue": true,
                  "code": "PTP",
                  "enabled": true,
                  "value": "Pediatric Transplant Hepatology",
                  "canonicalValue": true
               }
            ]
         }, {
            "source": "ReltioRDM",
            "values": [{
                  "downStreamDefaultValue": true,
                  "code": "PTP",
                  "enabled": true,
                  "value": "Pediatric Transplant Hepatology",
                  "canonicalValue": false
               }
            ]
         }
      ],
      "type": "rdm/lookupTypes/App-LSCustomer360ProfessionalDesignation",
      "localizations": []
   }, {
      "startDate": 0,
      "code": "PYN",
      "endDate": 0,
      "enabled": true,
      "tenantId": "{{rdmTenant}}",
      "parents": [],
      "sourceMappings": [{
            "source": "Reltio",
            "values": [{
                  "downStreamDefaultValue": true,
                  "code": "PYN",
                  "enabled": true,
                  "value": "Psychiatry/Neurology",
                  "canonicalValue": true
               }
            ]
         }, {
            "source": "ReltioRDM",
            "values": [{
                  "downStreamDefaultValue": true,
                  "code": "PYN",
                  "enabled": true,
                  "value": "Psychiatry/Neurology",
                  "canonicalValue": false
               }
            ]
         }
      ],
      "type": "rdm/lookupTypes/App-LSCustomer360ProfessionalDesignation",
      "localizations": []
   }, {
      "startDate": 0,
      "code": "BHAV",
      "endDate": 0,
      "enabled": true,
      "tenantId": "{{rdmTenant}}",
      "parents": [],
      "sourceMappings": [{
            "source": "Reltio",
            "values": [{
                  "downStreamDefaultValue": true,
                  "code": "BHAV",
                  "enabled": true,
                  "value": "Behavioral Health & Social Services",
                  "canonicalValue": true
               }
            ]
         }, {
            "source": "ReltioRDM",
            "values": [{
                  "downStreamDefaultValue": true,
                  "code": "BHAV",
                  "enabled": true,
                  "value": "Behavioral Health & Social Services",
                  "canonicalValue": false
               }
            ]
         }
      ],
      "type": "rdm/lookupTypes/App-LSCustomer360ProfessionalDesignation",
      "localizations": []
   }, {
      "startDate": 0,
      "code": "DBP",
      "endDate": 0,
      "enabled": true,
      "tenantId": "{{rdmTenant}}",
      "parents": [],
      "sourceMappings": [{
            "source": "Reltio",
            "values": [{
                  "downStreamDefaultValue": true,
                  "code": "DBP",
                  "enabled": true,
                  "value": "Developmental/Behavioral Pediatrics",
                  "canonicalValue": true
               }
            ]
         }, {
            "source": "ReltioRDM",
            "values": [{
                  "downStreamDefaultValue": true,
                  "code": "DBP",
                  "enabled": true,
                  "value": "Developmental/Behavioral Pediatrics",
                  "canonicalValue": false
               }
            ]
         }
      ],
      "type": "rdm/lookupTypes/App-LSCustomer360ProfessionalDesignation",
      "localizations": []
   }, {
      "startDate": 0,
      "code": "TRS",
      "endDate": 0,
      "enabled": true,
      "tenantId": "{{rdmTenant}}",
      "parents": [],
      "sourceMappings": [{
            "source": "Reltio",
            "values": [{
                  "downStreamDefaultValue": true,
                  "code": "TRS",
                  "enabled": true,
                  "value": "Trauma Surgery",
                  "canonicalValue": true
               }
            ]
         }, {
            "source": "ReltioRDM",
            "values": [{
                  "downStreamDefaultValue": true,
                  "code": "TRS",
                  "enabled": true,
                  "value": "Trauma Surgery",
                  "canonicalValue": false
               }
            ]
         }
      ],
      "type": "rdm/lookupTypes/App-LSCustomer360ProfessionalDesignation",
      "localizations": []
   }, {
      "startDate": 0,
      "code": "UPR",
      "endDate": 0,
      "enabled": true,
      "tenantId": "{{rdmTenant}}",
      "parents": [],
      "sourceMappings": [{
            "source": "Reltio",
            "values": [{
                  "downStreamDefaultValue": true,
                  "code": "UPR",
                  "enabled": true,
                  "value": "Female Pelvic Medicine & Recon Surgery (Uro)",
                  "canonicalValue": true
               }
            ]
         }, {
            "source": "ReltioRDM",
            "values": [{
                  "downStreamDefaultValue": true,
                  "code": "UPR",
                  "enabled": true,
                  "value": "Female Pelvic Medicine & Recon Surgery (Uro)",
                  "canonicalValue": false
               }
            ]
         }
      ],
      "type": "rdm/lookupTypes/App-LSCustomer360ProfessionalDesignation",
      "localizations": []
   }, {
      "startDate": 0,
      "code": "MPD",
      "endDate": 0,
      "enabled": true,
      "tenantId": "{{rdmTenant}}",
      "parents": [],
      "sourceMappings": [{
            "source": "Reltio",
            "values": [{
                  "downStreamDefaultValue": true,
                  "code": "MPD",
                  "enabled": true,
                  "value": "Internal Medicine/Pediatrics",
                  "canonicalValue": true
               }
            ]
         }, {
            "source": "ReltioRDM",
            "values": [{
                  "downStreamDefaultValue": true,
                  "code": "MPD",
                  "enabled": true,
                  "value": "Internal Medicine/Pediatrics",
                  "canonicalValue": false
               }
            ]
         }
      ],
      "type": "rdm/lookupTypes/App-LSCustomer360ProfessionalDesignation",
      "localizations": []
   }, {
      "startDate": 0,
      "code": "MPM",
      "endDate": 0,
      "enabled": true,
      "tenantId": "{{rdmTenant}}",
      "parents": [],
      "sourceMappings": [{
            "source": "Reltio",
            "values": [{
                  "downStreamDefaultValue": true,
                  "code": "MPM",
                  "enabled": true,
                  "value": "IM - Physical Med and Rehab",
                  "canonicalValue": true
               }
            ]
         }, {
            "source": "ReltioRDM",
            "values": [{
                  "downStreamDefaultValue": true,
                  "code": "MPM",
                  "enabled": true,
                  "value": "IM - Physical Med and Rehab",
                  "canonicalValue": false
               }
            ]
         }
      ],
      "type": "rdm/lookupTypes/App-LSCustomer360ProfessionalDesignation",
      "localizations": []
   }, {
      "startDate": 0,
      "code": "UP",
      "endDate": 0,
      "enabled": true,
      "tenantId": "{{rdmTenant}}",
      "parents": [],
      "sourceMappings": [{
            "source": "Reltio",
            "values": [{
                  "downStreamDefaultValue": true,
                  "code": "UP",
                  "enabled": true,
                  "value": "Pediatric Urology",
                  "canonicalValue": true
               }
            ]
         }, {
            "source": "ReltioRDM",
            "values": [{
                  "downStreamDefaultValue": true,
                  "code": "UP",
                  "enabled": true,
                  "value": "Pediatric Urology",
                  "canonicalValue": false
               }
            ]
         }
      ],
      "type": "rdm/lookupTypes/App-LSCustomer360ProfessionalDesignation",
      "localizations": []
   }, {
      "startDate": 0,
      "code": "US",
      "endDate": 0,
      "enabled": true,
      "tenantId": "{{rdmTenant}}",
      "parents": [],
      "sourceMappings": [{
            "source": "Reltio",
            "values": [{
                  "downStreamDefaultValue": true,
                  "code": "US",
                  "enabled": true,
                  "value": "Unspecified",
                  "canonicalValue": true
               }
            ]
         }, {
            "source": "ReltioRDM",
            "values": [{
                  "downStreamDefaultValue": true,
                  "code": "US",
                  "enabled": true,
                  "value": "Unspecified",
                  "canonicalValue": false
               }
            ]
         }
      ],
      "type": "rdm/lookupTypes/App-LSCustomer360ProfessionalDesignation",
      "localizations": []
   }, {
      "startDate": 0,
      "code": "UM",
      "endDate": 0,
      "enabled": true,
      "tenantId": "{{rdmTenant}}",
      "parents": [],
      "sourceMappings": [{
            "source": "Reltio",
            "values": [{
                  "downStreamDefaultValue": true,
                  "code": "UM",
                  "enabled": true,
                  "value": "Undersea Medicine",
                  "canonicalValue": true
               }
            ]
         }, {
            "source": "ReltioRDM",
            "values": [{
                  "downStreamDefaultValue": true,
                  "code": "UM",
                  "enabled": true,
                  "value": "Undersea Medicine",
                  "canonicalValue": false
               }
            ]
         }
      ],
      "type": "rdm/lookupTypes/App-LSCustomer360ProfessionalDesignation",
      "localizations": []
   }, {
      "startDate": 0,
      "code": "DNPR",
      "endDate": 0,
      "enabled": true,
      "tenantId": "{{rdmTenant}}",
      "parents": [],
      "sourceMappings": [{
            "source": "Reltio",
            "values": [{
                  "downStreamDefaultValue": true,
                  "code": "DNPR",
                  "enabled": true,
                  "value": "Dentistry/Periodontics",
                  "canonicalValue": true
               }
            ]
         }, {
            "source": "ReltioRDM",
            "values": [{
                  "downStreamDefaultValue": true,
                  "code": "DNPR",
                  "enabled": true,
                  "value": "Dentistry/Periodontics",
                  "canonicalValue": false
               }
            ]
         }
      ],
      "type": "rdm/lookupTypes/App-LSCustomer360ProfessionalDesignation",
      "localizations": []
   }, {
      "startDate": 0,
      "code": "HOS",
      "endDate": 0,
      "enabled": true,
      "tenantId": "{{rdmTenant}}",
      "parents": [],
      "sourceMappings": [{
            "source": "Reltio",
            "values": [{
                  "downStreamDefaultValue": true,
                  "code": "HOS",
                  "enabled": true,
                  "value": "Hospitalist",
                  "canonicalValue": true
               }
            ]
         }, {
            "source": "ReltioRDM",
            "values": [{
                  "downStreamDefaultValue": true,
                  "code": "HOS",
                  "enabled": true,
                  "value": "Hospitalist",
                  "canonicalValue": false
               }
            ]
         }
      ],
      "type": "rdm/lookupTypes/App-LSCustomer360ProfessionalDesignation",
      "localizations": []
   }, {
      "startDate": 0,
      "code": "ACC",
      "endDate": 0,
      "enabled": true,
      "tenantId": "{{rdmTenant}}",
      "parents": [],
      "sourceMappings": [{
            "source": "Reltio",
            "values": [{
                  "downStreamDefaultValue": true,
                  "code": "ACC",
                  "enabled": true,
                  "value": "Anesthesiology, Critical Care Medicine",
                  "canonicalValue": true
               }
            ]
         }, {
            "source": "ReltioRDM",
            "values": [{
                  "downStreamDefaultValue": true,
                  "code": "ACC",
                  "enabled": true,
                  "value": "Anesthesiology, Critical Care Medicine",
                  "canonicalValue": false
               }
            ]
         }
      ],
      "type": "rdm/lookupTypes/App-LSCustomer360ProfessionalDesignation",
      "localizations": []
   }, {
      "startDate": 0,
      "code": "ACA",
      "endDate": 0,
      "enabled": true,
      "tenantId": "{{rdmTenant}}",
      "parents": [],
      "sourceMappings": [{
            "source": "Reltio",
            "values": [{
                  "downStreamDefaultValue": true,
                  "code": "ACA",
                  "enabled": true,
                  "value": "Anesthesiology, Adult Cardiothoracic",
                  "canonicalValue": true
               }
            ]
         }, {
            "source": "ReltioRDM",
            "values": [{
                  "downStreamDefaultValue": true,
                  "code": "ACA",
                  "enabled": true,
                  "value": "Anesthesiology, Adult Cardiothoracic",
                  "canonicalValue": false
               }
            ]
         }
      ],
      "type": "rdm/lookupTypes/App-LSCustomer360ProfessionalDesignation",
      "localizations": []
   }, {
      "startDate": 0,
      "code": "FPR",
      "endDate": 0,
      "enabled": true,
      "tenantId": "{{rdmTenant}}",
      "parents": [],
      "sourceMappings": [{
            "source": "Reltio",
            "values": [{
                  "downStreamDefaultValue": true,
                  "code": "FPR",
                  "enabled": true,
                  "value": "Female Pelvic Medicine & Recon Surgery (OBG)",
                  "canonicalValue": true
               }
            ]
         }, {
            "source": "ReltioRDM",
            "values": [{
                  "downStreamDefaultValue": true,
                  "code": "FPR",
                  "enabled": true,
                  "value": "Female Pelvic Medicine & Recon Surgery (OBG)",
                  "canonicalValue": false
               }
            ]
         }
      ],
      "type": "rdm/lookupTypes/App-LSCustomer360ProfessionalDesignation",
      "localizations": []
   }, {
      "startDate": 0,
      "code": "HFT",
      "endDate": 0,
      "enabled": true,
      "tenantId": "{{rdmTenant}}",
      "parents": [],
      "sourceMappings": [{
            "source": "Reltio",
            "values": [{
                  "downStreamDefaultValue": true,
                  "code": "HFT",
                  "enabled": true,
                  "value": "Advanced Heart Failure & Transplant Cardiology",
                  "canonicalValue": true
               }
            ]
         }, {
            "source": "ReltioRDM",
            "values": [{
                  "downStreamDefaultValue": true,
                  "code": "HFT",
                  "enabled": true,
                  "value": "Advanced Heart Failure & Transplant Cardiology",
                  "canonicalValue": false
               }
            ]
         }
      ],
      "type": "rdm/lookupTypes/App-LSCustomer360ProfessionalDesignation",
      "localizations": []
   }, {
      "startDate": 0,
      "code": "ACP",
      "endDate": 0,
      "enabled": true,
      "tenantId": "{{rdmTenant}}",
      "parents": [],
      "sourceMappings": [{
            "source": "Reltio",
            "values": [{
                  "downStreamDefaultValue": true,
                  "code": "ACP",
                  "enabled": true,
                  "value": "Acute Care Pediatrics (APNs only)",
                  "canonicalValue": true
               }
            ]
         }, {
            "source": "ReltioRDM",
            "values": [{
                  "downStreamDefaultValue": true,
                  "code": "ACP",
                  "enabled": true,
                  "value": "Acute Care Pediatrics (APNs only)",
                  "canonicalValue": false
               }
            ]
         }
      ],
      "type": "rdm/lookupTypes/App-LSCustomer360ProfessionalDesignation",
      "localizations": []
   }, {
      "startDate": 0,
      "code": "ACU",
      "endDate": 0,
      "enabled": true,
      "tenantId": "{{rdmTenant}}",
      "parents": [],
      "sourceMappings": [{
            "source": "Reltio",
            "values": [{
                  "downStreamDefaultValue": true,
                  "code": "ACU",
                  "enabled": true,
                  "value": "Acupuncture",
                  "canonicalValue": true
               }
            ]
         }, {
            "source": "ReltioRDM",
            "values": [{
                  "downStreamDefaultValue": true,
                  "code": "ACU",
                  "enabled": true,
                  "value": "Acupuncture",
                  "canonicalValue": false
               }
            ]
         }
      ],
      "type": "rdm/lookupTypes/App-LSCustomer360ProfessionalDesignation",
      "localizations": []
   }, {
      "startDate": 0,
      "code": "GVS",
      "endDate": 0,
      "enabled": true,
      "tenantId": "{{rdmTenant}}",
      "parents": [],
      "sourceMappings": [{
            "source": "Reltio",
            "values": [{
                  "downStreamDefaultValue": true,
                  "code": "GVS",
                  "enabled": true,
                  "value": "Vascular Surgery",
                  "canonicalValue": true
               }
            ]
         }, {
            "source": "ReltioRDM",
            "values": [{
                  "downStreamDefaultValue": true,
                  "code": "GVS",
                  "enabled": true,
                  "value": "Vascular Surgery",
                  "canonicalValue": false
               }
            ]
         }
      ],
      "type": "rdm/lookupTypes/App-LSCustomer360ProfessionalDesignation",
      "localizations": []
   }, {
      "startDate": 0,
      "code": "IFP",
      "endDate": 0,
      "enabled": true,
      "tenantId": "{{rdmTenant}}",
      "parents": [],
      "sourceMappings": [{
            "source": "Reltio",
            "values": [{
                  "downStreamDefaultValue": true,
                  "code": "IFP",
                  "enabled": true,
                  "value": "Internal Medicine/FP",
                  "canonicalValue": true
               }
            ]
         }, {
            "source": "ReltioRDM",
            "values": [{
                  "downStreamDefaultValue": true,
                  "code": "IFP",
                  "enabled": true,
                  "value": "Internal Medicine/FP",
                  "canonicalValue": false
               }
            ]
         }
      ],
      "type": "rdm/lookupTypes/App-LSCustomer360ProfessionalDesignation",
      "localizations": []
   }, {
      "startDate": 0,
      "code": "NET",
      "endDate": 0,
      "enabled": true,
      "tenantId": "{{rdmTenant}}",
      "parents": [],
      "sourceMappings": [{
            "source": "Reltio",
            "values": [{
                  "downStreamDefaultValue": true,
                  "code": "NET",
                  "enabled": true,
                  "value": "Transplant Nephrology",
                  "canonicalValue": true
               }
            ]
         }, {
            "source": "ReltioRDM",
            "values": [{
                  "downStreamDefaultValue": true,
                  "code": "NET",
                  "enabled": true,
                  "value": "Transplant Nephrology",
                  "canonicalValue": false
               }
            ]
         }
      ],
      "type": "rdm/lookupTypes/App-LSCustomer360ProfessionalDesignation",
      "localizations": []
   }, {
      "startDate": 0,
      "code": "NEP",
      "endDate": 0,
      "enabled": true,
      "tenantId": "{{rdmTenant}}",
      "parents": [],
      "sourceMappings": [{
            "source": "Reltio",
            "values": [{
                  "downStreamDefaultValue": true,
                  "code": "NEP",
                  "enabled": true,
                  "value": "Nephrology",
                  "canonicalValue": true
               }
            ]
         }, {
            "source": "ReltioRDM",
            "values": [{
                  "downStreamDefaultValue": true,
                  "code": "NEP",
                  "enabled": true,
                  "value": "Nephrology",
                  "canonicalValue": false
               }
            ]
         }
      ],
      "type": "rdm/lookupTypes/App-LSCustomer360ProfessionalDesignation",
      "localizations": []
   }, {
      "startDate": 0,
      "code": "NI",
      "endDate": 0,
      "enabled": true,
      "tenantId": "{{rdmTenant}}",
      "parents": [],
      "sourceMappings": [{
            "source": "Reltio",
            "values": [{
                  "downStreamDefaultValue": true,
                  "code": "NI",
                  "enabled": true,
                  "value": "Nuclear Imaging & Therapy",
                  "canonicalValue": true
               }
            ]
         }, {
            "source": "ReltioRDM",
            "values": [{
                  "downStreamDefaultValue": true,
                  "code": "NI",
                  "enabled": true,
                  "value": "Nuclear Imaging & Therapy",
                  "canonicalValue": false
               }
            ]
         }
      ],
      "type": "rdm/lookupTypes/App-LSCustomer360ProfessionalDesignation",
      "localizations": []
   }, {
      "startDate": 0,
      "code": "CNM",
      "endDate": 0,
      "enabled": true,
      "tenantId": "{{rdmTenant}}",
      "parents": [],
      "sourceMappings": [{
            "source": "Reltio",
            "values": [{
                  "downStreamDefaultValue": true,
                  "code": "CNM",
                  "enabled": true,
                  "value": "Certified Nurse Midwife",
                  "canonicalValue": true
               }
            ]
         }, {
            "source": "ReltioRDM",
            "values": [{
                  "downStreamDefaultValue": true,
                  "code": "CNM",
                  "enabled": true,
                  "value": "Certified Nurse Midwife",
                  "canonicalValue": false
               }
            ]
         }
      ],
      "type": "rdm/lookupTypes/App-LSCustomer360ProfessionalDesignation",
      "localizations": []
   }, {
      "startDate": 0,
      "code": "PMP",
      "endDate": 0,
      "enabled": true,
      "tenantId": "{{rdmTenant}}",
      "parents": [],
      "sourceMappings": [{
            "source": "Reltio",
            "values": [{
                  "downStreamDefaultValue": true,
                  "code": "PMP",
                  "enabled": true,
                  "value": "Ped/Physical Med & Rehab (Res Train Spec)",
                  "canonicalValue": true
               }
            ]
         }, {
            "source": "ReltioRDM",
            "values": [{
                  "downStreamDefaultValue": true,
                  "code": "PMP",
                  "enabled": true,
                  "value": "Ped/Physical Med & Rehab (Res Train Spec)",
                  "canonicalValue": false
               }
            ]
         }
      ],
      "type": "rdm/lookupTypes/App-LSCustomer360ProfessionalDesignation",
      "localizations": []
   }, {
      "startDate": 0,
      "code": "NM",
      "endDate": 0,
      "enabled": true,
      "tenantId": "{{rdmTenant}}",
      "parents": [],
      "sourceMappings": [{
            "source": "Reltio",
            "values": [{
                  "downStreamDefaultValue": true,
                  "code": "NM",
                  "enabled": true,
                  "value": "Nuclear Medicine",
                  "canonicalValue": true
               }
            ]
         }, {
            "source": "ReltioRDM",
            "values": [{
                  "downStreamDefaultValue": true,
                  "code": "NM",
                  "enabled": true,
                  "value": "Nuclear Medicine",
                  "canonicalValue": false
               }
            ]
         }
      ],
      "type": "rdm/lookupTypes/App-LSCustomer360ProfessionalDesignation",
      "localizations": []
   }, {
      "startDate": 0,
      "code": "PMR",
      "endDate": 0,
      "enabled": true,
      "tenantId": "{{rdmTenant}}",
      "parents": [],
      "sourceMappings": [{
            "source": "Reltio",
            "values": [{
                  "downStreamDefaultValue": true,
                  "code": "PMR",
                  "enabled": true,
                  "value": "Pain Mgmt, Physical Med & Rehab",
                  "canonicalValue": true
               }
            ]
         }, {
            "source": "ReltioRDM",
            "values": [{
                  "downStreamDefaultValue": true,
                  "code": "PMR",
                  "enabled": true,
                  "value": "Pain Mgmt, Physical Med & Rehab",
                  "canonicalValue": false
               }
            ]
         }
      ],
      "type": "rdm/lookupTypes/App-LSCustomer360ProfessionalDesignation",
      "localizations": []
   }, {
      "startDate": 0,
      "code": "PMS",
      "endDate": 0,
      "enabled": true,
      "tenantId": "{{rdmTenant}}",
      "parents": [],
      "sourceMappings": [{
            "source": "Reltio",
            "values": [{
                  "downStreamDefaultValue": true,
                  "code": "PMS",
                  "enabled": true,
                  "value": "Sports Medicine, Physical & Rehabilitation",
                  "canonicalValue": true
               }
            ]
         }, {
            "source": "ReltioRDM",
            "values": [{
                  "downStreamDefaultValue": true,
                  "code": "PMS",
                  "enabled": true,
                  "value": "Sports Medicine, Physical & Rehabilitation",
                  "canonicalValue": false
               }
            ]
         }
      ],
      "type": "rdm/lookupTypes/App-LSCustomer360ProfessionalDesignation",
      "localizations": []
   }, {
      "startDate": 0,
      "code": "NA",
      "endDate": 0,
      "enabled": true,
      "tenantId": "{{rdmTenant}}",
      "parents": [],
      "sourceMappings": [{
            "source": "Reltio",
            "values": [{
                  "downStreamDefaultValue": true,
                  "code": "NA",
                  "enabled": true,
                  "value": "Not Applicable",
                  "canonicalValue": true
               }
            ]
         }, {
            "source": "ReltioRDM",
            "values": [{
                  "downStreamDefaultValue": true,
                  "code": "NA",
                  "enabled": true,
                  "value": "Not Applicable",
                  "canonicalValue": false
               }
            ]
         }
      ],
      "type": "rdm/lookupTypes/App-LSCustomer360ProfessionalDesignation",
      "localizations": []
   }, {
      "startDate": 0,
      "code": "CGC",
      "endDate": 0,
      "enabled": true,
      "tenantId": "{{rdmTenant}}",
      "parents": [],
      "sourceMappings": [{
            "source": "Reltio",
            "values": [{
                  "downStreamDefaultValue": true,
                  "code": "CGC",
                  "enabled": true,
                  "value": "Genetics Counseling",
                  "canonicalValue": true
               }
            ]
         }, {
            "source": "ReltioRDM",
            "values": [{
                  "downStreamDefaultValue": true,
                  "code": "CGC",
                  "enabled": true,
                  "value": "Genetics Counseling",
                  "canonicalValue": false
               }
            ]
         }
      ],
      "type": "rdm/lookupTypes/App-LSCustomer360ProfessionalDesignation",
      "localizations": []
   }, {
      "startDate": 0,
      "code": "NC",
      "endDate": 0,
      "enabled": true,
      "tenantId": "{{rdmTenant}}",
      "parents": [],
      "sourceMappings": [{
            "source": "Reltio",
            "values": [{
                  "downStreamDefaultValue": true,
                  "code": "NC",
                  "enabled": true,
                  "value": "Nuclear Cardiology",
                  "canonicalValue": true
               }
            ]
         }, {
            "source": "ReltioRDM",
            "values": [{
                  "downStreamDefaultValue": true,
                  "code": "NC",
                  "enabled": true,
                  "value": "Nuclear Cardiology",
                  "canonicalValue": false
               }
            ]
         }
      ],
      "type": "rdm/lookupTypes/App-LSCustomer360ProfessionalDesignation",
      "localizations": []
   }, {
      "startDate": 0,
      "code": "ND",
      "endDate": 0,
      "enabled": true,
      "tenantId": "{{rdmTenant}}",
      "parents": [],
      "sourceMappings": [{
            "source": "Reltio",
            "values": [{
                  "downStreamDefaultValue": true,
                  "code": "ND",
                  "enabled": true,
                  "value": "Naturopathic Doctor",
                  "canonicalValue": true
               }
            ]
         }, {
            "source": "ReltioRDM",
            "values": [{
                  "downStreamDefaultValue": true,
                  "code": "ND",
                  "enabled": true,
                  "value": "Naturopathic Doctor",
                  "canonicalValue": false
               }
            ]
         }
      ],
      "type": "rdm/lookupTypes/App-LSCustomer360ProfessionalDesignation",
      "localizations": []
   }, {
      "startDate": 0,
      "code": "NE",
      "endDate": 0,
      "enabled": true,
      "tenantId": "{{rdmTenant}}",
      "parents": [],
      "sourceMappings": [{
            "source": "Reltio",
            "values": [{
                  "downStreamDefaultValue": true,
                  "code": "NE",
                  "enabled": true,
                  "value": "Neonatal-Perinatal Medicine",
                  "canonicalValue": true
               }
            ]
         }, {
            "source": "ReltioRDM",
            "values": [{
                  "downStreamDefaultValue": true,
                  "code": "NE",
                  "enabled": true,
                  "value": "Neonatal-Perinatal Medicine",
                  "canonicalValue": false
               }
            ]
         }
      ],
      "type": "rdm/lookupTypes/App-LSCustomer360ProfessionalDesignation",
      "localizations": []
   }, {
      "startDate": 0,
      "code": "PME",
      "endDate": 0,
      "enabled": true,
      "tenantId": "{{rdmTenant}}",
      "parents": [],
      "sourceMappings": [{
            "source": "Reltio",
            "values": [{
                  "downStreamDefaultValue": true,
                  "code": "PME",
                  "enabled": true,
                  "value": "Pain Management",
                  "canonicalValue": true
               }
            ]
         }, {
            "source": "ReltioRDM",
            "values": [{
                  "downStreamDefaultValue": true,
                  "code": "PME",
                  "enabled": true,
                  "value": "Pain Management",
                  "canonicalValue": false
               }
            ]
         }
      ],
      "type": "rdm/lookupTypes/App-LSCustomer360ProfessionalDesignation",
      "localizations": []
   }, {
      "startDate": 0,
      "code": "PMG",
      "endDate": 0,
      "enabled": true,
      "tenantId": "{{rdmTenant}}",
      "parents": [],
      "sourceMappings": [{
            "source": "Reltio",
            "values": [{
                  "downStreamDefaultValue": true,
                  "code": "PMG",
                  "enabled": true,
                  "value": "Ped/Med Genetic",
                  "canonicalValue": true
               }
            ]
         }, {
            "source": "ReltioRDM",
            "values": [{
                  "downStreamDefaultValue": true,
                  "code": "PMG",
                  "enabled": true,
                  "value": "Ped/Med Genetic",
                  "canonicalValue": false
               }
            ]
         }
      ],
      "type": "rdm/lookupTypes/App-LSCustomer360ProfessionalDesignation",
      "localizations": []
   }, {
      "startDate": 0,
      "code": "PMM",
      "endDate": 0,
      "enabled": true,
      "tenantId": "{{rdmTenant}}",
      "parents": [],
      "sourceMappings": [{
            "source": "Reltio",
            "values": [{
                  "downStreamDefaultValue": true,
                  "code": "PMM",
                  "enabled": true,
                  "value": "Sports Medicine, Physical & Rehabilitation",
                  "canonicalValue": true
               }
            ]
         }, {
            "source": "ReltioRDM",
            "values": [{
                  "downStreamDefaultValue": true,
                  "code": "PMM",
                  "enabled": true,
                  "value": "Sports Medicine, Physical & Rehabilitation",
                  "canonicalValue": false
               }
            ]
         }
      ],
      "type": "rdm/lookupTypes/App-LSCustomer360ProfessionalDesignation",
      "localizations": []
   }, {
      "startDate": 0,
      "code": "PMN",
      "endDate": 0,
      "enabled": true,
      "tenantId": "{{rdmTenant}}",
      "parents": [],
      "sourceMappings": [{
            "source": "Reltio",
            "values": [{
                  "downStreamDefaultValue": true,
                  "code": "PMN",
                  "enabled": true,
                  "value": "Pain Medicine, Neurology",
                  "canonicalValue": true
               }
            ]
         }, {
            "source": "ReltioRDM",
            "values": [{
                  "downStreamDefaultValue": true,
                  "code": "PMN",
                  "enabled": true,
                  "value": "Pain Medicine, Neurology",
                  "canonicalValue": false
               }
            ]
         }
      ],
      "type": "rdm/lookupTypes/App-LSCustomer360ProfessionalDesignation",
      "localizations": []
   }, {
      "startDate": 0,
      "code": "NS",
      "endDate": 0,
      "enabled": true,
      "tenantId": "{{rdmTenant}}",
      "parents": [],
      "sourceMappings": [{
            "source": "Reltio",
            "values": [{
                  "downStreamDefaultValue": true,
                  "code": "NS",
                  "enabled": true,
                  "value": "Neurological Surgery",
                  "canonicalValue": true
               }
            ]
         }, {
            "source": "ReltioRDM",
            "values": [{
                  "downStreamDefaultValue": true,
                  "code": "NS",
                  "enabled": true,
                  "value": "Neurological Surgery",
                  "canonicalValue": false
               }
            ]
         }
      ],
      "type": "rdm/lookupTypes/App-LSCustomer360ProfessionalDesignation",
      "localizations": []
   }, {
      "startDate": 0,
      "code": "NV",
      "endDate": 0,
      "enabled": true,
      "tenantId": "{{rdmTenant}}",
      "parents": [],
      "sourceMappings": [{
            "source": "Reltio",
            "values": [{
                  "downStreamDefaultValue": true,
                  "code": "NV",
                  "enabled": true,
                  "value": "In Vivo & In Vitro Nuclear Medicine",
                  "canonicalValue": true
               }
            ]
         }, {
            "source": "ReltioRDM",
            "values": [{
                  "downStreamDefaultValue": true,
                  "code": "NV",
                  "enabled": true,
                  "value": "In Vivo & In Vitro Nuclear Medicine",
                  "canonicalValue": false
               }
            ]
         }
      ],
      "type": "rdm/lookupTypes/App-LSCustomer360ProfessionalDesignation",
      "localizations": []
   }, {
      "startDate": 0,
      "code": "ADU",
      "endDate": 0,
      "enabled": true,
      "tenantId": "{{rdmTenant}}",
      "parents": [],
      "sourceMappings": [{
            "source": "Reltio",
            "values": [{
                  "downStreamDefaultValue": true,
                  "code": "ADU",
                  "enabled": true,
                  "value": "Adult Health (APNs)",
                  "canonicalValue": true
               }
            ]
         }, {
            "source": "ReltioRDM",
            "values": [{
                  "downStreamDefaultValue": true,
                  "code": "ADU",
                  "enabled": true,
                  "value": "Adult Health (APNs)",
                  "canonicalValue": false
               }
            ]
         }
      ],
      "type": "rdm/lookupTypes/App-LSCustomer360ProfessionalDesignation",
      "localizations": []
   }, {
      "startDate": 0,
      "code": "ADP",
      "endDate": 0,
      "enabled": true,
      "tenantId": "{{rdmTenant}}",
      "parents": [],
      "sourceMappings": [{
            "source": "Reltio",
            "values": [{
                  "downStreamDefaultValue": true,
                  "code": "ADP",
                  "enabled": true,
                  "value": "Addiction Medicine-NP",
                  "canonicalValue": true
               }
            ]
         }, {
            "source": "ReltioRDM",
            "values": [{
                  "downStreamDefaultValue": true,
                  "code": "ADP",
                  "enabled": true,
                  "value": "Addiction Medicine-NP",
                  "canonicalValue": false
               }
            ]
         }
      ],
      "type": "rdm/lookupTypes/App-LSCustomer360ProfessionalDesignation",
      "localizations": []
   }, {
      "startDate": 0,
      "code": "DNN",
      "endDate": 0,
      "enabled": true,
      "tenantId": "{{rdmTenant}}",
      "parents": [],
      "sourceMappings": [{
            "source": "Reltio",
            "values": [{
                  "downStreamDefaultValue": true,
                  "code": "DNN",
                  "enabled": true,
                  "value": "Nuclear Radiology",
                  "canonicalValue": true
               }
            ]
         }, {
            "source": "ReltioRDM",
            "values": [{
                  "downStreamDefaultValue": true,
                  "code": "DNN",
                  "enabled": true,
                  "value": "Nuclear Radiology",
                  "canonicalValue": false
               }
            ]
         }
      ],
      "type": "rdm/lookupTypes/App-LSCustomer360ProfessionalDesignation",
      "localizations": []
   }, {
      "startDate": 0,
      "code": "ADD",
      "endDate": 0,
      "enabled": true,
      "tenantId": "{{rdmTenant}}",
      "parents": [],
      "sourceMappings": [{
            "source": "Reltio",
            "values": [{
                  "downStreamDefaultValue": true,
                  "code": "ADD",
                  "enabled": true,
                  "value": "Addiction Medicine",
                  "canonicalValue": true
               }
            ]
         }, {
            "source": "ReltioRDM",
            "values": [{
                  "downStreamDefaultValue": true,
                  "code": "ADD",
                  "enabled": true,
                  "value": "Addiction Medicine",
                  "canonicalValue": false
               }
            ]
         }
      ],
      "type": "rdm/lookupTypes/App-LSCustomer360ProfessionalDesignation",
      "localizations": []
   }, {
      "startDate": 0,
      "code": "ADA",
      "endDate": 0,
      "enabled": true,
      "tenantId": "{{rdmTenant}}",
      "parents": [],
      "sourceMappings": [{
            "source": "Reltio",
            "values": [{
                  "downStreamDefaultValue": true,
                  "code": "ADA",
                  "enabled": true,
                  "value": "Addiction Medicine",
                  "canonicalValue": true
               }
            ]
         }, {
            "source": "ReltioRDM",
            "values": [{
                  "downStreamDefaultValue": true,
                  "code": "ADA",
                  "enabled": true,
                  "value": "Addiction Medicine",
                  "canonicalValue": false
               }
            ]
         }
      ],
      "type": "rdm/lookupTypes/App-LSCustomer360ProfessionalDesignation",
      "localizations": []
   }, {
      "startDate": 0,
      "code": "ADL",
      "endDate": 0,
      "enabled": true,
      "tenantId": "{{rdmTenant}}",
      "parents": [],
      "sourceMappings": [{
            "source": "Reltio",
            "values": [{
                  "downStreamDefaultValue": true,
                  "code": "ADL",
                  "enabled": true,
                  "value": "Adolescent Medicine",
                  "canonicalValue": true
               }
            ]
         }, {
            "source": "ReltioRDM",
            "values": [{
                  "downStreamDefaultValue": true,
                  "code": "ADL",
                  "enabled": true,
                  "value": "Adolescent Medicine",
                  "canonicalValue": false
               }
            ]
         }
      ],
      "type": "rdm/lookupTypes/App-LSCustomer360ProfessionalDesignation",
      "localizations": []
   }, {
      "startDate": 0,
      "code": "ADM",
      "endDate": 0,
      "enabled": true,
      "tenantId": "{{rdmTenant}}",
      "parents": [],
      "sourceMappings": [{
            "source": "Reltio",
            "values": [{
                  "downStreamDefaultValue": true,
                  "code": "ADM",
                  "enabled": true,
                  "value": "Addiction Medicine",
                  "canonicalValue": true
               }
            ]
         }, {
            "source": "ReltioRDM",
            "values": [{
                  "downStreamDefaultValue": true,
                  "code": "ADM",
                  "enabled": true,
                  "value": "Addiction Medicine",
                  "canonicalValue": false
               }
            ]
         }
      ],
      "type": "rdm/lookupTypes/App-LSCustomer360ProfessionalDesignation",
      "localizations": []
   }, {
      "startDate": 0,
      "code": "ADI",
      "endDate": 0,
      "enabled": true,
      "tenantId": "{{rdmTenant}}",
      "parents": [],
      "sourceMappings": [{
            "source": "Reltio",
            "values": [{
                  "downStreamDefaultValue": true,
                  "code": "ADI",
                  "enabled": true,
                  "value": "Addiction Medicine",
                  "canonicalValue": true
               }
            ]
         }, {
            "source": "ReltioRDM",
            "values": [{
                  "downStreamDefaultValue": true,
                  "code": "ADI",
                  "enabled": true,
                  "value": "Addiction Medicine",
                  "canonicalValue": false
               }
            ]
         }
      ],
      "type": "rdm/lookupTypes/App-LSCustomer360ProfessionalDesignation",
      "localizations": []
   }, {
      "startDate": 0,
      "code": "MEM",
      "endDate": 0,
      "enabled": true,
      "tenantId": "{{rdmTenant}}",
      "parents": [],
      "sourceMappings": [{
            "source": "Reltio",
            "values": [{
                  "downStreamDefaultValue": true,
                  "code": "MEM",
                  "enabled": true,
                  "value": "Internal Medicine/Emergency Medicine",
                  "canonicalValue": true
               }
            ]
         }, {
            "source": "ReltioRDM",
            "values": [{
                  "downStreamDefaultValue": true,
                  "code": "MEM",
                  "enabled": true,
                  "value": "Internal Medicine/Emergency Medicine",
                  "canonicalValue": false
               }
            ]
         }
      ],
      "type": "rdm/lookupTypes/App-LSCustomer360ProfessionalDesignation",
      "localizations": []
   }, {
      "startDate": 0,
      "code": "MEP",
      "endDate": 0,
      "enabled": true,
      "tenantId": "{{rdmTenant}}",
      "parents": [],
      "sourceMappings": [{
            "source": "Reltio",
            "values": [{
                  "downStreamDefaultValue": true,
                  "code": "MEP",
                  "enabled": true,
                  "value": "Medical Physics",
                  "canonicalValue": true
               }
            ]
         }, {
            "source": "ReltioRDM",
            "values": [{
                  "downStreamDefaultValue": true,
                  "code": "MEP",
                  "enabled": true,
                  "value": "Medical Physics",
                  "canonicalValue": false
               }
            ]
         }
      ],
      "type": "rdm/lookupTypes/App-LSCustomer360ProfessionalDesignation",
      "localizations": []
   }, {
      "startDate": 0,
      "code": "BRH",
      "endDate": 0,
      "enabled": true,
      "tenantId": "{{rdmTenant}}",
      "parents": [],
      "sourceMappings": [{
            "source": "Reltio",
            "values": [{
                  "downStreamDefaultValue": true,
                  "code": "BRH",
                  "enabled": true,
                  "value": "Brachytherapy/Hyperthermia",
                  "canonicalValue": true
               }
            ]
         }, {
            "source": "ReltioRDM",
            "values": [{
                  "downStreamDefaultValue": true,
                  "code": "BRH",
                  "enabled": true,
                  "value": "Brachytherapy/Hyperthermia",
                  "canonicalValue": false
               }
            ]
         }
      ],
      "type": "rdm/lookupTypes/App-LSCustomer360ProfessionalDesignation",
      "localizations": []
   }, {
      "startDate": 0,
      "code": "MSR",
      "endDate": 0,
      "enabled": true,
      "tenantId": "{{rdmTenant}}",
      "parents": [],
      "sourceMappings": [{
            "source": "Reltio",
            "values": [{
                  "downStreamDefaultValue": true,
                  "code": "MSR",
                  "enabled": true,
                  "value": "Musculoskeletal Radiology",
                  "canonicalValue": true
               }
            ]
         }, {
            "source": "ReltioRDM",
            "values": [{
                  "downStreamDefaultValue": true,
                  "code": "MSR",
                  "enabled": true,
                  "value": "Musculoskeletal Radiology",
                  "canonicalValue": false
               }
            ]
         }
      ],
      "type": "rdm/lookupTypes/App-LSCustomer360ProfessionalDesignation",
      "localizations": []
   }, {
      "startDate": 0,
      "code": "CIM",
      "endDate": 0,
      "enabled": true,
      "tenantId": "{{rdmTenant}}",
      "parents": [],
      "sourceMappings": [{
            "source": "Reltio",
            "values": [{
                  "downStreamDefaultValue": true,
                  "code": "CIM",
                  "enabled": true,
                  "value": "Clinical Informatics (Preventive Medicine)",
                  "canonicalValue": true
               }
            ]
         }, {
            "source": "ReltioRDM",
            "values": [{
                  "downStreamDefaultValue": true,
                  "code": "CIM",
                  "enabled": true,
                  "value": "Clinical Informatics (Preventive Medicine)",
                  "canonicalValue": false
               }
            ]
         }
      ],
      "type": "rdm/lookupTypes/App-LSCustomer360ProfessionalDesignation",
      "localizations": []
   }, {
      "startDate": 0,
      "code": "CIR",
      "endDate": 0,
      "enabled": true,
      "tenantId": "{{rdmTenant}}",
      "parents": [],
      "sourceMappings": [{
            "source": "Reltio",
            "values": [{
                  "downStreamDefaultValue": true,
                  "code": "CIR",
                  "enabled": true,
                  "value": "Diagnostic Radiology",
                  "canonicalValue": true
               }
            ]
         }, {
            "source": "ReltioRDM",
            "values": [{
                  "downStreamDefaultValue": true,
                  "code": "CIR",
                  "enabled": true,
                  "value": "Diagnostic Radiology",
                  "canonicalValue": false
               }
            ]
         }
      ],
      "type": "rdm/lookupTypes/App-LSCustomer360ProfessionalDesignation",
      "localizations": []
   }, {
      "startDate": 0,
      "code": "DERM",
      "endDate": 0,
      "enabled": true,
      "tenantId": "{{rdmTenant}}",
      "parents": [],
      "sourceMappings": [{
            "source": "Reltio",
            "values": [{
                  "downStreamDefaultValue": true,
                  "code": "DERM",
                  "enabled": true,
                  "value": "Dermatology",
                  "canonicalValue": true
               }
            ]
         }, {
            "source": "ReltioRDM",
            "values": [{
                  "downStreamDefaultValue": true,
                  "code": "DERM",
                  "enabled": true,
                  "value": "Dermatology",
                  "canonicalValue": false
               }
            ]
         }
      ],
      "type": "rdm/lookupTypes/App-LSCustomer360ProfessionalDesignation",
      "localizations": []
   }, {
      "startDate": 0,
      "code": "CIP",
      "endDate": 0,
      "enabled": true,
      "tenantId": "{{rdmTenant}}",
      "parents": [],
      "sourceMappings": [{
            "source": "Reltio",
            "values": [{
                  "downStreamDefaultValue": true,
                  "code": "CIP",
                  "enabled": true,
                  "value": "Clinical Informatics (Pathology)",
                  "canonicalValue": true
               }
            ]
         }, {
            "source": "ReltioRDM",
            "values": [{
                  "downStreamDefaultValue": true,
                  "code": "CIP",
                  "enabled": true,
                  "value": "Clinical Informatics (Pathology)",
                  "canonicalValue": false
               }
            ]
         }
      ],
      "type": "rdm/lookupTypes/App-LSCustomer360ProfessionalDesignation",
      "localizations": []
   }, {
      "startDate": 0,
      "code": "HEP",
      "endDate": 0,
      "enabled": true,
      "tenantId": "{{rdmTenant}}",
      "parents": [],
      "sourceMappings": [{
            "source": "Reltio",
            "values": [{
                  "downStreamDefaultValue": true,
                  "code": "HEP",
                  "enabled": true,
                  "value": "Hepatology",
                  "canonicalValue": true
               }
            ]
         }, {
            "source": "ReltioRDM",
            "values": [{
                  "downStreamDefaultValue": true,
                  "code": "HEP",
                  "enabled": true,
                  "value": "Hepatology",
                  "canonicalValue": false
               }
            ]
         }
      ],
      "type": "rdm/lookupTypes/App-LSCustomer360ProfessionalDesignation",
      "localizations": []
   }, {
      "startDate": 0,
      "code": "TX",
      "endDate": 0,
      "enabled": true,
      "tenantId": "{{rdmTenant}}",
      "parents": [],
      "sourceMappings": [{
            "source": "Reltio",
            "values": [{
                  "downStreamDefaultValue": true,
                  "code": "TX",
                  "enabled": true,
                  "value": "Emergency Medicine",
                  "canonicalValue": true
               }
            ]
         }, {
            "source": "ReltioRDM",
            "values": [{
                  "downStreamDefaultValue": true,
                  "code": "TX",
                  "enabled": true,
                  "value": "Emergency Medicine",
                  "canonicalValue": false
               }
            ]
         }
      ],
      "type": "rdm/lookupTypes/App-LSCustomer360ProfessionalDesignation",
      "localizations": []
   }, {
      "startDate": 0,
      "code": "TY",
      "endDate": 0,
      "enabled": true,
      "tenantId": "{{rdmTenant}}",
      "parents": [],
      "sourceMappings": [{
            "source": "Reltio",
            "values": [{
                  "downStreamDefaultValue": true,
                  "code": "TY",
                  "enabled": true,
                  "value": "Transitional Year",
                  "canonicalValue": true
               }
            ]
         }, {
            "source": "ReltioRDM",
            "values": [{
                  "downStreamDefaultValue": true,
                  "code": "TY",
                  "enabled": true,
                  "value": "Transitional Year",
                  "canonicalValue": false
               }
            ]
         }
      ],
      "type": "rdm/lookupTypes/App-LSCustomer360ProfessionalDesignation",
      "localizations": []
   }
]
