[
  {
    "type": "rdm/lookupTypes/App-LSCustomer360DEAPaymentIndicator",
    "tenantId": "{{rdmTenant}}",
    "code": "P",
    "enabled": true,
    "sourceMappings": [
      {
        "source": "Reltio",
        "values": [
          {
            "code": "P",
            "value": "Paid",
            "enabled": true,
            "canonicalValue": true,
            "downStreamDefaultValue": true
          }
        ]
      },{
        "source": "ReltioRDM",
        "values": [
          {
            "code": "P",
            "value": "Paid",
            "enabled": true,
            "canonicalValue": false,
            "downStreamDefaultValue": true
          }
        ]
      }
    ]
  },
  {
    "type": "rdm/lookupTypes/App-LSCustomer360DEAPaymentIndicator",
    "tenantId": "{{rdmTenant}}",
    "code": "E",
    "enabled": true,
    "sourceMappings": [
      {
        "source": "Reltio",
        "values": [
          {
            "code": "E",
            "value": "Exempt",
            "enabled": true,
            "canonicalValue": true,
            "downStreamDefaultValue": true
          }
        ]
      },{
        "source": "ReltioRDM",
        "values": [
          {
            "code": "E",
            "value": "Exempt",
            "enabled": true,
            "canonicalValue": false,
            "downStreamDefaultValue": true
          }
        ]
      }
    ]
  }
]