{
  "id": "com.reltio.plugins.sfdc",
  "name": "SFDC Perspective",
  "version": "1.0.0",
  "provider-name": "Reltio.com",
  "requirements": [
    "com.reltio.plugins.entity"
  ],
  "extension-points": [
    {
      "id": "com.reltio.plugins.sfdc.action",
      "name": "SFDC Menu Item"
    }
  ],
  "extensions": [
    {
      "point": "com.reltio.plugins.ui.view",
      "id": "com.reltio.plugins.sfdc.org.LegalTreeView",
      "class": "com.reltio.plugins.entity.TreeView",
      "caption": "Legal Entities Hierarchy",
      "graph": {
        "type": "configuration/graphTypes/CompanyHierarchy",
        "layout": 25,
        "deep": 2,
        "limit": 300
      }
    },
    {
      "point": "com.reltio.plugins.ui.view",
      "id": "com.reltio.plugins.sfdc.org.HCPs",
      "class": "com.reltio.plugins.entity.relations.RelationsView",
      "caption": "HCPs",
      "recordClass": "com.reltio.plugins.entity.relations.ComplexRelationRecord",
      "type": "rating",
      "content": {
        "inRelations": [
          "configuration/relationTypes/Admitting",
          "configuration/relationTypes/Attending",
          "configuration/relationTypes/IDNaffiliated",
          "configuration/relationTypes/Staff",
          "configuration/relationTypes/Consulting",
          "configuration/relationTypes/Treating",
          "configuration/relationTypes/Other"
        ],
        "entityTypes": [
          "configuration/entityTypes/HCP",
          "configuration/entityTypes/Individual"
        ]
      }
    },
    {
      "point": "com.reltio.plugins.ui.view",
      "id": "com.reltio.plugins.sfdc.org.Administrators",
      "class": "com.reltio.plugins.entity.relations.RelationsView",
      "caption": "Administrators",
      "content": {
        "inRelations": [
          "configuration/relationTypes/HeadFinance",
          "configuration/relationTypes/DirPharmacy",
          "configuration/relationTypes/HeadofAdmin",
          "configuration/relationTypes/HeadMatMgmnt",
          "configuration/relationTypes/HeadOperations",
          "configuration/relationTypes/MedDirector",
          "configuration/relationTypes/HeadNursing",
          "configuration/relationTypes/PharmConsult"
        ],
        "entityTypes": [
          "configuration/entityTypes/HCP"
        ]
      }
    },
    {
      "point": "com.reltio.plugins.ui.view",
      "id": "com.reltio.plugins.sfdc.org.PurchasingDistribution",
      "class": "com.reltio.plugins.entity.relations.RelationsView",
      "caption": "Purchasing & Distribution",
      "content": {
        "inRelations": [
          "configuration/relationTypes/MedsurgDistribution",
          "configuration/relationTypes/MedsurgPurchasing",
          "configuration/relationTypes/nonGPOmedsurg",
          "configuration/relationTypes/nonGPOpharma",
          "configuration/relationTypes/PharmaDistribution",
          "configuration/relationTypes/PharmaPurchasing",
          "configuration/relationTypes/PharmacyProvider"
        ],
        "outRelations": [
          "configuration/relationTypes/MedsurgDistribution",
          "configuration/relationTypes/MedsurgPurchasing",
          "configuration/relationTypes/nonGPOmedsurg",
          "configuration/relationTypes/nonGPOpharma",
          "configuration/relationTypes/PharmaDistribution",
          "configuration/relationTypes/PharmaPurchasing",
          "configuration/relationTypes/PharmacyProvider"
        ],
        "entityTypes": [
          "configuration/entityTypes/HCO"
        ]
      }
    },
    {
      "point": "com.reltio.plugins.ui.perspective",
      "id": "com.reltio.plugins.sfdc.ViewPerspective",
      "class": "com.reltio.plugins.ui.Perspective",
      "maxWidth": 1260,
      "layout": {
        "layout": "scroll",
        "items": [
          {
            "layout": "hbox",
            "padding": [
              0,
              10,
              0,
              0
            ],
            "items": [
              {
                "width": "66.6%",
                "layout": "vbox",
                "items": [
                  {
                    "margin": [
                      0,
                      7,
                      14,
                      0
                    ],
                    "view": "com.reltio.plugins.sfdc.org.HCPs"
                  },
                  {
                    "margin": [
                      0,
                      7,
                      14,
                      0
                    ],
                    "view": "com.reltio.plugins.sfdc.org.Administrators"
                  },
                  {
                    "margin": [
                      0,
                      7,
                      14,
                      0
                    ],
                    "view": "com.reltio.plugins.sfdc.org.PurchasingDistribution"
                  }
                ]
              },
              {
                "width": "33.3%",
                "layout": "vbox",
                "items": [
                  {
                    "view": "com.reltio.plugins.sfdc.org.LegalTreeView",
                    "margin": [
                      2,
                      0,
                      14,
                      7
                    ]
                  }
                ]
              }
            ]
          }
        ]
      }
    },
    {
      "point": "com.reltio.plugins.ui.view",
      "id": "com.reltio.plugins.sfdc.graph.side.SelectedEntity",
      "class": "com.reltio.plugins.graph.side.SelectedEntity"
    },
    {
      "point": "com.reltio.plugins.ui.view",
      "id": "com.reltio.plugins.sfdc.graph.side.GroupsView",
      "class": "com.reltio.plugins.graph.side.GroupsView",
      "caption": "Groups"
    },
    {
      "point": "com.reltio.plugins.ui.view",
      "id": "com.reltio.plugins.sfdc.graph.side.AllConView",
      "class": "com.reltio.plugins.graph.side.AllConView",
      "caption": "All Connections"
    },
    {
      "point": "com.reltio.plugins.ui.view",
      "id": "com.reltio.plugins.sfdc.graph.side.EntityTypeFiltersView",
      "class": "com.reltio.plugins.graph.side.EntityTypeFiltersView",
      "caption": "Entities"
    },
    {
      "point": "com.reltio.plugins.ui.view",
      "id": "com.reltio.plugins.sfdc.graph.side.RelationFiltersView",
      "class": "com.reltio.plugins.graph.side.RelationFiltersView",
      "caption": "Relationships"
    },
    {
      "point": "com.reltio.plugins.ui.perspectivePart",
      "id": "com.reltio.plugins.sfdc.graph.GraphRightSidePanel",
      "class": "com.reltio.plugins.ui.PerspectivePart",
      "layout": {
        "layout": "tabs",
        "items": [
          {
            "label": "Selection",
            "layout": "vbox",
            "items": [
              {
                "view": "com.reltio.plugins.sfdc.graph.side.SelectedEntity",
                "margin": [
                  6,
                  0,
                  0,
                  0
                ]
              },
              {
                "view": "com.reltio.plugins.sfdc.graph.side.GroupsView",
                "margin": [
                  4,
                  0,
                  0,
                  0
                ]
              },
              {
                "view": "com.reltio.plugins.sfdc.graph.side.AllConView",
                "flex": 1,
                "margin": [
                  4,
                  0,
                  0,
                  0
                ]
              }
            ]
          },
          {
            "label": "Filters",
            "layout": "vbox",
            "items": [
              {
                "view": "com.reltio.plugins.sfdc.graph.side.EntityTypeFiltersView",
                "margin": [
                  6,
                  0,
                  0,
                  0
                ]
              },
              {
                "view": "com.reltio.plugins.sfdc.graph.side.RelationFiltersView",
                "margin": [
                  6,
                  0,
                  0,
                  0
                ]
              }
            ]
          }
        ]
      }
    },
    {
      "point": "com.reltio.plugins.ui.view",
      "id": "com.reltio.plugins.sfdc.graph.SelectGraphBox",
      "class": "com.reltio.plugins.graph.SelectGraphBox"
    },
    {
      "point": "com.reltio.plugins.ui.view",
      "id": "com.reltio.plugins.sfdc.graph.GraphView",
      "class": "com.reltio.plugins.graph.GraphView"
    },
    {
      "point": "com.reltio.plugins.ui.perspective",
      "id": "com.reltio.plugins.sfdc.GraphPerspective",
      "class": "com.reltio.plugins.ui.Perspective",
      "layout": {
        "edge": "center",
        "layout": "canvas",
        "items": [
          {
            "view": "com.reltio.plugins.sfdc.graph.GraphView",
            "top": 0,
            "left": 0,
            "width": "100%",
            "height": "100%"
          },
          {
            "view": "com.reltio.plugins.sfdc.graph.SelectGraphBox",
            "top": 0,
            "left": 0,
            "width": "100%"
          }
        ]
      }
    },
    {
      "point": "com.reltio.plugins.sfdc.action",
      "id": "com.reltio.plugins.sfdc.ViewAction",
      "class": "com.reltio.inline.view.Action",
      "icon": "com/reltio/icons/side-panel/icon_profile_org.png",
      "selectedIcon": "com/reltio/icons/side-panel/icon_profile_org-sel.png",
      "type": "com.reltio.plugins.ui.side_action",
      "position": 1,
      "perspective": "com.reltio.plugins.sfdc.ViewPerspective",
      "label": "Profile"
    },
    {
      "point": "com.reltio.plugins.sfdc.action",
      "id": "com.reltio.plugins.sfdc.GraphAction",
      "class": "com.reltio.inline.view.Action",
      "icon": "com/reltio/icons/side-panel/icon_graph.png",
      "selectedIcon": "com/reltio/icons/side-panel/icon_graph-sel.png",
      "type": "com.reltio.plugins.ui.side_action",
      "position": 2,
      "perspective": "com.reltio.plugins.sfdc.GraphPerspective",
      "label": "Graph"
    }
  ]
}