[
  {
    "tenantId": "{{rdmTenant}}",
    "type": "rdm/lookupTypes/App-LSCustomer360Specialty",
    "code": "PDO",
    "enabled": true,
    "sourceMappings": [
        {
            "source": "Reltio",
            "values": [
                {
                    "code": "PDO",
                    "value": "Pediatric otolaryngology",
                    "enabled": true,
                    "canonicalValue": true,
                    "downStreamDefaultValue": true
                }
            ]
        },
        {
            "source": "ReltioRDM",
            "values": [
                {
                    "code": "PDO",
                    "value": "Pediatric otolaryngology",
                    "enabled": true,
                    "canonicalValue": false,
                    "downStreamDefaultValue": true
                }
            ]
        }
    ],
    "localizations": [],
    "parents": [],
    "startDate": 0,
    "endDate": 0
  },
  {
    "tenantId": "{{rdmTenant}}",
    "type": "rdm/lookupTypes/App-LSCustomer360Specialty",
    "code": "PDN",
    "enabled": true,
    "sourceMappings": [
        {
            "source": "Reltio",
            "values": [
                {
                    "code": "PDN",
                    "value": "Pediatrics/Anesthesiology",
                    "enabled": true,
                    "canonicalValue": true,
                    "downStreamDefaultValue": true
                }
            ]
        },
        {
            "source": "ReltioRDM",
            "values": [
                {
                    "code": "PDN",
                    "value": "Pediatrics/Anesthesiology",
                    "enabled": true,
                    "canonicalValue": false,
                    "downStreamDefaultValue": true
                }
            ]
        }
    ],
    "localizations": [],
    "parents": [],
    "startDate": 0,
    "endDate": 0
  },
  {
    "tenantId": "{{rdmTenant}}",
    "type": "rdm/lookupTypes/App-LSCustomer360Specialty",
    "code": "R",
    "enabled": true,
    "sourceMappings": [
        {
            "source": "Reltio",
            "values": [
                {
                    "code": "R",
                    "value": "Radiology",
                    "enabled": true,
                    "canonicalValue": true,
                    "downStreamDefaultValue": true
                }
            ]
        },
        {
            "source": "ReltioRDM",
            "values": [
                {
                    "code": "R",
                    "value": "Radiology",
                    "enabled": true,
                    "canonicalValue": false,
                    "downStreamDefaultValue": true
                }
            ]
        }
    ],
    "localizations": [],
    "parents": [],
    "startDate": 0,
    "endDate": 0
  },
  {
    "tenantId": "{{rdmTenant}}",
    "type": "rdm/lookupTypes/App-LSCustomer360Specialty",
    "code": "PDI",
    "enabled": true,
    "sourceMappings": [
        {
            "source": "Reltio",
            "values": [
                {
                    "code": "PDI",
                    "value": "Pediatric infectious diseases",
                    "enabled": true,
                    "canonicalValue": true,
                    "downStreamDefaultValue": true
                }
            ]
        },
        {
            "source": "ReltioRDM",
            "values": [
                {
                    "code": "PDI",
                    "value": "Pediatric infectious diseases",
                    "enabled": true,
                    "canonicalValue": false,
                    "downStreamDefaultValue": true
                }
            ]
        }
    ],
    "localizations": [],
    "parents": [],
    "startDate": 0,
    "endDate": 0
  },
  {
    "tenantId": "{{rdmTenant}}",
    "type": "rdm/lookupTypes/App-LSCustomer360Specialty",
    "code": "HEM",
    "enabled": true,
    "sourceMappings": [
        {
            "source": "Reltio",
            "values": [
                {
                    "code": "HEM",
                    "value": "Hematology - im",
                    "enabled": true,
                    "canonicalValue": true,
                    "downStreamDefaultValue": true
                }
            ]
        },
        {
            "source": "ReltioRDM",
            "values": [
                {
                    "code": "HEM",
                    "value": "Hematology - im",
                    "enabled": true,
                    "canonicalValue": false,
                    "downStreamDefaultValue": true
                }
            ]
        }
    ],
    "localizations": [],
    "parents": [],
    "startDate": 0,
    "endDate": 0
  },
  {
    "tenantId": "{{rdmTenant}}",
    "type": "rdm/lookupTypes/App-LSCustomer360Specialty",
    "code": "ADL",
    "enabled": true,
    "sourceMappings": [
        {
            "source": "Reltio",
            "values": [
                {
                    "code": "ADL",
                    "value": "Adolescent medicine",
                    "enabled": true,
                    "canonicalValue": true,
                    "downStreamDefaultValue": true
                }
            ]
        },
        {
            "source": "ReltioRDM",
            "values": [
                {
                    "code": "ADL",
                    "value": "Adolescent medicine",
                    "enabled": true,
                    "canonicalValue": false,
                    "downStreamDefaultValue": true
                }
            ]
        }
    ],
    "localizations": [],
    "parents": [],
    "startDate": 0,
    "endDate": 0
  },
  {
    "tenantId": "{{rdmTenant}}",
    "type": "rdm/lookupTypes/App-LSCustomer360Specialty",
    "code": "ADM",
    "enabled": true,
    "sourceMappings": [
        {
            "source": "Reltio",
            "values": [
                {
                    "code": "ADM",
                    "value": "Addiction medicine",
                    "enabled": true,
                    "canonicalValue": true,
                    "downStreamDefaultValue": true
                }
            ]
        },
        {
            "source": "ReltioRDM",
            "values": [
                {
                    "code": "ADM",
                    "value": "Addiction medicine",
                    "enabled": true,
                    "canonicalValue": false,
                    "downStreamDefaultValue": true
                }
            ]
        }
    ],
    "localizations": [],
    "parents": [],
    "startDate": 0,
    "endDate": 0
  },
  {
    "tenantId": "{{rdmTenant}}",
    "type": "rdm/lookupTypes/App-LSCustomer360Specialty",
    "code": "PDC",
    "enabled": true,
    "sourceMappings": [
        {
            "source": "Reltio",
            "values": [
                {
                    "code": "PDC",
                    "value": "Pediatric cardiology",
                    "enabled": true,
                    "canonicalValue": true,
                    "downStreamDefaultValue": true
                }
            ]
        },
        {
            "source": "ReltioRDM",
            "values": [
                {
                    "code": "PDC",
                    "value": "Pediatric cardiology",
                    "enabled": true,
                    "canonicalValue": false,
                    "downStreamDefaultValue": true
                }
            ]
        }
    ],
    "localizations": [],
    "parents": [],
    "startDate": 0,
    "endDate": 0
  },
  {
    "tenantId": "{{rdmTenant}}",
    "type": "rdm/lookupTypes/App-LSCustomer360Specialty",
    "code": "OBS",
    "enabled": true,
    "sourceMappings": [
        {
            "source": "Reltio",
            "values": [
                {
                    "code": "OBS",
                    "value": "Obstetrics",
                    "enabled": true,
                    "canonicalValue": true,
                    "downStreamDefaultValue": true
                }
            ]
        },
        {
            "source": "ReltioRDM",
            "values": [
                {
                    "code": "OBS",
                    "value": "Obstetrics",
                    "enabled": true,
                    "canonicalValue": false,
                    "downStreamDefaultValue": true
                }
            ]
        }
    ],
    "localizations": [],
    "parents": [],
    "startDate": 0,
    "endDate": 0
  },
  {
    "tenantId": "{{rdmTenant}}",
    "type": "rdm/lookupTypes/App-LSCustomer360Specialty",
    "code": "PDA",
    "enabled": true,
    "sourceMappings": [
        {
            "source": "Reltio",
            "values": [
                {
                    "code": "PDA",
                    "value": "Pediatric allergy",
                    "enabled": true,
                    "canonicalValue": true,
                    "downStreamDefaultValue": true
                }
            ]
        },
        {
            "source": "ReltioRDM",
            "values": [
                {
                    "code": "PDA",
                    "value": "Pediatric allergy",
                    "enabled": true,
                    "canonicalValue": false,
                    "downStreamDefaultValue": true
                }
            ]
        }
    ],
    "localizations": [],
    "parents": [],
    "startDate": 0,
    "endDate": 0
  },
  {
    "tenantId": "{{rdmTenant}}",
    "type": "rdm/lookupTypes/App-LSCustomer360Specialty",
    "code": "ANA",
    "enabled": true,
    "sourceMappings": [
        {
            "source": "Reltio",
            "values": [
                {
                    "code": "ANA",
                    "value": "Anesthesia assistant",
                    "enabled": true,
                    "canonicalValue": true,
                    "downStreamDefaultValue": true
                }
            ]
        },
        {
            "source": "ReltioRDM",
            "values": [
                {
                    "code": "ANA",
                    "value": "Anesthesia assistant",
                    "enabled": true,
                    "canonicalValue": false,
                    "downStreamDefaultValue": true
                }
            ]
        }
    ],
    "localizations": [],
    "parents": [],
    "startDate": 0,
    "endDate": 0
  },
  {
    "tenantId": "{{rdmTenant}}",
    "type": "rdm/lookupTypes/App-LSCustomer360Specialty",
    "code": "PHO",
    "enabled": true,
    "sourceMappings": [
        {
            "source": "Reltio",
            "values": [
                {
                    "code": "PHO",
                    "value": "Pediatric hematology/oncology",
                    "enabled": true,
                    "canonicalValue": true,
                    "downStreamDefaultValue": true
                }
            ]
        },
        {
            "source": "ReltioRDM",
            "values": [
                {
                    "code": "PHO",
                    "value": "Pediatric hematology/oncology",
                    "enabled": true,
                    "canonicalValue": false,
                    "downStreamDefaultValue": true
                }
            ]
        }
    ],
    "localizations": [],
    "parents": [],
    "startDate": 0,
    "endDate": 0
  },
  {
    "tenantId": "{{rdmTenant}}",
    "type": "rdm/lookupTypes/App-LSCustomer360Specialty",
    "code": "NS",
    "enabled": true,
    "sourceMappings": [
        {
            "source": "Reltio",
            "values": [
                {
                    "code": "NS",
                    "value": "Neurological surgery",
                    "enabled": true,
                    "canonicalValue": true,
                    "downStreamDefaultValue": true
                }
            ]
        },
        {
            "source": "ReltioRDM",
            "values": [
                {
                    "code": "NS",
                    "value": "Neurological surgery",
                    "enabled": true,
                    "canonicalValue": false,
                    "downStreamDefaultValue": true
                }
            ]
        }
    ],
    "localizations": [],
    "parents": [],
    "startDate": 0,
    "endDate": 0
  },
  {
    "tenantId": "{{rdmTenant}}",
    "type": "rdm/lookupTypes/App-LSCustomer360Specialty",
    "code": "OMF",
    "enabled": true,
    "sourceMappings": [
        {
            "source": "Reltio",
            "values": [
                {
                    "code": "OMF",
                    "value": "Oral and maxillofacial surgery",
                    "enabled": true,
                    "canonicalValue": true,
                    "downStreamDefaultValue": true
                }
            ]
        },
        {
            "source": "ReltioRDM",
            "values": [
                {
                    "code": "OMF",
                    "value": "Oral and maxillofacial surgery",
                    "enabled": true,
                    "canonicalValue": false,
                    "downStreamDefaultValue": true
                }
            ]
        }
    ],
    "localizations": [],
    "parents": [],
    "startDate": 0,
    "endDate": 0
  },
  {
    "tenantId": "{{rdmTenant}}",
    "type": "rdm/lookupTypes/App-LSCustomer360Specialty",
    "code": "NMP",
    "enabled": true,
    "sourceMappings": [
        {
            "source": "Reltio",
            "values": [
                {
                    "code": "NMP",
                    "value": "Neuromuscular med-physical med & rehab",
                    "enabled": true,
                    "canonicalValue": true,
                    "downStreamDefaultValue": true
                }
            ]
        },
        {
            "source": "ReltioRDM",
            "values": [
                {
                    "code": "NMP",
                    "value": "Neuromuscular med-physical med & rehab",
                    "enabled": true,
                    "canonicalValue": false,
                    "downStreamDefaultValue": true
                }
            ]
        }
    ],
    "localizations": [],
    "parents": [],
    "startDate": 0,
    "endDate": 0
  },
  {
    "tenantId": "{{rdmTenant}}",
    "type": "rdm/lookupTypes/App-LSCustomer360Specialty",
    "code": "ALI",
    "enabled": true,
    "sourceMappings": [
        {
            "source": "Reltio",
            "values": [
                {
                    "code": "ALI",
                    "value": "Allergy/immunology, diagnostic lab i",
                    "enabled": true,
                    "canonicalValue": true,
                    "downStreamDefaultValue": true
                }
            ]
        },
        {
            "source": "ReltioRDM",
            "values": [
                {
                    "code": "ALI",
                    "value": "Allergy/immunology, diagnostic lab i",
                    "enabled": true,
                    "canonicalValue": false,
                    "downStreamDefaultValue": true
                }
            ]
        }
    ],
    "localizations": [],
    "parents": [],
    "startDate": 0,
    "endDate": 0
  },
  {
    "tenantId": "{{rdmTenant}}",
    "type": "rdm/lookupTypes/App-LSCustomer360Specialty",
    "code": "PUD",
    "enabled": true,
    "sourceMappings": [
        {
            "source": "Reltio",
            "values": [
                {
                    "code": "PUD",
                    "value": "Pulmonary disease",
                    "enabled": true,
                    "canonicalValue": true,
                    "downStreamDefaultValue": true
                }
            ]
        },
        {
            "source": "ReltioRDM",
            "values": [
                {
                    "code": "PUD",
                    "value": "Pulmonary disease",
                    "enabled": true,
                    "canonicalValue": false,
                    "downStreamDefaultValue": true
                }
            ]
        }
    ],
    "localizations": [],
    "parents": [],
    "startDate": 0,
    "endDate": 0
  },
  {
    "tenantId": "{{rdmTenant}}",
    "type": "rdm/lookupTypes/App-LSCustomer360Specialty",
    "code": "ORT",
    "enabled": true,
    "sourceMappings": [
        {
            "source": "Reltio",
            "values": [
                {
                    "code": "ORT",
                    "value": "Orthotics",
                    "enabled": true,
                    "canonicalValue": true,
                    "downStreamDefaultValue": true
                }
            ]
        },
        {
            "source": "ReltioRDM",
            "values": [
                {
                    "code": "ORT",
                    "value": "Orthotics",
                    "enabled": true,
                    "canonicalValue": false,
                    "downStreamDefaultValue": true
                }
            ]
        }
    ],
    "localizations": [],
    "parents": [],
    "startDate": 0,
    "endDate": 0
  },
  {
    "tenantId": "{{rdmTenant}}",
    "type": "rdm/lookupTypes/App-LSCustomer360Specialty",
    "code": "SP",
    "enabled": true,
    "sourceMappings": [
        {
            "source": "Reltio",
            "values": [
                {
                    "code": "SP",
                    "value": "Selective pathology",
                    "enabled": true,
                    "canonicalValue": true,
                    "downStreamDefaultValue": true
                }
            ]
        },
        {
            "source": "ReltioRDM",
            "values": [
                {
                    "code": "SP",
                    "value": "Selective pathology",
                    "enabled": true,
                    "canonicalValue": false,
                    "downStreamDefaultValue": true
                }
            ]
        }
    ],
    "localizations": [],
    "parents": [],
    "startDate": 0,
    "endDate": 0
  },
  {
    "tenantId": "{{rdmTenant}}",
    "type": "rdm/lookupTypes/App-LSCustomer360Specialty",
    "code": "OMO",
    "enabled": true,
    "sourceMappings": [
        {
            "source": "Reltio",
            "values": [
                {
                    "code": "OMO",
                    "value": "Musculoskeletal oncology",
                    "enabled": true,
                    "canonicalValue": true,
                    "downStreamDefaultValue": true
                }
            ]
        },
        {
            "source": "ReltioRDM",
            "values": [
                {
                    "code": "OMO",
                    "value": "Musculoskeletal oncology",
                    "enabled": true,
                    "canonicalValue": false,
                    "downStreamDefaultValue": true
                }
            ]
        }
    ],
    "localizations": [],
    "parents": [],
    "startDate": 0,
    "endDate": 0
  },
  {
    "tenantId": "{{rdmTenant}}",
    "type": "rdm/lookupTypes/App-LSCustomer360Specialty",
    "code": "ORS",
    "enabled": true,
    "sourceMappings": [
        {
            "source": "Reltio",
            "values": [
                {
                    "code": "ORS",
                    "value": "Orthopedic surgery",
                    "enabled": true,
                    "canonicalValue": true,
                    "downStreamDefaultValue": true
                }
            ]
        },
        {
            "source": "ReltioRDM",
            "values": [
                {
                    "code": "ORS",
                    "value": "Orthopedic surgery",
                    "enabled": true,
                    "canonicalValue": false,
                    "downStreamDefaultValue": true
                }
            ]
        }
    ],
    "localizations": [],
    "parents": [],
    "startDate": 0,
    "endDate": 0
  },
  {
    "tenantId": "{{rdmTenant}}",
    "type": "rdm/lookupTypes/App-LSCustomer360Specialty",
    "code": "OMM",
    "enabled": true,
    "sourceMappings": [
        {
            "source": "Reltio",
            "values": [
                {
                    "code": "OMM",
                    "value": "Osteo manipulative medicine",
                    "enabled": true,
                    "canonicalValue": true,
                    "downStreamDefaultValue": true
                }
            ]
        },
        {
            "source": "ReltioRDM",
            "values": [
                {
                    "code": "OMM",
                    "value": "Osteo manipulative medicine",
                    "enabled": true,
                    "canonicalValue": false,
                    "downStreamDefaultValue": true
                }
            ]
        }
    ],
    "localizations": [],
    "parents": [],
    "startDate": 0,
    "endDate": 0
  },
  {
    "tenantId": "{{rdmTenant}}",
    "type": "rdm/lookupTypes/App-LSCustomer360Specialty",
    "code": "CIP",
    "enabled": true,
    "sourceMappings": [
        {
            "source": "Reltio",
            "values": [
                {
                    "code": "CIP",
                    "value": "Clinical informatics-pathology",
                    "enabled": true,
                    "canonicalValue": true,
                    "downStreamDefaultValue": true
                }
            ]
        },
        {
            "source": "ReltioRDM",
            "values": [
                {
                    "code": "CIP",
                    "value": "Clinical informatics-pathology",
                    "enabled": true,
                    "canonicalValue": false,
                    "downStreamDefaultValue": true
                }
            ]
        }
    ],
    "localizations": [],
    "parents": [],
    "startDate": 0,
    "endDate": 0
  },
  {
    "tenantId": "{{rdmTenant}}",
    "type": "rdm/lookupTypes/App-LSCustomer360Specialty",
    "code": "SO",
    "enabled": true,
    "sourceMappings": [
        {
            "source": "Reltio",
            "values": [
                {
                    "code": "SO",
                    "value": "Surgical oncology",
                    "enabled": true,
                    "canonicalValue": true,
                    "downStreamDefaultValue": true
                }
            ]
        },
        {
            "source": "ReltioRDM",
            "values": [
                {
                    "code": "SO",
                    "value": "Surgical oncology",
                    "enabled": true,
                    "canonicalValue": false,
                    "downStreamDefaultValue": true
                }
            ]
        }
    ],
    "localizations": [],
    "parents": [],
    "startDate": 0,
    "endDate": 0
  },
  {
    "tenantId": "{{rdmTenant}}",
    "type": "rdm/lookupTypes/App-LSCustomer360Specialty",
    "code": "CLI",
    "enabled": true,
    "sourceMappings": [
        {
            "source": "Reltio",
            "values": [
                {
                    "code": "CLI",
                    "value": "Clinical Informatics",
                    "enabled": true,
                    "canonicalValue": true,
                    "downStreamDefaultValue": true
                }
            ]
        },
        {
            "source": "ReltioRDM",
            "values": [
                {
                    "code": "CLI",
                    "value": "Clinical Informatics",
                    "enabled": true,
                    "canonicalValue": false,
                    "downStreamDefaultValue": true
                }
            ]
        }
    ],
    "localizations": [],
    "parents": [],
    "startDate": 0,
    "endDate": 0
  },
  {
    "tenantId": "{{rdmTenant}}",
    "type": "rdm/lookupTypes/App-LSCustomer360Specialty",
    "code": "CDS",
    "enabled": true,
    "sourceMappings": [
        {
            "source": "Reltio",
            "values": [
                {
                    "code": "CDS",
                    "value": "Cardiovascular surgery",
                    "enabled": true,
                    "canonicalValue": true,
                    "downStreamDefaultValue": true
                }
            ]
        },
        {
            "source": "ReltioRDM",
            "values": [
                {
                    "code": "CDS",
                    "value": "Cardiovascular surgery",
                    "enabled": true,
                    "canonicalValue": false,
                    "downStreamDefaultValue": true
                }
            ]
        }
    ],
    "localizations": [],
    "parents": [],
    "startDate": 0,
    "endDate": 0
  },
  {
    "tenantId": "{{rdmTenant}}",
    "type": "rdm/lookupTypes/App-LSCustomer360Specialty",
    "code": "NMN",
    "enabled": true,
    "sourceMappings": [
        {
            "source": "Reltio",
            "values": [
                {
                    "code": "NMN",
                    "value": "Neuromuscular medicine",
                    "enabled": true,
                    "canonicalValue": true,
                    "downStreamDefaultValue": true
                }
            ]
        },
        {
            "source": "ReltioRDM",
            "values": [
                {
                    "code": "NMN",
                    "value": "Neuromuscular medicine",
                    "enabled": true,
                    "canonicalValue": false,
                    "downStreamDefaultValue": true
                }
            ]
        }
    ],
    "localizations": [],
    "parents": [],
    "startDate": 0,
    "endDate": 0
  },
  {
    "tenantId": "{{rdmTenant}}",
    "type": "rdm/lookupTypes/App-LSCustomer360Specialty",
    "code": "FPP",
    "enabled": true,
    "sourceMappings": [
        {
            "source": "Reltio",
            "values": [
                {
                    "code": "FPP",
                    "value": "Family practice - psychiatry",
                    "enabled": true,
                    "canonicalValue": true,
                    "downStreamDefaultValue": true
                }
            ]
        },
        {
            "source": "ReltioRDM",
            "values": [
                {
                    "code": "FPP",
                    "value": "Family practice - psychiatry",
                    "enabled": true,
                    "canonicalValue": false,
                    "downStreamDefaultValue": true
                }
            ]
        }
    ],
    "localizations": [],
    "parents": [],
    "startDate": 0,
    "endDate": 0
  },
  {
    "tenantId": "{{rdmTenant}}",
    "type": "rdm/lookupTypes/App-LSCustomer360Specialty",
    "code": "PLI",
    "enabled": true,
    "sourceMappings": [
        {
            "source": "Reltio",
            "values": [
                {
                    "code": "PLI",
                    "value": "Pediatric, diag lab immun",
                    "enabled": true,
                    "canonicalValue": true,
                    "downStreamDefaultValue": true
                }
            ]
        },
        {
            "source": "ReltioRDM",
            "values": [
                {
                    "code": "PLI",
                    "value": "Pediatric, diag lab immun",
                    "enabled": true,
                    "canonicalValue": false,
                    "downStreamDefaultValue": true
                }
            ]
        }
    ],
    "localizations": [],
    "parents": [],
    "startDate": 0,
    "endDate": 0
  },
  {
    "tenantId": "{{rdmTenant}}",
    "type": "rdm/lookupTypes/App-LSCustomer360Specialty",
    "code": "HO",
    "enabled": true,
    "sourceMappings": [
        {
            "source": "Reltio",
            "values": [
                {
                    "code": "HO",
                    "value": "Hematology/oncology",
                    "enabled": true,
                    "canonicalValue": true,
                    "downStreamDefaultValue": true
                }
            ]
        },
        {
            "source": "ReltioRDM",
            "values": [
                {
                    "code": "HO",
                    "value": "Hematology/oncology",
                    "enabled": true,
                    "canonicalValue": false,
                    "downStreamDefaultValue": true
                }
            ]
        }
    ],
    "localizations": [],
    "parents": [],
    "startDate": 0,
    "endDate": 0
  },
  {
    "tenantId": "{{rdmTenant}}",
    "type": "rdm/lookupTypes/App-LSCustomer360Specialty",
    "code": "OFA",
    "enabled": true,
    "sourceMappings": [
        {
            "source": "Reltio",
            "values": [
                {
                    "code": "OFA",
                    "value": "Foot and ankle orthopedics",
                    "enabled": true,
                    "canonicalValue": true,
                    "downStreamDefaultValue": true
                }
            ]
        },
        {
            "source": "ReltioRDM",
            "values": [
                {
                    "code": "OFA",
                    "value": "Foot and ankle orthopedics",
                    "enabled": true,
                    "canonicalValue": false,
                    "downStreamDefaultValue": true
                }
            ]
        }
    ],
    "localizations": [],
    "parents": [],
    "startDate": 0,
    "endDate": 0
  },
  {
    "tenantId": "{{rdmTenant}}",
    "type": "rdm/lookupTypes/App-LSCustomer360Specialty",
    "code": "CIF",
    "enabled": true,
    "sourceMappings": [
        {
            "source": "Reltio",
            "values": [
                {
                    "code": "CIF",
                    "value": "Clinical Informatics (FM)",
                    "enabled": true,
                    "canonicalValue": true,
                    "downStreamDefaultValue": true
                }
            ]
        },
        {
            "source": "ReltioRDM",
            "values": [
                {
                    "code": "CIF",
                    "value": "Clinical Informatics (FM)",
                    "enabled": true,
                    "canonicalValue": false,
                    "downStreamDefaultValue": true
                }
            ]
        }
    ],
    "localizations": [],
    "parents": [],
    "startDate": 0,
    "endDate": 0
  },
  {
    "tenantId": "{{rdmTenant}}",
    "type": "rdm/lookupTypes/App-LSCustomer360Specialty",
    "code": "OCCT",
    "enabled": true,
    "sourceMappings": [
        {
            "source": "Reltio",
            "values": [
                {
                    "code": "OCCT",
                    "value": "Occupational therapy",
                    "enabled": true,
                    "canonicalValue": true,
                    "downStreamDefaultValue": true
                }
            ]
        },
        {
            "source": "ReltioRDM",
            "values": [
                {
                    "code": "OCCT",
                    "value": "Occupational therapy",
                    "enabled": true,
                    "canonicalValue": false,
                    "downStreamDefaultValue": true
                }
            ]
        }
    ],
    "localizations": [],
    "parents": [],
    "startDate": 0,
    "endDate": 0
  },
  {
    "tenantId": "{{rdmTenant}}",
    "type": "rdm/lookupTypes/App-LSCustomer360Specialty",
    "code": "DIA",
    "enabled": true,
    "sourceMappings": [
        {
            "source": "Reltio",
            "values": [
                {
                    "code": "DIA",
                    "value": "Diabetes",
                    "enabled": true,
                    "canonicalValue": true,
                    "downStreamDefaultValue": true
                }
            ]
        },
        {
            "source": "ReltioRDM",
            "values": [
                {
                    "code": "DIA",
                    "value": "Diabetes",
                    "enabled": true,
                    "canonicalValue": false,
                    "downStreamDefaultValue": true
                }
            ]
        }
    ],
    "localizations": [],
    "parents": [],
    "startDate": 0,
    "endDate": 0
  },
  {
    "tenantId": "{{rdmTenant}}",
    "type": "rdm/lookupTypes/App-LSCustomer360Specialty",
    "code": "CIM",
    "enabled": true,
    "sourceMappings": [
        {
            "source": "Reltio",
            "values": [
                {
                    "code": "CIM",
                    "value": "Clinical informatics-preventive medicine",
                    "enabled": true,
                    "canonicalValue": true,
                    "downStreamDefaultValue": true
                }
            ]
        },
        {
            "source": "ReltioRDM",
            "values": [
                {
                    "code": "CIM",
                    "value": "Clinical informatics-preventive medicine",
                    "enabled": true,
                    "canonicalValue": false,
                    "downStreamDefaultValue": true
                }
            ]
        }
    ],
    "localizations": [],
    "parents": [],
    "startDate": 0,
    "endDate": 0
  },
  {
    "tenantId": "{{rdmTenant}}",
    "type": "rdm/lookupTypes/App-LSCustomer360Specialty",
    "code": "UP",
    "enabled": true,
    "sourceMappings": [
        {
            "source": "Reltio",
            "values": [
                {
                    "code": "UP",
                    "value": "Pediatric urology",
                    "enabled": true,
                    "canonicalValue": true,
                    "downStreamDefaultValue": true
                }
            ]
        },
        {
            "source": "ReltioRDM",
            "values": [
                {
                    "code": "UP",
                    "value": "Pediatric urology",
                    "enabled": true,
                    "canonicalValue": false,
                    "downStreamDefaultValue": true
                }
            ]
        }
    ],
    "localizations": [],
    "parents": [],
    "startDate": 0,
    "endDate": 0
  },
  {
    "tenantId": "{{rdmTenant}}",
    "type": "rdm/lookupTypes/App-LSCustomer360Specialty",
    "code": "IAN",
    "enabled": true,
    "sourceMappings": [
        {
            "source": "Reltio",
            "values": [
                {
                    "code": "IAN",
                    "value": "Clinical Informatics (ANES)",
                    "enabled": true,
                    "canonicalValue": true,
                    "downStreamDefaultValue": true
                }
            ]
        },
        {
            "source": "ReltioRDM",
            "values": [
                {
                    "code": "IAN",
                    "value": "Clinical Informatics (ANES)",
                    "enabled": true,
                    "canonicalValue": false,
                    "downStreamDefaultValue": true
                }
            ]
        }
    ],
    "localizations": [],
    "parents": [],
    "startDate": 0,
    "endDate": 0
  },
  {
    "tenantId": "{{rdmTenant}}",
    "type": "rdm/lookupTypes/App-LSCustomer360Specialty",
    "code": "GS",
    "enabled": true,
    "sourceMappings": [
        {
            "source": "Reltio",
            "values": [
                {
                    "code": "GS",
                    "value": "General surgery",
                    "enabled": true,
                    "canonicalValue": true,
                    "downStreamDefaultValue": true
                }
            ]
        },
        {
            "source": "ReltioRDM",
            "values": [
                {
                    "code": "GS",
                    "value": "General surgery",
                    "enabled": true,
                    "canonicalValue": false,
                    "downStreamDefaultValue": true
                }
            ]
        }
    ],
    "localizations": [],
    "parents": [],
    "startDate": 0,
    "endDate": 0
  },
  {
    "tenantId": "{{rdmTenant}}",
    "type": "rdm/lookupTypes/App-LSCustomer360Specialty",
    "code": "OP",
    "enabled": true,
    "sourceMappings": [
        {
            "source": "Reltio",
            "values": [
                {
                    "code": "OP",
                    "value": "Orthopedic pediatrics",
                    "enabled": true,
                    "canonicalValue": true,
                    "downStreamDefaultValue": true
                }
            ]
        },
        {
            "source": "ReltioRDM",
            "values": [
                {
                    "code": "OP",
                    "value": "Orthopedic pediatrics",
                    "enabled": true,
                    "canonicalValue": false,
                    "downStreamDefaultValue": true
                }
            ]
        }
    ],
    "localizations": [],
    "parents": [],
    "startDate": 0,
    "endDate": 0
  },
  {
    "tenantId": "{{rdmTenant}}",
    "type": "rdm/lookupTypes/App-LSCustomer360Specialty",
    "code": "DR",
    "enabled": true,
    "sourceMappings": [
        {
            "source": "Reltio",
            "values": [
                {
                    "code": "DR",
                    "value": "Diagnostic radiology",
                    "enabled": true,
                    "canonicalValue": true,
                    "downStreamDefaultValue": true
                }
            ]
        },
        {
            "source": "ReltioRDM",
            "values": [
                {
                    "code": "DR",
                    "value": "Diagnostic radiology",
                    "enabled": true,
                    "canonicalValue": false,
                    "downStreamDefaultValue": true
                }
            ]
        }
    ],
    "localizations": [],
    "parents": [],
    "startDate": 0,
    "endDate": 0
  },
  {
    "tenantId": "{{rdmTenant}}",
    "type": "rdm/lookupTypes/App-LSCustomer360Specialty",
    "code": "DS",
    "enabled": true,
    "sourceMappings": [
        {
            "source": "Reltio",
            "values": [
                {
                    "code": "DS",
                    "value": "Dermatologic surgery",
                    "enabled": true,
                    "canonicalValue": true,
                    "downStreamDefaultValue": true
                }
            ]
        },
        {
            "source": "ReltioRDM",
            "values": [
                {
                    "code": "DS",
                    "value": "Dermatologic surgery",
                    "enabled": true,
                    "canonicalValue": false,
                    "downStreamDefaultValue": true
                }
            ]
        }
    ],
    "localizations": [],
    "parents": [],
    "startDate": 0,
    "endDate": 0
  },
  {
    "tenantId": "{{rdmTenant}}",
    "type": "rdm/lookupTypes/App-LSCustomer360Specialty",
    "code": "AUD",
    "enabled": true,
    "sourceMappings": [
        {
            "source": "Reltio",
            "values": [
                {
                    "code": "AUD",
                    "value": "Audiology",
                    "enabled": true,
                    "canonicalValue": true,
                    "downStreamDefaultValue": true
                }
            ]
        },
        {
            "source": "ReltioRDM",
            "values": [
                {
                    "code": "AUD",
                    "value": "Audiology",
                    "enabled": true,
                    "canonicalValue": false,
                    "downStreamDefaultValue": true
                }
            ]
        }
    ],
    "localizations": [],
    "parents": [],
    "startDate": 0,
    "endDate": 0
  },
  {
    "tenantId": "{{rdmTenant}}",
    "type": "rdm/lookupTypes/App-LSCustomer360Specialty",
    "code": "BIN",
    "enabled": true,
    "sourceMappings": [
        {
            "source": "Reltio",
            "values": [
                {
                    "code": "BIN",
                    "value": "Brain injury medicine-psych & neurology",
                    "enabled": true,
                    "canonicalValue": true,
                    "downStreamDefaultValue": true
                }
            ]
        },
        {
            "source": "ReltioRDM",
            "values": [
                {
                    "code": "BIN",
                    "value": "Brain injury medicine-psych & neurology",
                    "enabled": true,
                    "canonicalValue": false,
                    "downStreamDefaultValue": true
                }
            ]
        }
    ],
    "localizations": [],
    "parents": [],
    "startDate": 0,
    "endDate": 0
  },
  {
    "tenantId": "{{rdmTenant}}",
    "type": "rdm/lookupTypes/App-LSCustomer360Specialty",
    "code": "IMG",
    "enabled": true,
    "sourceMappings": [
        {
            "source": "Reltio",
            "values": [
                {
                    "code": "IMG",
                    "value": "Internal medicine - geriatric medicine",
                    "enabled": true,
                    "canonicalValue": true,
                    "downStreamDefaultValue": true
                }
            ]
        },
        {
            "source": "ReltioRDM",
            "values": [
                {
                    "code": "IMG",
                    "value": "Internal medicine - geriatric medicine",
                    "enabled": true,
                    "canonicalValue": false,
                    "downStreamDefaultValue": true
                }
            ]
        }
    ],
    "localizations": [],
    "parents": [],
    "startDate": 0,
    "endDate": 0
  },
  {
    "tenantId": "{{rdmTenant}}",
    "type": "rdm/lookupTypes/App-LSCustomer360Specialty",
    "code": "TY",
    "enabled": true,
    "sourceMappings": [
        {
            "source": "Reltio",
            "values": [
                {
                    "code": "TY",
                    "value": "Transitional year",
                    "enabled": true,
                    "canonicalValue": true,
                    "downStreamDefaultValue": true
                }
            ]
        },
        {
            "source": "ReltioRDM",
            "values": [
                {
                    "code": "TY",
                    "value": "Transitional year",
                    "enabled": true,
                    "canonicalValue": false,
                    "downStreamDefaultValue": true
                }
            ]
        }
    ],
    "localizations": [],
    "parents": [],
    "startDate": 0,
    "endDate": 0
  },
  {
    "tenantId": "{{rdmTenant}}",
    "type": "rdm/lookupTypes/App-LSCustomer360Specialty",
    "code": "GYN",
    "enabled": true,
    "sourceMappings": [
        {
            "source": "Reltio",
            "values": [
                {
                    "code": "GYN",
                    "value": "Gynecology",
                    "enabled": true,
                    "canonicalValue": true,
                    "downStreamDefaultValue": true
                }
            ]
        },
        {
            "source": "ReltioRDM",
            "values": [
                {
                    "code": "GYN",
                    "value": "Gynecology",
                    "enabled": true,
                    "canonicalValue": false,
                    "downStreamDefaultValue": true
                }
            ]
        }
    ],
    "localizations": [],
    "parents": [],
    "startDate": 0,
    "endDate": 0
  },
  {
    "tenantId": "{{rdmTenant}}",
    "type": "rdm/lookupTypes/App-LSCustomer360Specialty",
    "code": "LM",
    "enabled": true,
    "sourceMappings": [
        {
            "source": "Reltio",
            "values": [
                {
                    "code": "LM",
                    "value": "Legal medicine",
                    "enabled": true,
                    "canonicalValue": true,
                    "downStreamDefaultValue": true
                }
            ]
        },
        {
            "source": "ReltioRDM",
            "values": [
                {
                    "code": "LM",
                    "value": "Legal medicine",
                    "enabled": true,
                    "canonicalValue": false,
                    "downStreamDefaultValue": true
                }
            ]
        }
    ],
    "localizations": [],
    "parents": [],
    "startDate": 0,
    "endDate": 0
  },
  {
    "tenantId": "{{rdmTenant}}",
    "type": "rdm/lookupTypes/App-LSCustomer360Specialty",
    "code": "TR",
    "enabled": true,
    "sourceMappings": [
        {
            "source": "Reltio",
            "values": [
                {
                    "code": "TR",
                    "value": "Therapeutic radiology",
                    "enabled": true,
                    "canonicalValue": true,
                    "downStreamDefaultValue": true
                }
            ]
        },
        {
            "source": "ReltioRDM",
            "values": [
                {
                    "code": "TR",
                    "value": "Therapeutic radiology",
                    "enabled": true,
                    "canonicalValue": false,
                    "downStreamDefaultValue": true
                }
            ]
        }
    ],
    "localizations": [],
    "parents": [],
    "startDate": 0,
    "endDate": 0
  },
  {
    "tenantId": "{{rdmTenant}}",
    "type": "rdm/lookupTypes/App-LSCustomer360Specialty",
    "code": "TS",
    "enabled": true,
    "sourceMappings": [
        {
            "source": "Reltio",
            "values": [
                {
                    "code": "TS",
                    "value": "Thoracic surgery",
                    "enabled": true,
                    "canonicalValue": true,
                    "downStreamDefaultValue": true
                }
            ]
        },
        {
            "source": "ReltioRDM",
            "values": [
                {
                    "code": "TS",
                    "value": "Thoracic surgery",
                    "enabled": true,
                    "canonicalValue": false,
                    "downStreamDefaultValue": true
                }
            ]
        }
    ],
    "localizations": [],
    "parents": [],
    "startDate": 0,
    "endDate": 0
  },
  {
    "tenantId": "{{rdmTenant}}",
    "type": "rdm/lookupTypes/App-LSCustomer360Specialty",
    "code": "PPR",
    "enabled": true,
    "sourceMappings": [
        {
            "source": "Reltio",
            "values": [
                {
                    "code": "PPR",
                    "value": "Pediatric rheumatology",
                    "enabled": true,
                    "canonicalValue": true,
                    "downStreamDefaultValue": true
                }
            ]
        },
        {
            "source": "ReltioRDM",
            "values": [
                {
                    "code": "PPR",
                    "value": "Pediatric rheumatology",
                    "enabled": true,
                    "canonicalValue": false,
                    "downStreamDefaultValue": true
                }
            ]
        }
    ],
    "localizations": [],
    "parents": [],
    "startDate": 0,
    "endDate": 0
  },
  {
    "tenantId": "{{rdmTenant}}",
    "type": "rdm/lookupTypes/App-LSCustomer360Specialty",
    "code": "MGP",
    "enabled": true,
    "sourceMappings": [
        {
            "source": "Reltio",
            "values": [
                {
                    "code": "MGP",
                    "value": "Molecular genetic pathology, pathology",
                    "enabled": true,
                    "canonicalValue": true,
                    "downStreamDefaultValue": true
                }
            ]
        },
        {
            "source": "ReltioRDM",
            "values": [
                {
                    "code": "MGP",
                    "value": "Molecular genetic pathology, pathology",
                    "enabled": true,
                    "canonicalValue": false,
                    "downStreamDefaultValue": true
                }
            ]
        }
    ],
    "localizations": [],
    "parents": [],
    "startDate": 0,
    "endDate": 0
  },
  {
    "tenantId": "{{rdmTenant}}",
    "type": "rdm/lookupTypes/App-LSCustomer360Specialty",
    "code": "OTO",
    "enabled": true,
    "sourceMappings": [
        {
            "source": "Reltio",
            "values": [
                {
                    "code": "OTO",
                    "value": "Otolaryngology",
                    "enabled": true,
                    "canonicalValue": true,
                    "downStreamDefaultValue": true
                }
            ]
        },
        {
            "source": "ReltioRDM",
            "values": [
                {
                    "code": "OTO",
                    "value": "Otolaryngology",
                    "enabled": true,
                    "canonicalValue": false,
                    "downStreamDefaultValue": true
                }
            ]
        }
    ],
    "localizations": [],
    "parents": [],
    "startDate": 0,
    "endDate": 0
  },
  {
    "tenantId": "{{rdmTenant}}",
    "type": "rdm/lookupTypes/App-LSCustomer360Specialty",
    "code": "NSP",
    "enabled": true,
    "sourceMappings": [
        {
            "source": "Reltio",
            "values": [
                {
                    "code": "NSP",
                    "value": "Neurological surgery - pediatric",
                    "enabled": true,
                    "canonicalValue": true,
                    "downStreamDefaultValue": true
                }
            ]
        },
        {
            "source": "ReltioRDM",
            "values": [
                {
                    "code": "NSP",
                    "value": "Neurological surgery - pediatric",
                    "enabled": true,
                    "canonicalValue": false,
                    "downStreamDefaultValue": true
                }
            ]
        }
    ],
    "localizations": [],
    "parents": [],
    "startDate": 0,
    "endDate": 0
  },
  {
    "tenantId": "{{rdmTenant}}",
    "type": "rdm/lookupTypes/App-LSCustomer360Specialty",
    "code": "POD",
    "enabled": true,
    "sourceMappings": [
        {
            "source": "Reltio",
            "values": [
                {
                    "code": "POD",
                    "value": "Podiatrist",
                    "enabled": true,
                    "canonicalValue": true,
                    "downStreamDefaultValue": true
                }
            ]
        },
        {
            "source": "ReltioRDM",
            "values": [
                {
                    "code": "POD",
                    "value": "Podiatrist",
                    "enabled": true,
                    "canonicalValue": false,
                    "downStreamDefaultValue": true
                }
            ]
        }
    ],
    "localizations": [],
    "parents": [],
    "startDate": 0,
    "endDate": 0
  },
  {
    "tenantId": "{{rdmTenant}}",
    "type": "rdm/lookupTypes/App-LSCustomer360Specialty",
    "code": "ALTH",
    "enabled": true,
    "sourceMappings": [
        {
            "source": "Reltio",
            "values": [
                {
                    "code": "ALTH",
                    "value": "Alternate therapy",
                    "enabled": true,
                    "canonicalValue": true,
                    "downStreamDefaultValue": true
                }
            ]
        },
        {
            "source": "ReltioRDM",
            "values": [
                {
                    "code": "ALTH",
                    "value": "Alternate therapy",
                    "enabled": true,
                    "canonicalValue": false,
                    "downStreamDefaultValue": true
                }
            ]
        }
    ],
    "localizations": [],
    "parents": [],
    "startDate": 0,
    "endDate": 0
  },
  {
    "tenantId": "{{rdmTenant}}",
    "type": "rdm/lookupTypes/App-LSCustomer360Specialty",
    "code": "BIP",
    "enabled": true,
    "sourceMappings": [
        {
            "source": "Reltio",
            "values": [
                {
                    "code": "BIP",
                    "value": "Brain injury medicine-phys med & rehab",
                    "enabled": true,
                    "canonicalValue": true,
                    "downStreamDefaultValue": true
                }
            ]
        },
        {
            "source": "ReltioRDM",
            "values": [
                {
                    "code": "BIP",
                    "value": "Brain injury medicine-phys med & rehab",
                    "enabled": true,
                    "canonicalValue": false,
                    "downStreamDefaultValue": true
                }
            ]
        }
    ],
    "localizations": [],
    "parents": [],
    "startDate": 0,
    "endDate": 0
  },
  {
    "tenantId": "{{rdmTenant}}",
    "type": "rdm/lookupTypes/App-LSCustomer360Specialty",
    "code": "A",
    "enabled": true,
    "sourceMappings": [
        {
            "source": "Reltio",
            "values": [
                {
                    "code": "A",
                    "value": "Allergy",
                    "enabled": true,
                    "canonicalValue": true,
                    "downStreamDefaultValue": true
                }
            ]
        },
        {
            "source": "ReltioRDM",
            "values": [
                {
                    "code": "A",
                    "value": "Allergy",
                    "enabled": true,
                    "canonicalValue": false,
                    "downStreamDefaultValue": true
                }
            ]
        }
    ],
    "localizations": [],
    "parents": [],
    "startDate": 0,
    "endDate": 0
  },
  {
    "tenantId": "{{rdmTenant}}",
    "type": "rdm/lookupTypes/App-LSCustomer360Specialty",
    "code": "FPG",
    "enabled": true,
    "sourceMappings": [
        {
            "source": "Reltio",
            "values": [
                {
                    "code": "FPG",
                    "value": "Family practice - geriatric medicine",
                    "enabled": true,
                    "canonicalValue": true,
                    "downStreamDefaultValue": true
                }
            ]
        },
        {
            "source": "ReltioRDM",
            "values": [
                {
                    "code": "FPG",
                    "value": "Family practice - geriatric medicine",
                    "enabled": true,
                    "canonicalValue": false,
                    "downStreamDefaultValue": true
                }
            ]
        }
    ],
    "localizations": [],
    "parents": [],
    "startDate": 0,
    "endDate": 0
  },
  {
    "tenantId": "{{rdmTenant}}",
    "type": "rdm/lookupTypes/App-LSCustomer360Specialty",
    "code": "CNS",
    "enabled": true,
    "sourceMappings": [
        {
            "source": "Reltio",
            "values": [
                {
                    "code": "CNS",
                    "value": "Clinical nurse specialist",
                    "enabled": true,
                    "canonicalValue": true,
                    "downStreamDefaultValue": true
                }
            ]
        },
        {
            "source": "ReltioRDM",
            "values": [
                {
                    "code": "CNS",
                    "value": "Clinical nurse specialist",
                    "enabled": true,
                    "canonicalValue": false,
                    "downStreamDefaultValue": true
                }
            ]
        }
    ],
    "localizations": [],
    "parents": [],
    "startDate": 0,
    "endDate": 0
  },
  {
    "tenantId": "{{rdmTenant}}",
    "type": "rdm/lookupTypes/App-LSCustomer360Specialty",
    "code": "HPS",
    "enabled": true,
    "sourceMappings": [
        {
            "source": "Reltio",
            "values": [
                {
                    "code": "HPS",
                    "value": "Hosp/palliative medicine - surgery",
                    "enabled": true,
                    "canonicalValue": true,
                    "downStreamDefaultValue": true
                }
            ]
        },
        {
            "source": "ReltioRDM",
            "values": [
                {
                    "code": "HPS",
                    "value": "Hosp/palliative medicine - surgery",
                    "enabled": true,
                    "canonicalValue": false,
                    "downStreamDefaultValue": true
                }
            ]
        }
    ],
    "localizations": [],
    "parents": [],
    "startDate": 0,
    "endDate": 0
  },
  {
    "tenantId": "{{rdmTenant}}",
    "type": "rdm/lookupTypes/App-LSCustomer360Specialty",
    "code": "HPR",
    "enabled": true,
    "sourceMappings": [
        {
            "source": "Reltio",
            "values": [
                {
                    "code": "HPR",
                    "value": "Hosp/palliative med-physical med & rehab",
                    "enabled": true,
                    "canonicalValue": true,
                    "downStreamDefaultValue": true
                }
            ]
        },
        {
            "source": "ReltioRDM",
            "values": [
                {
                    "code": "HPR",
                    "value": "Hosp/palliative med-physical med & rehab",
                    "enabled": true,
                    "canonicalValue": false,
                    "downStreamDefaultValue": true
                }
            ]
        }
    ],
    "localizations": [],
    "parents": [],
    "startDate": 0,
    "endDate": 0
  },
  {
    "tenantId": "{{rdmTenant}}",
    "type": "rdm/lookupTypes/App-LSCustomer360Specialty",
    "code": "HPP",
    "enabled": true,
    "sourceMappings": [
        {
            "source": "Reltio",
            "values": [
                {
                    "code": "HPP",
                    "value": "Hosp/palliative med-pediatrics",
                    "enabled": true,
                    "canonicalValue": true,
                    "downStreamDefaultValue": true
                }
            ]
        },
        {
            "source": "ReltioRDM",
            "values": [
                {
                    "code": "HPP",
                    "value": "Hosp/palliative med-pediatrics",
                    "enabled": true,
                    "canonicalValue": false,
                    "downStreamDefaultValue": true
                }
            ]
        }
    ],
    "localizations": [],
    "parents": [],
    "startDate": 0,
    "endDate": 0
  },
  {
    "tenantId": "{{rdmTenant}}",
    "type": "rdm/lookupTypes/App-LSCustomer360Specialty",
    "code": "AM",
    "enabled": true,
    "sourceMappings": [
        {
            "source": "Reltio",
            "values": [
                {
                    "code": "AM",
                    "value": "Aerospace medicine",
                    "enabled": true,
                    "canonicalValue": true,
                    "downStreamDefaultValue": true
                }
            ]
        },
        {
            "source": "ReltioRDM",
            "values": [
                {
                    "code": "AM",
                    "value": "Aerospace medicine",
                    "enabled": true,
                    "canonicalValue": false,
                    "downStreamDefaultValue": true
                }
            ]
        }
    ],
    "localizations": [],
    "parents": [],
    "startDate": 0,
    "endDate": 0
  },
  {
    "tenantId": "{{rdmTenant}}",
    "type": "rdm/lookupTypes/App-LSCustomer360Specialty",
    "code": "VM",
    "enabled": true,
    "sourceMappings": [
        {
            "source": "Reltio",
            "values": [
                {
                    "code": "VM",
                    "value": "Vascular medicine",
                    "enabled": true,
                    "canonicalValue": true,
                    "downStreamDefaultValue": true
                }
            ]
        },
        {
            "source": "ReltioRDM",
            "values": [
                {
                    "code": "VM",
                    "value": "Vascular medicine",
                    "enabled": true,
                    "canonicalValue": false,
                    "downStreamDefaultValue": true
                }
            ]
        }
    ],
    "localizations": [],
    "parents": [],
    "startDate": 0,
    "endDate": 0
  },
  {
    "tenantId": "{{rdmTenant}}",
    "type": "rdm/lookupTypes/App-LSCustomer360Specialty",
    "code": "ICE",
    "enabled": true,
    "sourceMappings": [
        {
            "source": "Reltio",
            "values": [
                {
                    "code": "ICE",
                    "value": "Cardiac electrophysiology",
                    "enabled": true,
                    "canonicalValue": true,
                    "downStreamDefaultValue": true
                }
            ]
        },
        {
            "source": "ReltioRDM",
            "values": [
                {
                    "code": "ICE",
                    "value": "Cardiac electrophysiology",
                    "enabled": true,
                    "canonicalValue": false,
                    "downStreamDefaultValue": true
                }
            ]
        }
    ],
    "localizations": [],
    "parents": [],
    "startDate": 0,
    "endDate": 0
  },
  {
    "tenantId": "{{rdmTenant}}",
    "type": "rdm/lookupTypes/App-LSCustomer360Specialty",
    "code": "AN",
    "enabled": true,
    "sourceMappings": [
        {
            "source": "Reltio",
            "values": [
                {
                    "code": "AN",
                    "value": "Anesthesiology",
                    "enabled": true,
                    "canonicalValue": true,
                    "downStreamDefaultValue": true
                }
            ]
        },
        {
            "source": "ReltioRDM",
            "values": [
                {
                    "code": "AN",
                    "value": "Anesthesiology",
                    "enabled": true,
                    "canonicalValue": false,
                    "downStreamDefaultValue": true
                }
            ]
        }
    ],
    "localizations": [],
    "parents": [],
    "startDate": 0,
    "endDate": 0
  },
  {
    "tenantId": "{{rdmTenant}}",
    "type": "rdm/lookupTypes/App-LSCustomer360Specialty",
    "code": "IRI",
    "enabled": true,
    "sourceMappings": [
        {
            "source": "Reltio",
            "values": [
                {
                    "code": "IRI",
                    "value": "Interventional Radiology-Integrated",
                    "enabled": true,
                    "canonicalValue": true,
                    "downStreamDefaultValue": true
                }
            ]
        },
        {
            "source": "ReltioRDM",
            "values": [
                {
                    "code": "IRI",
                    "value": "Interventional Radiology-Integrated",
                    "enabled": true,
                    "canonicalValue": false,
                    "downStreamDefaultValue": true
                }
            ]
        }
    ],
    "localizations": [],
    "parents": [],
    "startDate": 0,
    "endDate": 0
  },
  {
    "tenantId": "{{rdmTenant}}",
    "type": "rdm/lookupTypes/App-LSCustomer360Specialty",
    "code": "AS",
    "enabled": true,
    "sourceMappings": [
        {
            "source": "Reltio",
            "values": [
                {
                    "code": "AS",
                    "value": "Abdominal surgery",
                    "enabled": true,
                    "canonicalValue": true,
                    "downStreamDefaultValue": true
                }
            ]
        },
        {
            "source": "ReltioRDM",
            "values": [
                {
                    "code": "AS",
                    "value": "Abdominal surgery",
                    "enabled": true,
                    "canonicalValue": false,
                    "downStreamDefaultValue": true
                }
            ]
        }
    ],
    "localizations": [],
    "parents": [],
    "startDate": 0,
    "endDate": 0
  },
  {
    "tenantId": "{{rdmTenant}}",
    "type": "rdm/lookupTypes/App-LSCustomer360Specialty",
    "code": "AR",
    "enabled": true,
    "sourceMappings": [
        {
            "source": "Reltio",
            "values": [
                {
                    "code": "AR",
                    "value": "Abdominal radiology",
                    "enabled": true,
                    "canonicalValue": true,
                    "downStreamDefaultValue": true
                }
            ]
        },
        {
            "source": "ReltioRDM",
            "values": [
                {
                    "code": "AR",
                    "value": "Abdominal radiology",
                    "enabled": true,
                    "canonicalValue": false,
                    "downStreamDefaultValue": true
                }
            ]
        }
    ],
    "localizations": [],
    "parents": [],
    "startDate": 0,
    "endDate": 0
  },
  {
    "tenantId": "{{rdmTenant}}",
    "type": "rdm/lookupTypes/App-LSCustomer360Specialty",
    "code": "DNPR",
    "enabled": true,
    "sourceMappings": [
        {
            "source": "Reltio",
            "values": [
                {
                    "code": "DNPR",
                    "value": "Dentistry/periodontics",
                    "enabled": true,
                    "canonicalValue": true,
                    "downStreamDefaultValue": true
                }
            ]
        },
        {
            "source": "ReltioRDM",
            "values": [
                {
                    "code": "DNPR",
                    "value": "Dentistry/periodontics",
                    "enabled": true,
                    "canonicalValue": false,
                    "downStreamDefaultValue": true
                }
            ]
        }
    ],
    "localizations": [],
    "parents": [],
    "startDate": 0,
    "endDate": 0
  },
  {
    "tenantId": "{{rdmTenant}}",
    "type": "rdm/lookupTypes/App-LSCustomer360Specialty",
    "code": "HOS",
    "enabled": true,
    "sourceMappings": [
        {
            "source": "Reltio",
            "values": [
                {
                    "code": "HOS",
                    "value": "Hospitalist",
                    "enabled": true,
                    "canonicalValue": true,
                    "downStreamDefaultValue": true
                }
            ]
        },
        {
            "source": "ReltioRDM",
            "values": [
                {
                    "code": "HOS",
                    "value": "Hospitalist",
                    "enabled": true,
                    "canonicalValue": false,
                    "downStreamDefaultValue": true
                }
            ]
        }
    ],
    "localizations": [],
    "parents": [],
    "startDate": 0,
    "endDate": 0
  },
  {
    "tenantId": "{{rdmTenant}}",
    "type": "rdm/lookupTypes/App-LSCustomer360Specialty",
    "code": "HPM",
    "enabled": true,
    "sourceMappings": [
        {
            "source": "Reltio",
            "values": [
                {
                    "code": "HPM",
                    "value": "Hospice & palliative medicine",
                    "enabled": true,
                    "canonicalValue": true,
                    "downStreamDefaultValue": true
                }
            ]
        },
        {
            "source": "ReltioRDM",
            "values": [
                {
                    "code": "HPM",
                    "value": "Hospice & palliative medicine",
                    "enabled": true,
                    "canonicalValue": false,
                    "downStreamDefaultValue": true
                }
            ]
        }
    ],
    "localizations": [],
    "parents": [],
    "startDate": 0,
    "endDate": 0
  },
  {
    "tenantId": "{{rdmTenant}}",
    "type": "rdm/lookupTypes/App-LSCustomer360Specialty",
    "code": "FPR",
    "enabled": true,
    "sourceMappings": [
        {
            "source": "Reltio",
            "values": [
                {
                    "code": "FPR",
                    "value": "Female pelvic med & recon surg-obgyn",
                    "enabled": true,
                    "canonicalValue": true,
                    "downStreamDefaultValue": true
                }
            ]
        },
        {
            "source": "ReltioRDM",
            "values": [
                {
                    "code": "FPR",
                    "value": "Female pelvic med & recon surg-obgyn",
                    "enabled": true,
                    "canonicalValue": false,
                    "downStreamDefaultValue": true
                }
            ]
        }
    ],
    "localizations": [],
    "parents": [],
    "startDate": 0,
    "endDate": 0
  },
  {
    "tenantId": "{{rdmTenant}}",
    "type": "rdm/lookupTypes/App-LSCustomer360Specialty",
    "code": "ESN",
    "enabled": true,
    "sourceMappings": [
        {
            "source": "Reltio",
            "values": [
                {
                    "code": "ESN",
                    "value": "Endovascular Surgical Neuroradiology",
                    "enabled": true,
                    "canonicalValue": true,
                    "downStreamDefaultValue": true
                }
            ]
        },
        {
            "source": "ReltioRDM",
            "values": [
                {
                    "code": "ESN",
                    "value": "Endovascular Surgical Neuroradiology",
                    "enabled": true,
                    "canonicalValue": false,
                    "downStreamDefaultValue": true
                }
            ]
        }
    ],
    "localizations": [],
    "parents": [],
    "startDate": 0,
    "endDate": 0
  },
  {
    "tenantId": "{{rdmTenant}}",
    "type": "rdm/lookupTypes/App-LSCustomer360Specialty",
    "code": "HPA",
    "enabled": true,
    "sourceMappings": [
        {
            "source": "Reltio",
            "values": [
                {
                    "code": "HPA",
                    "value": "Hosp/palliative med-anesthesiology",
                    "enabled": true,
                    "canonicalValue": true,
                    "downStreamDefaultValue": true
                }
            ]
        },
        {
            "source": "ReltioRDM",
            "values": [
                {
                    "code": "HPA",
                    "value": "Hosp/palliative med-anesthesiology",
                    "enabled": true,
                    "canonicalValue": false,
                    "downStreamDefaultValue": true
                }
            ]
        }
    ],
    "localizations": [],
    "parents": [],
    "startDate": 0,
    "endDate": 0
  },
  {
    "tenantId": "{{rdmTenant}}",
    "type": "rdm/lookupTypes/App-LSCustomer360Specialty",
    "code": "LVN",
    "enabled": true,
    "sourceMappings": [
        {
            "source": "Reltio",
            "values": [
                {
                    "code": "LVN",
                    "value": "Licensed vocational nurse",
                    "enabled": true,
                    "canonicalValue": true,
                    "downStreamDefaultValue": true
                }
            ]
        },
        {
            "source": "ReltioRDM",
            "values": [
                {
                    "code": "LVN",
                    "value": "Licensed vocational nurse",
                    "enabled": true,
                    "canonicalValue": false,
                    "downStreamDefaultValue": true
                }
            ]
        }
    ],
    "localizations": [],
    "parents": [],
    "startDate": 0,
    "endDate": 0
  },
  {
    "tenantId": "{{rdmTenant}}",
    "type": "rdm/lookupTypes/App-LSCustomer360Specialty",
    "code": "HPF",
    "enabled": true,
    "sourceMappings": [
        {
            "source": "Reltio",
            "values": [
                {
                    "code": "HPF",
                    "value": "Hosp/palliative med-fam med",
                    "enabled": true,
                    "canonicalValue": true,
                    "downStreamDefaultValue": true
                }
            ]
        },
        {
            "source": "ReltioRDM",
            "values": [
                {
                    "code": "HPF",
                    "value": "Hosp/palliative med-fam med",
                    "enabled": true,
                    "canonicalValue": false,
                    "downStreamDefaultValue": true
                }
            ]
        }
    ],
    "localizations": [],
    "parents": [],
    "startDate": 0,
    "endDate": 0
  },
  {
    "tenantId": "{{rdmTenant}}",
    "type": "rdm/lookupTypes/App-LSCustomer360Specialty",
    "code": "HPE",
    "enabled": true,
    "sourceMappings": [
        {
            "source": "Reltio",
            "values": [
                {
                    "code": "HPE",
                    "value": "Hosp/palliative med-emergency med",
                    "enabled": true,
                    "canonicalValue": true,
                    "downStreamDefaultValue": true
                }
            ]
        },
        {
            "source": "ReltioRDM",
            "values": [
                {
                    "code": "HPE",
                    "value": "Hosp/palliative med-emergency med",
                    "enabled": true,
                    "canonicalValue": false,
                    "downStreamDefaultValue": true
                }
            ]
        }
    ],
    "localizations": [],
    "parents": [],
    "startDate": 0,
    "endDate": 0
  },
  {
    "tenantId": "{{rdmTenant}}",
    "type": "rdm/lookupTypes/App-LSCustomer360Specialty",
    "code": "HPD",
    "enabled": true,
    "sourceMappings": [
        {
            "source": "Reltio",
            "values": [
                {
                    "code": "HPD",
                    "value": "Hosp/palliative med-radiology",
                    "enabled": true,
                    "canonicalValue": true,
                    "downStreamDefaultValue": true
                }
            ]
        },
        {
            "source": "ReltioRDM",
            "values": [
                {
                    "code": "HPD",
                    "value": "Hosp/palliative med-radiology",
                    "enabled": true,
                    "canonicalValue": false,
                    "downStreamDefaultValue": true
                }
            ]
        }
    ],
    "localizations": [],
    "parents": [],
    "startDate": 0,
    "endDate": 0
  },
  {
    "tenantId": "{{rdmTenant}}",
    "type": "rdm/lookupTypes/App-LSCustomer360Specialty",
    "code": "ANCI",
    "enabled": true,
    "sourceMappings": [
        {
            "source": "Reltio",
            "values": [
                {
                    "code": "ANCI",
                    "value": "Ancilliary Services",
                    "enabled": true,
                    "canonicalValue": true,
                    "downStreamDefaultValue": true
                }
            ]
        },
        {
            "source": "ReltioRDM",
            "values": [
                {
                    "code": "ANCI",
                    "value": "Ancilliary Services",
                    "enabled": true,
                    "canonicalValue": false,
                    "downStreamDefaultValue": true
                }
            ]
        }
    ],
    "localizations": [],
    "parents": [],
    "startDate": 0,
    "endDate": 0
  },
  {
    "tenantId": "{{rdmTenant}}",
    "type": "rdm/lookupTypes/App-LSCustomer360Specialty",
    "code": "NCC",
    "enabled": true,
    "sourceMappings": [
        {
            "source": "Reltio",
            "values": [
                {
                    "code": "NCC",
                    "value": "Neuro surgery, critcal care",
                    "enabled": true,
                    "canonicalValue": true,
                    "downStreamDefaultValue": true
                }
            ]
        },
        {
            "source": "ReltioRDM",
            "values": [
                {
                    "code": "NCC",
                    "value": "Neuro surgery, critcal care",
                    "enabled": true,
                    "canonicalValue": false,
                    "downStreamDefaultValue": true
                }
            ]
        }
    ],
    "localizations": [],
    "parents": [],
    "startDate": 0,
    "endDate": 0
  },
  {
    "tenantId": "{{rdmTenant}}",
    "type": "rdm/lookupTypes/App-LSCustomer360Specialty",
    "code": "HHPC",
    "enabled": true,
    "sourceMappings": [
        {
            "source": "Reltio",
            "values": [
                {
                    "code": "HHPC",
                    "value": "Home Health/Personal Care",
                    "enabled": true,
                    "canonicalValue": true,
                    "downStreamDefaultValue": true
                }
            ]
        },
        {
            "source": "ReltioRDM",
            "values": [
                {
                    "code": "HHPC",
                    "value": "Home Health/Personal Care",
                    "enabled": true,
                    "canonicalValue": false,
                    "downStreamDefaultValue": true
                }
            ]
        }
    ],
    "localizations": [],
    "parents": [],
    "startDate": 0,
    "endDate": 0
  },
  {
    "tenantId": "{{rdmTenant}}",
    "type": "rdm/lookupTypes/App-LSCustomer360Specialty",
    "code": "MG",
    "enabled": true,
    "sourceMappings": [
        {
            "source": "Reltio",
            "values": [
                {
                    "code": "MG",
                    "value": "Medical genetics",
                    "enabled": true,
                    "canonicalValue": true,
                    "downStreamDefaultValue": true
                }
            ]
        },
        {
            "source": "ReltioRDM",
            "values": [
                {
                    "code": "MG",
                    "value": "Medical genetics",
                    "enabled": true,
                    "canonicalValue": false,
                    "downStreamDefaultValue": true
                }
            ]
        }
    ],
    "localizations": [],
    "parents": [],
    "startDate": 0,
    "endDate": 0
  },
  {
    "tenantId": "{{rdmTenant}}",
    "type": "rdm/lookupTypes/App-LSCustomer360Specialty",
    "code": "PFP",
    "enabled": true,
    "sourceMappings": [
        {
            "source": "Reltio",
            "values": [
                {
                    "code": "PFP",
                    "value": "Forensic psychiatry",
                    "enabled": true,
                    "canonicalValue": true,
                    "downStreamDefaultValue": true
                }
            ]
        },
        {
            "source": "ReltioRDM",
            "values": [
                {
                    "code": "PFP",
                    "value": "Forensic psychiatry",
                    "enabled": true,
                    "canonicalValue": false,
                    "downStreamDefaultValue": true
                }
            ]
        }
    ],
    "localizations": [],
    "parents": [],
    "startDate": 0,
    "endDate": 0
  },
  {
    "tenantId": "{{rdmTenant}}",
    "type": "rdm/lookupTypes/App-LSCustomer360Specialty",
    "code": "PM",
    "enabled": true,
    "sourceMappings": [
        {
            "source": "Reltio",
            "values": [
                {
                    "code": "PM",
                    "value": "Physical medicine and rehab",
                    "enabled": true,
                    "canonicalValue": true,
                    "downStreamDefaultValue": true
                }
            ]
        },
        {
            "source": "ReltioRDM",
            "values": [
                {
                    "code": "PM",
                    "value": "Physical medicine and rehab",
                    "enabled": true,
                    "canonicalValue": false,
                    "downStreamDefaultValue": true
                }
            ]
        }
    ],
    "localizations": [],
    "parents": [],
    "startDate": 0,
    "endDate": 0
  },
  {
    "tenantId": "{{rdmTenant}}",
    "type": "rdm/lookupTypes/App-LSCustomer360Specialty",
    "code": "MSR",
    "enabled": true,
    "sourceMappings": [
        {
            "source": "Reltio",
            "values": [
                {
                    "code": "MSR",
                    "value": "Musculoskeletal radiology",
                    "enabled": true,
                    "canonicalValue": true,
                    "downStreamDefaultValue": true
                }
            ]
        },
        {
            "source": "ReltioRDM",
            "values": [
                {
                    "code": "MSR",
                    "value": "Musculoskeletal radiology",
                    "enabled": true,
                    "canonicalValue": false,
                    "downStreamDefaultValue": true
                }
            ]
        }
    ],
    "localizations": [],
    "parents": [],
    "startDate": 0,
    "endDate": 0
  },
  {
    "tenantId": "{{rdmTenant}}",
    "type": "rdm/lookupTypes/App-LSCustomer360Specialty",
    "code": "OTR",
    "enabled": true,
    "sourceMappings": [
        {
            "source": "Reltio",
            "values": [
                {
                    "code": "OTR",
                    "value": "Orthopedic trauma",
                    "enabled": true,
                    "canonicalValue": true,
                    "downStreamDefaultValue": true
                }
            ]
        },
        {
            "source": "ReltioRDM",
            "values": [
                {
                    "code": "OTR",
                    "value": "Orthopedic trauma",
                    "enabled": true,
                    "canonicalValue": false,
                    "downStreamDefaultValue": true
                }
            ]
        }
    ],
    "localizations": [],
    "parents": [],
    "startDate": 0,
    "endDate": 0
  },
  {
    "tenantId": "{{rdmTenant}}",
    "type": "rdm/lookupTypes/App-LSCustomer360Specialty",
    "code": "NRP",
    "enabled": true,
    "sourceMappings": [
        {
            "source": "Reltio",
            "values": [
                {
                    "code": "NRP",
                    "value": "Nurse practitioner",
                    "enabled": true,
                    "canonicalValue": true,
                    "downStreamDefaultValue": true
                }
            ]
        },
        {
            "source": "ReltioRDM",
            "values": [
                {
                    "code": "NRP",
                    "value": "Nurse practitioner",
                    "enabled": true,
                    "canonicalValue": false,
                    "downStreamDefaultValue": true
                }
            ]
        }
    ],
    "localizations": [],
    "parents": [],
    "startDate": 0,
    "endDate": 0
  },
  {
    "tenantId": "{{rdmTenant}}",
    "type": "rdm/lookupTypes/App-LSCustomer360Specialty",
    "code": "CFS",
    "enabled": true,
    "sourceMappings": [
        {
            "source": "Reltio",
            "values": [
                {
                    "code": "CFS",
                    "value": "Craniofacial surgery",
                    "enabled": true,
                    "canonicalValue": true,
                    "downStreamDefaultValue": true
                }
            ]
        },
        {
            "source": "ReltioRDM",
            "values": [
                {
                    "code": "CFS",
                    "value": "Craniofacial surgery",
                    "enabled": true,
                    "canonicalValue": false,
                    "downStreamDefaultValue": true
                }
            ]
        }
    ],
    "localizations": [],
    "parents": [],
    "startDate": 0,
    "endDate": 0
  },
  {
    "tenantId": "{{rdmTenant}}",
    "type": "rdm/lookupTypes/App-LSCustomer360Specialty",
    "code": "ARN",
    "enabled": true,
    "sourceMappings": [
        {
            "source": "Reltio",
            "values": [
                {
                    "code": "ARN",
                    "value": "Advanced registered nurse",
                    "enabled": true,
                    "canonicalValue": true,
                    "downStreamDefaultValue": true
                }
            ]
        },
        {
            "source": "ReltioRDM",
            "values": [
                {
                    "code": "ARN",
                    "value": "Advanced registered nurse",
                    "enabled": true,
                    "canonicalValue": false,
                    "downStreamDefaultValue": true
                }
            ]
        }
    ],
    "localizations": [],
    "parents": [],
    "startDate": 0,
    "endDate": 0
  },
  {
    "tenantId": "{{rdmTenant}}",
    "type": "rdm/lookupTypes/App-LSCustomer360Specialty",
    "code": "DDL",
    "enabled": true,
    "sourceMappings": [
        {
            "source": "Reltio",
            "values": [
                {
                    "code": "DDL",
                    "value": "Dermatological immunology",
                    "enabled": true,
                    "canonicalValue": true,
                    "downStreamDefaultValue": true
                }
            ]
        },
        {
            "source": "ReltioRDM",
            "values": [
                {
                    "code": "DDL",
                    "value": "Dermatological immunology",
                    "enabled": true,
                    "canonicalValue": false,
                    "downStreamDefaultValue": true
                }
            ]
        }
    ],
    "localizations": [],
    "parents": [],
    "startDate": 0,
    "endDate": 0
  }
]