{
   "id": "com.reltio.i18n",
   "name": "i18n setup",
   "version": "1.0.0",
   "provider-name": "Reltio.com",
   "extensions": [
       {
           "point": "com.reltio.plugins.i18n",
           "id": "com.reltio.plugins.ui.LocalizationServer",
           "configuration": {
                "translations": {
                    "en_US": "https://reltio-ui-localization.s3.amazonaws.com/en-us.json",
                    "en_GB": "https://reltio-ui-localization.s3.amazonaws.com/en-gb.json",
                    "en": "https://reltio-ui-localization.s3.amazonaws.com/en-us.json",
                    "cs": "https://reltio-ui-localization.s3.amazonaws.com/cs.json",
                    "el": "https://reltio-ui-localization.s3.amazonaws.com/el.json",
                    "es": "https://reltio-ui-localization.s3.amazonaws.com/es.json",
                    "fr": "https://reltio-ui-localization.s3.amazonaws.com/fr.json",
                    "hu": "https://reltio-ui-localization.s3.amazonaws.com/hu.json",
                    "it": "https://reltio-ui-localization.s3.amazonaws.com/it.json",
                    "ja": "https://reltio-ui-localization.s3.amazonaws.com/ja.json",
                    "ko": "https://reltio-ui-localization.s3.amazonaws.com/ko.json",
                    "pl": "https://reltio-ui-localization.s3.amazonaws.com/pl.json",
                    "pt": "https://reltio-ui-localization.s3.amazonaws.com/pt.json",
                    "ru": "https://reltio-ui-localization.s3.amazonaws.com/ru.json",
                    "tr": "https://reltio-ui-localization.s3.amazonaws.com/tr.json",
                    "zh": "https://reltio-ui-localization.s3.amazonaws.com/zh.json"
                    
                                  },

               "verbose": false
           }
       }
   ]
}