[{
      "startDate": 0,
      "code": "163WC1400X",
      "endDate": 0,
      "enabled": true,
      "tenantId": "{{rdmTenant}}",
      "parents": [],
      "sourceMappings": [{
            "source": "Reltio",
            "values": [{
                  "downStreamDefaultValue": true,
                  "code": "163WC1400X",
                  "enabled": true,
                  "value": "Registered Nurse-College Health",
                  "canonicalValue": true
               }
            ]
         }, {
            "source": "ReltioRDM",
            "values": [{
                  "downStreamDefaultValue": true,
                  "code": "163WC1400X",
                  "enabled": true,
                  "value": "Registered Nurse-College Health",
                  "canonicalValue": false
               }
            ]
         }
      ],
      "type": "rdm/lookupTypes/App-LSCustomer360Taxonomy",
      "localizations": []
   }, {
      "startDate": 0,
      "code": "208G00000X",
      "endDate": 0,
      "enabled": true,
      "tenantId": "{{rdmTenant}}",
      "parents": [],
      "sourceMappings": [{
            "source": "Reltio",
            "values": [{
                  "downStreamDefaultValue": true,
                  "code": "208G00000X",
                  "enabled": true,
                  "value": "Thoracic Surgery (Cardiothoracic Vascular Surgery)",
                  "canonicalValue": true
               }
            ]
         }, {
            "source": "ReltioRDM",
            "values": [{
                  "downStreamDefaultValue": true,
                  "code": "208G00000X",
                  "enabled": true,
                  "value": "Thoracic Surgery (Cardiothoracic Vascular Surgery)",
                  "canonicalValue": false
               }
            ]
         }
      ],
      "type": "rdm/lookupTypes/App-LSCustomer360Taxonomy",
      "localizations": []
   }, {
      "startDate": 0,
      "code": "332B00000X",
      "endDate": 0,
      "enabled": true,
      "tenantId": "{{rdmTenant}}",
      "parents": [],
      "sourceMappings": [{
            "source": "Reltio",
            "values": [{
                  "downStreamDefaultValue": true,
                  "code": "332B00000X",
                  "enabled": true,
                  "value": "Durable Medical Equipment & Medical Supplies",
                  "canonicalValue": true
               }
            ]
         }, {
            "source": "ReltioRDM",
            "values": [{
                  "downStreamDefaultValue": true,
                  "code": "332B00000X",
                  "enabled": true,
                  "value": "Durable Medical Equipment & Medical Supplies",
                  "canonicalValue": false
               }
            ]
         }
      ],
      "type": "rdm/lookupTypes/App-LSCustomer360Taxonomy",
      "localizations": []
   }, {
      "startDate": 0,
      "code": "261QS1200X",
      "endDate": 0,
      "enabled": true,
      "tenantId": "{{rdmTenant}}",
      "parents": [],
      "sourceMappings": [{
            "source": "Reltio",
            "values": [{
                  "downStreamDefaultValue": true,
                  "code": "261QS1200X",
                  "enabled": true,
                  "value": "Clinic/Center-Sleep Disorder Diagnostic",
                  "canonicalValue": true
               }
            ]
         }, {
            "source": "ReltioRDM",
            "values": [{
                  "downStreamDefaultValue": true,
                  "code": "261QS1200X",
                  "enabled": true,
                  "value": "Clinic/Center-Sleep Disorder Diagnostic",
                  "canonicalValue": false
               }
            ]
         }
      ],
      "type": "rdm/lookupTypes/App-LSCustomer360Taxonomy",
      "localizations": []
   }, {
      "startDate": 0,
      "code": "207RA0201X",
      "endDate": 0,
      "enabled": true,
      "tenantId": "{{rdmTenant}}",
      "parents": [],
      "sourceMappings": [{
            "source": "Reltio",
            "values": [{
                  "downStreamDefaultValue": true,
                  "code": "207RA0201X",
                  "enabled": true,
                  "value": "Internal Medicine-Allergy & Immunology",
                  "canonicalValue": true
               }
            ]
         }, {
            "source": "ReltioRDM",
            "values": [{
                  "downStreamDefaultValue": true,
                  "code": "207RA0201X",
                  "enabled": true,
                  "value": "Internal Medicine-Allergy & Immunology",
                  "canonicalValue": false
               }
            ]
         }
      ],
      "type": "rdm/lookupTypes/App-LSCustomer360Taxonomy",
      "localizations": []
   }, {
      "startDate": 0,
      "code": "207S00000X",
      "endDate": 0,
      "enabled": true,
      "tenantId": "{{rdmTenant}}",
      "parents": [],
      "sourceMappings": [{
            "source": "Reltio",
            "values": [{
                  "downStreamDefaultValue": true,
                  "code": "207S00000X",
                  "enabled": true,
                  "value": "Allopathic & Osteopathic Physicians - -Medical Genetics",
                  "canonicalValue": true
               }
            ]
         }, {
            "source": "ReltioRDM",
            "values": [{
                  "downStreamDefaultValue": true,
                  "code": "207S00000X",
                  "enabled": true,
                  "value": "Allopathic & Osteopathic Physicians - -Medical Genetics",
                  "canonicalValue": false
               }
            ]
         }
      ],
      "type": "rdm/lookupTypes/App-LSCustomer360Taxonomy",
      "localizations": []
   }, {
      "startDate": 0,
      "code": "231H00000X",
      "endDate": 0,
      "enabled": true,
      "tenantId": "{{rdmTenant}}",
      "parents": [],
      "sourceMappings": [{
            "source": "Reltio",
            "values": [{
                  "downStreamDefaultValue": true,
                  "code": "231H00000X",
                  "enabled": true,
                  "value": "Audiologist",
                  "canonicalValue": true
               }
            ]
         }, {
            "source": "ReltioRDM",
            "values": [{
                  "downStreamDefaultValue": true,
                  "code": "231H00000X",
                  "enabled": true,
                  "value": "Audiologist",
                  "canonicalValue": false
               }
            ]
         }
      ],
      "type": "rdm/lookupTypes/App-LSCustomer360Taxonomy",
      "localizations": []
   }, {
      "startDate": 0,
      "code": "363LX0001X",
      "endDate": 0,
      "enabled": true,
      "tenantId": "{{rdmTenant}}",
      "parents": [],
      "sourceMappings": [{
            "source": "Reltio",
            "values": [{
                  "downStreamDefaultValue": true,
                  "code": "363LX0001X",
                  "enabled": true,
                  "value": "Nurse Practitioner-Obstetrics & Gynecology",
                  "canonicalValue": true
               }
            ]
         }, {
            "source": "ReltioRDM",
            "values": [{
                  "downStreamDefaultValue": true,
                  "code": "363LX0001X",
                  "enabled": true,
                  "value": "Nurse Practitioner-Obstetrics & Gynecology",
                  "canonicalValue": false
               }
            ]
         }
      ],
      "type": "rdm/lookupTypes/App-LSCustomer360Taxonomy",
      "localizations": []
   }, {
      "startDate": 0,
      "code": "3336M0002X",
      "endDate": 0,
      "enabled": true,
      "tenantId": "{{rdmTenant}}",
      "parents": [],
      "sourceMappings": [{
            "source": "Reltio",
            "values": [{
                  "downStreamDefaultValue": true,
                  "code": "3336M0002X",
                  "enabled": true,
                  "value": "Pharmacy-Mail Order Pharmacy",
                  "canonicalValue": true
               }
            ]
         }, {
            "source": "ReltioRDM",
            "values": [{
                  "downStreamDefaultValue": true,
                  "code": "3336M0002X",
                  "enabled": true,
                  "value": "Pharmacy-Mail Order Pharmacy",
                  "canonicalValue": false
               }
            ]
         }
      ],
      "type": "rdm/lookupTypes/App-LSCustomer360Taxonomy",
      "localizations": []
   }, {
      "startDate": 0,
      "code": "364SP0812X",
      "endDate": 0,
      "enabled": true,
      "tenantId": "{{rdmTenant}}",
      "parents": [],
      "sourceMappings": [{
            "source": "Reltio",
            "values": [{
                  "downStreamDefaultValue": true,
                  "code": "364SP0812X",
                  "enabled": true,
                  "value": "Clinical Nurse Specialist-Psych/Mental Health, Community",
                  "canonicalValue": true
               }
            ]
         }, {
            "source": "ReltioRDM",
            "values": [{
                  "downStreamDefaultValue": true,
                  "code": "364SP0812X",
                  "enabled": true,
                  "value": "Clinical Nurse Specialist-Psych/Mental Health, Community",
                  "canonicalValue": false
               }
            ]
         }
      ],
      "type": "rdm/lookupTypes/App-LSCustomer360Taxonomy",
      "localizations": []
   }, {
      "startDate": 0,
      "code": "261QB0400X",
      "endDate": 0,
      "enabled": true,
      "tenantId": "{{rdmTenant}}",
      "parents": [],
      "sourceMappings": [{
            "source": "Reltio",
            "values": [{
                  "downStreamDefaultValue": true,
                  "code": "261QB0400X",
                  "enabled": true,
                  "value": "Clinic/Center-Birthing",
                  "canonicalValue": true
               }
            ]
         }, {
            "source": "ReltioRDM",
            "values": [{
                  "downStreamDefaultValue": true,
                  "code": "261QB0400X",
                  "enabled": true,
                  "value": "Clinic/Center-Birthing",
                  "canonicalValue": false
               }
            ]
         }
      ],
      "type": "rdm/lookupTypes/App-LSCustomer360Taxonomy",
      "localizations": []
   }, {
      "startDate": 0,
      "code": "133V00000X",
      "endDate": 0,
      "enabled": true,
      "tenantId": "{{rdmTenant}}",
      "parents": [],
      "sourceMappings": [{
            "source": "Reltio",
            "values": [{
                  "downStreamDefaultValue": true,
                  "code": "133V00000X",
                  "enabled": true,
                  "value": "Dietitian, Registered",
                  "canonicalValue": true
               }
            ]
         }, {
            "source": "ReltioRDM",
            "values": [{
                  "downStreamDefaultValue": true,
                  "code": "133V00000X",
                  "enabled": true,
                  "value": "Dietitian, Registered",
                  "canonicalValue": false
               }
            ]
         }
      ],
      "type": "rdm/lookupTypes/App-LSCustomer360Taxonomy",
      "localizations": []
   }, {
      "startDate": 0,
      "code": "246Z00000X",
      "endDate": 0,
      "enabled": true,
      "tenantId": "{{rdmTenant}}",
      "parents": [],
      "sourceMappings": [{
            "source": "Reltio",
            "values": [{
                  "downStreamDefaultValue": true,
                  "code": "246Z00000X",
                  "enabled": true,
                  "value": "Specialist/Technologist, Other",
                  "canonicalValue": true
               }
            ]
         }, {
            "source": "ReltioRDM",
            "values": [{
                  "downStreamDefaultValue": true,
                  "code": "246Z00000X",
                  "enabled": true,
                  "value": "Specialist/Technologist, Other",
                  "canonicalValue": false
               }
            ]
         }
      ],
      "type": "rdm/lookupTypes/App-LSCustomer360Taxonomy",
      "localizations": []
   }, {
      "startDate": 0,
      "code": "207RC0200X",
      "endDate": 0,
      "enabled": true,
      "tenantId": "{{rdmTenant}}",
      "parents": [],
      "sourceMappings": [{
            "source": "Reltio",
            "values": [{
                  "downStreamDefaultValue": true,
                  "code": "207RC0200X",
                  "enabled": true,
                  "value": "Internal Medicine-Critical Care Medicine",
                  "canonicalValue": true
               }
            ]
         }, {
            "source": "ReltioRDM",
            "values": [{
                  "downStreamDefaultValue": true,
                  "code": "207RC0200X",
                  "enabled": true,
                  "value": "Internal Medicine-Critical Care Medicine",
                  "canonicalValue": false
               }
            ]
         }
      ],
      "type": "rdm/lookupTypes/App-LSCustomer360Taxonomy",
      "localizations": []
   }, {
      "startDate": 0,
      "code": "2471S1302X",
      "endDate": 0,
      "enabled": true,
      "tenantId": "{{rdmTenant}}",
      "parents": [],
      "sourceMappings": [{
            "source": "Reltio",
            "values": [{
                  "downStreamDefaultValue": true,
                  "code": "2471S1302X",
                  "enabled": true,
                  "value": "Radiologic Technologist-Sonography",
                  "canonicalValue": true
               }
            ]
         }, {
            "source": "ReltioRDM",
            "values": [{
                  "downStreamDefaultValue": true,
                  "code": "2471S1302X",
                  "enabled": true,
                  "value": "Radiologic Technologist-Sonography",
                  "canonicalValue": false
               }
            ]
         }
      ],
      "type": "rdm/lookupTypes/App-LSCustomer360Taxonomy",
      "localizations": []
   }, {
      "startDate": 0,
      "code": "207RS0012X",
      "endDate": 0,
      "enabled": true,
      "tenantId": "{{rdmTenant}}",
      "parents": [],
      "sourceMappings": [{
            "source": "Reltio",
            "values": [{
                  "downStreamDefaultValue": true,
                  "code": "207RS0012X",
                  "enabled": true,
                  "value": "Internal Medicine-Sleep Medicine",
                  "canonicalValue": true
               }
            ]
         }, {
            "source": "ReltioRDM",
            "values": [{
                  "downStreamDefaultValue": true,
                  "code": "207RS0012X",
                  "enabled": true,
                  "value": "Internal Medicine-Sleep Medicine",
                  "canonicalValue": false
               }
            ]
         }
      ],
      "type": "rdm/lookupTypes/App-LSCustomer360Taxonomy",
      "localizations": []
   }, {
      "startDate": 0,
      "code": "146L00000X",
      "endDate": 0,
      "enabled": true,
      "tenantId": "{{rdmTenant}}",
      "parents": [],
      "sourceMappings": [{
            "source": "Reltio",
            "values": [{
                  "downStreamDefaultValue": true,
                  "code": "146L00000X",
                  "enabled": true,
                  "value": "Emergency Medical Technician, Paramedic",
                  "canonicalValue": true
               }
            ]
         }, {
            "source": "ReltioRDM",
            "values": [{
                  "downStreamDefaultValue": true,
                  "code": "146L00000X",
                  "enabled": true,
                  "value": "Emergency Medical Technician, Paramedic",
                  "canonicalValue": false
               }
            ]
         }
      ],
      "type": "rdm/lookupTypes/App-LSCustomer360Taxonomy",
      "localizations": []
   }, {
      "startDate": 0,
      "code": "101YS0200X",
      "endDate": 0,
      "enabled": true,
      "tenantId": "{{rdmTenant}}",
      "parents": [],
      "sourceMappings": [{
            "source": "Reltio",
            "values": [{
                  "downStreamDefaultValue": true,
                  "code": "101YS0200X",
                  "enabled": true,
                  "value": "Counselor-School",
                  "canonicalValue": true
               }
            ]
         }, {
            "source": "ReltioRDM",
            "values": [{
                  "downStreamDefaultValue": true,
                  "code": "101YS0200X",
                  "enabled": true,
                  "value": "Counselor-School",
                  "canonicalValue": false
               }
            ]
         }
      ],
      "type": "rdm/lookupTypes/App-LSCustomer360Taxonomy",
      "localizations": []
   }, {
      "startDate": 0,
      "code": "174200000X",
      "endDate": 0,
      "enabled": true,
      "tenantId": "{{rdmTenant}}",
      "parents": [],
      "sourceMappings": [{
            "source": "Reltio",
            "values": [{
                  "downStreamDefaultValue": true,
                  "code": "174200000X",
                  "enabled": true,
                  "value": "Meals",
                  "canonicalValue": true
               }
            ]
         }, {
            "source": "ReltioRDM",
            "values": [{
                  "downStreamDefaultValue": true,
                  "code": "174200000X",
                  "enabled": true,
                  "value": "Meals",
                  "canonicalValue": false
               }
            ]
         }
      ],
      "type": "rdm/lookupTypes/App-LSCustomer360Taxonomy",
      "localizations": []
   }, {
      "startDate": 0,
      "code": "246QL0900X",
      "endDate": 0,
      "enabled": true,
      "tenantId": "{{rdmTenant}}",
      "parents": [],
      "sourceMappings": [{
            "source": "Reltio",
            "values": [{
                  "downStreamDefaultValue": true,
                  "code": "246QL0900X",
                  "enabled": true,
                  "value": "Spec/Tech, Pathology-Laboratory Management",
                  "canonicalValue": true
               }
            ]
         }, {
            "source": "ReltioRDM",
            "values": [{
                  "downStreamDefaultValue": true,
                  "code": "246QL0900X",
                  "enabled": true,
                  "value": "Spec/Tech, Pathology-Laboratory Management",
                  "canonicalValue": false
               }
            ]
         }
      ],
      "type": "rdm/lookupTypes/App-LSCustomer360Taxonomy",
      "localizations": []
   }, {
      "startDate": 0,
      "code": "364SI0800X",
      "endDate": 0,
      "enabled": true,
      "tenantId": "{{rdmTenant}}",
      "parents": [],
      "sourceMappings": [{
            "source": "Reltio",
            "values": [{
                  "downStreamDefaultValue": true,
                  "code": "364SI0800X",
                  "enabled": true,
                  "value": "Clinical Nurse Specialist-Informatics",
                  "canonicalValue": true
               }
            ]
         }, {
            "source": "ReltioRDM",
            "values": [{
                  "downStreamDefaultValue": true,
                  "code": "364SI0800X",
                  "enabled": true,
                  "value": "Clinical Nurse Specialist-Informatics",
                  "canonicalValue": false
               }
            ]
         }
      ],
      "type": "rdm/lookupTypes/App-LSCustomer360Taxonomy",
      "localizations": []
   }, {
      "startDate": 0,
      "code": "225XG0600X",
      "endDate": 0,
      "enabled": true,
      "tenantId": "{{rdmTenant}}",
      "parents": [],
      "sourceMappings": [{
            "source": "Reltio",
            "values": [{
                  "downStreamDefaultValue": true,
                  "code": "225XG0600X",
                  "enabled": true,
                  "value": "Occupational Therapist-Gerontology",
                  "canonicalValue": true
               }
            ]
         }, {
            "source": "ReltioRDM",
            "values": [{
                  "downStreamDefaultValue": true,
                  "code": "225XG0600X",
                  "enabled": true,
                  "value": "Occupational Therapist-Gerontology",
                  "canonicalValue": false
               }
            ]
         }
      ],
      "type": "rdm/lookupTypes/App-LSCustomer360Taxonomy",
      "localizations": []
   }, {
      "startDate": 0,
      "code": "246XC2903X",
      "endDate": 0,
      "enabled": true,
      "tenantId": "{{rdmTenant}}",
      "parents": [],
      "sourceMappings": [{
            "source": "Reltio",
            "values": [{
                  "downStreamDefaultValue": true,
                  "code": "246XC2903X",
                  "enabled": true,
                  "value": "Spec/Tech, Cardiovascular-Vascular Specialist",
                  "canonicalValue": true
               }
            ]
         }, {
            "source": "ReltioRDM",
            "values": [{
                  "downStreamDefaultValue": true,
                  "code": "246XC2903X",
                  "enabled": true,
                  "value": "Spec/Tech, Cardiovascular-Vascular Specialist",
                  "canonicalValue": false
               }
            ]
         }
      ],
      "type": "rdm/lookupTypes/App-LSCustomer360Taxonomy",
      "localizations": []
   }, {
      "startDate": 0,
      "code": "376J00000X",
      "endDate": 0,
      "enabled": true,
      "tenantId": "{{rdmTenant}}",
      "parents": [],
      "sourceMappings": [{
            "source": "Reltio",
            "values": [{
                  "downStreamDefaultValue": true,
                  "code": "376J00000X",
                  "enabled": true,
                  "value": "Homemaker",
                  "canonicalValue": true
               }
            ]
         }, {
            "source": "ReltioRDM",
            "values": [{
                  "downStreamDefaultValue": true,
                  "code": "376J00000X",
                  "enabled": true,
                  "value": "Homemaker",
                  "canonicalValue": false
               }
            ]
         }
      ],
      "type": "rdm/lookupTypes/App-LSCustomer360Taxonomy",
      "localizations": []
   }, {
      "startDate": 0,
      "code": "261Q00000X",
      "endDate": 0,
      "enabled": true,
      "tenantId": "{{rdmTenant}}",
      "parents": [],
      "sourceMappings": [{
            "source": "Reltio",
            "values": [{
                  "downStreamDefaultValue": true,
                  "code": "261Q00000X",
                  "enabled": true,
                  "value": "Clinic/Center",
                  "canonicalValue": true
               }
            ]
         }, {
            "source": "ReltioRDM",
            "values": [{
                  "downStreamDefaultValue": true,
                  "code": "261Q00000X",
                  "enabled": true,
                  "value": "Clinic/Center",
                  "canonicalValue": false
               }
            ]
         }
      ],
      "type": "rdm/lookupTypes/App-LSCustomer360Taxonomy",
      "localizations": []
   }, {
      "startDate": 0,
      "code": "2080P0204X",
      "endDate": 0,
      "enabled": true,
      "tenantId": "{{rdmTenant}}",
      "parents": [],
      "sourceMappings": [{
            "source": "Reltio",
            "values": [{
                  "downStreamDefaultValue": true,
                  "code": "2080P0204X",
                  "enabled": true,
                  "value": "Pediatrics-Pediatric Emergency Medicine",
                  "canonicalValue": true
               }
            ]
         }, {
            "source": "ReltioRDM",
            "values": [{
                  "downStreamDefaultValue": true,
                  "code": "2080P0204X",
                  "enabled": true,
                  "value": "Pediatrics-Pediatric Emergency Medicine",
                  "canonicalValue": false
               }
            ]
         }
      ],
      "type": "rdm/lookupTypes/App-LSCustomer360Taxonomy",
      "localizations": []
   }, {
      "startDate": 0,
      "code": "2084P2900X",
      "endDate": 0,
      "enabled": true,
      "tenantId": "{{rdmTenant}}",
      "parents": [],
      "sourceMappings": [{
            "source": "Reltio",
            "values": [{
                  "downStreamDefaultValue": true,
                  "code": "2084P2900X",
                  "enabled": true,
                  "value": "Psychiatry & Neurology-Pain Medicine",
                  "canonicalValue": true
               }
            ]
         }, {
            "source": "ReltioRDM",
            "values": [{
                  "downStreamDefaultValue": true,
                  "code": "2084P2900X",
                  "enabled": true,
                  "value": "Psychiatry & Neurology-Pain Medicine",
                  "canonicalValue": false
               }
            ]
         }
      ],
      "type": "rdm/lookupTypes/App-LSCustomer360Taxonomy",
      "localizations": []
   }, {
      "startDate": 0,
      "code": "207VX0000X",
      "endDate": 0,
      "enabled": true,
      "tenantId": "{{rdmTenant}}",
      "parents": [],
      "sourceMappings": [{
            "source": "Reltio",
            "values": [{
                  "downStreamDefaultValue": true,
                  "code": "207VX0000X",
                  "enabled": true,
                  "value": "Obstetrics & Gynecology-Obstetrics",
                  "canonicalValue": true
               }
            ]
         }, {
            "source": "ReltioRDM",
            "values": [{
                  "downStreamDefaultValue": true,
                  "code": "207VX0000X",
                  "enabled": true,
                  "value": "Obstetrics & Gynecology-Obstetrics",
                  "canonicalValue": false
               }
            ]
         }
      ],
      "type": "rdm/lookupTypes/App-LSCustomer360Taxonomy",
      "localizations": []
   }, {
      "startDate": 0,
      "code": "363LP0222X",
      "endDate": 0,
      "enabled": true,
      "tenantId": "{{rdmTenant}}",
      "parents": [],
      "sourceMappings": [{
            "source": "Reltio",
            "values": [{
                  "downStreamDefaultValue": true,
                  "code": "363LP0222X",
                  "enabled": true,
                  "value": "Nurse Practitioner-Pediatrics, Critical Care",
                  "canonicalValue": true
               }
            ]
         }, {
            "source": "ReltioRDM",
            "values": [{
                  "downStreamDefaultValue": true,
                  "code": "363LP0222X",
                  "enabled": true,
                  "value": "Nurse Practitioner-Pediatrics, Critical Care",
                  "canonicalValue": false
               }
            ]
         }
      ],
      "type": "rdm/lookupTypes/App-LSCustomer360Taxonomy",
      "localizations": []
   }, {
      "startDate": 0,
      "code": "111NR0200X",
      "endDate": 0,
      "enabled": true,
      "tenantId": "{{rdmTenant}}",
      "parents": [],
      "sourceMappings": [{
            "source": "Reltio",
            "values": [{
                  "downStreamDefaultValue": true,
                  "code": "111NR0200X",
                  "enabled": true,
                  "value": "Chiropractor-Radiology",
                  "canonicalValue": true
               }
            ]
         }, {
            "source": "ReltioRDM",
            "values": [{
                  "downStreamDefaultValue": true,
                  "code": "111NR0200X",
                  "enabled": true,
                  "value": "Chiropractor-Radiology",
                  "canonicalValue": false
               }
            ]
         }
      ],
      "type": "rdm/lookupTypes/App-LSCustomer360Taxonomy",
      "localizations": []
   }, {
      "startDate": 0,
      "code": "207QH0002X",
      "endDate": 0,
      "enabled": true,
      "tenantId": "{{rdmTenant}}",
      "parents": [],
      "sourceMappings": [{
            "source": "Reltio",
            "values": [{
                  "downStreamDefaultValue": true,
                  "code": "207QH0002X",
                  "enabled": true,
                  "value": "Family Medicine-Hospice and Palliative Medicine",
                  "canonicalValue": true
               }
            ]
         }, {
            "source": "ReltioRDM",
            "values": [{
                  "downStreamDefaultValue": true,
                  "code": "207QH0002X",
                  "enabled": true,
                  "value": "Family Medicine-Hospice and Palliative Medicine",
                  "canonicalValue": false
               }
            ]
         }
      ],
      "type": "rdm/lookupTypes/App-LSCustomer360Taxonomy",
      "localizations": []
   }, {
      "startDate": 0,
      "code": "111NN0400X",
      "endDate": 0,
      "enabled": true,
      "tenantId": "{{rdmTenant}}",
      "parents": [],
      "sourceMappings": [{
            "source": "Reltio",
            "values": [{
                  "downStreamDefaultValue": true,
                  "code": "111NN0400X",
                  "enabled": true,
                  "value": "Chiropractor-Neurology",
                  "canonicalValue": true
               }
            ]
         }, {
            "source": "ReltioRDM",
            "values": [{
                  "downStreamDefaultValue": true,
                  "code": "111NN0400X",
                  "enabled": true,
                  "value": "Chiropractor-Neurology",
                  "canonicalValue": false
               }
            ]
         }
      ],
      "type": "rdm/lookupTypes/App-LSCustomer360Taxonomy",
      "localizations": []
   }, {
      "startDate": 0,
      "code": "224ZL0004X",
      "endDate": 0,
      "enabled": true,
      "tenantId": "{{rdmTenant}}",
      "parents": [],
      "sourceMappings": [{
            "source": "Reltio",
            "values": [{
                  "downStreamDefaultValue": true,
                  "code": "224ZL0004X",
                  "enabled": true,
                  "value": "Occupational Therapy Assistant-Low Vision",
                  "canonicalValue": true
               }
            ]
         }, {
            "source": "ReltioRDM",
            "values": [{
                  "downStreamDefaultValue": true,
                  "code": "224ZL0004X",
                  "enabled": true,
                  "value": "Occupational Therapy Assistant-Low Vision",
                  "canonicalValue": false
               }
            ]
         }
      ],
      "type": "rdm/lookupTypes/App-LSCustomer360Taxonomy",
      "localizations": []
   }, {
      "startDate": 0,
      "code": "261QM2800X",
      "endDate": 0,
      "enabled": true,
      "tenantId": "{{rdmTenant}}",
      "parents": [],
      "sourceMappings": [{
            "source": "Reltio",
            "values": [{
                  "downStreamDefaultValue": true,
                  "code": "261QM2800X",
                  "enabled": true,
                  "value": "Clinic/Center-Methadone Clinic",
                  "canonicalValue": true
               }
            ]
         }, {
            "source": "ReltioRDM",
            "values": [{
                  "downStreamDefaultValue": true,
                  "code": "261QM2800X",
                  "enabled": true,
                  "value": "Clinic/Center-Methadone Clinic",
                  "canonicalValue": false
               }
            ]
         }
      ],
      "type": "rdm/lookupTypes/App-LSCustomer360Taxonomy",
      "localizations": []
   }, {
      "startDate": 0,
      "code": "207RC0001X",
      "endDate": 0,
      "enabled": true,
      "tenantId": "{{rdmTenant}}",
      "parents": [],
      "sourceMappings": [{
            "source": "Reltio",
            "values": [{
                  "downStreamDefaultValue": true,
                  "code": "207RC0001X",
                  "enabled": true,
                  "value": "Internal Medicine-Clinical Cardiac Electrophysiology",
                  "canonicalValue": true
               }
            ]
         }, {
            "source": "ReltioRDM",
            "values": [{
                  "downStreamDefaultValue": true,
                  "code": "207RC0001X",
                  "enabled": true,
                  "value": "Internal Medicine-Clinical Cardiac Electrophysiology",
                  "canonicalValue": false
               }
            ]
         }
      ],
      "type": "rdm/lookupTypes/App-LSCustomer360Taxonomy",
      "localizations": []
   }, {
      "startDate": 0,
      "code": "246QC1000X",
      "endDate": 0,
      "enabled": true,
      "tenantId": "{{rdmTenant}}",
      "parents": [],
      "sourceMappings": [{
            "source": "Reltio",
            "values": [{
                  "downStreamDefaultValue": true,
                  "code": "246QC1000X",
                  "enabled": true,
                  "value": "Spec/Tech, Pathology-Chemistry",
                  "canonicalValue": true
               }
            ]
         }, {
            "source": "ReltioRDM",
            "values": [{
                  "downStreamDefaultValue": true,
                  "code": "246QC1000X",
                  "enabled": true,
                  "value": "Spec/Tech, Pathology-Chemistry",
                  "canonicalValue": false
               }
            ]
         }
      ],
      "type": "rdm/lookupTypes/App-LSCustomer360Taxonomy",
      "localizations": []
   }, {
      "startDate": 0,
      "code": "174N00000X",
      "endDate": 0,
      "enabled": true,
      "tenantId": "{{rdmTenant}}",
      "parents": [],
      "sourceMappings": [{
            "source": "Reltio",
            "values": [{
                  "downStreamDefaultValue": true,
                  "code": "174N00000X",
                  "enabled": true,
                  "value": "Lactation Consultant, Non-RN",
                  "canonicalValue": true
               }
            ]
         }, {
            "source": "ReltioRDM",
            "values": [{
                  "downStreamDefaultValue": true,
                  "code": "174N00000X",
                  "enabled": true,
                  "value": "Lactation Consultant, Non-RN",
                  "canonicalValue": false
               }
            ]
         }
      ],
      "type": "rdm/lookupTypes/App-LSCustomer360Taxonomy",
      "localizations": []
   }, {
      "startDate": 0,
      "code": "275N00000X",
      "endDate": 0,
      "enabled": true,
      "tenantId": "{{rdmTenant}}",
      "parents": [],
      "sourceMappings": [{
            "source": "Reltio",
            "values": [{
                  "downStreamDefaultValue": true,
                  "code": "275N00000X",
                  "enabled": true,
                  "value": "Medicare Defined Swing Bed Unit",
                  "canonicalValue": true
               }
            ]
         }, {
            "source": "ReltioRDM",
            "values": [{
                  "downStreamDefaultValue": true,
                  "code": "275N00000X",
                  "enabled": true,
                  "value": "Medicare Defined Swing Bed Unit",
                  "canonicalValue": false
               }
            ]
         }
      ],
      "type": "rdm/lookupTypes/App-LSCustomer360Taxonomy",
      "localizations": []
   }, {
      "startDate": 0,
      "code": "332900000X",
      "endDate": 0,
      "enabled": true,
      "tenantId": "{{rdmTenant}}",
      "parents": [],
      "sourceMappings": [{
            "source": "Reltio",
            "values": [{
                  "downStreamDefaultValue": true,
                  "code": "332900000X",
                  "enabled": true,
                  "value": "Non-Pharmacy Dispensing Site",
                  "canonicalValue": true
               }
            ]
         }, {
            "source": "ReltioRDM",
            "values": [{
                  "downStreamDefaultValue": true,
                  "code": "332900000X",
                  "enabled": true,
                  "value": "Non-Pharmacy Dispensing Site",
                  "canonicalValue": false
               }
            ]
         }
      ],
      "type": "rdm/lookupTypes/App-LSCustomer360Taxonomy",
      "localizations": []
   }, {
      "startDate": 0,
      "code": "247200000X",
      "endDate": 0,
      "enabled": true,
      "tenantId": "{{rdmTenant}}",
      "parents": [],
      "sourceMappings": [{
            "source": "Reltio",
            "values": [{
                  "downStreamDefaultValue": true,
                  "code": "247200000X",
                  "enabled": true,
                  "value": "Technician, Other",
                  "canonicalValue": true
               }
            ]
         }, {
            "source": "ReltioRDM",
            "values": [{
                  "downStreamDefaultValue": true,
                  "code": "247200000X",
                  "enabled": true,
                  "value": "Technician, Other",
                  "canonicalValue": false
               }
            ]
         }
      ],
      "type": "rdm/lookupTypes/App-LSCustomer360Taxonomy",
      "localizations": []
   }, {
      "startDate": 0,
      "code": "2472R0900X",
      "endDate": 0,
      "enabled": true,
      "tenantId": "{{rdmTenant}}",
      "parents": [],
      "sourceMappings": [{
            "source": "Reltio",
            "values": [{
                  "downStreamDefaultValue": true,
                  "code": "2472R0900X",
                  "enabled": true,
                  "value": "Technician, Other-Renal Dialysis",
                  "canonicalValue": true
               }
            ]
         }, {
            "source": "ReltioRDM",
            "values": [{
                  "downStreamDefaultValue": true,
                  "code": "2472R0900X",
                  "enabled": true,
                  "value": "Technician, Other-Renal Dialysis",
                  "canonicalValue": false
               }
            ]
         }
      ],
      "type": "rdm/lookupTypes/App-LSCustomer360Taxonomy",
      "localizations": []
   }, {
      "startDate": 0,
      "code": "311500000X",
      "endDate": 0,
      "enabled": true,
      "tenantId": "{{rdmTenant}}",
      "parents": [],
      "sourceMappings": [{
            "source": "Reltio",
            "values": [{
                  "downStreamDefaultValue": true,
                  "code": "311500000X",
                  "enabled": true,
                  "value": "Alzheimer Center (Dementia Center)",
                  "canonicalValue": true
               }
            ]
         }, {
            "source": "ReltioRDM",
            "values": [{
                  "downStreamDefaultValue": true,
                  "code": "311500000X",
                  "enabled": true,
                  "value": "Alzheimer Center (Dementia Center)",
                  "canonicalValue": false
               }
            ]
         }
      ],
      "type": "rdm/lookupTypes/App-LSCustomer360Taxonomy",
      "localizations": []
   }, {
      "startDate": 0,
      "code": "207SG0202X",
      "endDate": 0,
      "enabled": true,
      "tenantId": "{{rdmTenant}}",
      "parents": [],
      "sourceMappings": [{
            "source": "Reltio",
            "values": [{
                  "downStreamDefaultValue": true,
                  "code": "207SG0202X",
                  "enabled": true,
                  "value": "Medical Genetics-Clinical Biochemical Genetics",
                  "canonicalValue": true
               }
            ]
         }, {
            "source": "ReltioRDM",
            "values": [{
                  "downStreamDefaultValue": true,
                  "code": "207SG0202X",
                  "enabled": true,
                  "value": "Medical Genetics-Clinical Biochemical Genetics",
                  "canonicalValue": false
               }
            ]
         }
      ],
      "type": "rdm/lookupTypes/App-LSCustomer360Taxonomy",
      "localizations": []
   }, {
      "startDate": 0,
      "code": "2084P0804X",
      "endDate": 0,
      "enabled": true,
      "tenantId": "{{rdmTenant}}",
      "parents": [],
      "sourceMappings": [{
            "source": "Reltio",
            "values": [{
                  "downStreamDefaultValue": true,
                  "code": "2084P0804X",
                  "enabled": true,
                  "value": "Psychiatry & Neurology-Child & Adolescent Psychiatry",
                  "canonicalValue": true
               }
            ]
         }, {
            "source": "ReltioRDM",
            "values": [{
                  "downStreamDefaultValue": true,
                  "code": "2084P0804X",
                  "enabled": true,
                  "value": "Psychiatry & Neurology-Child & Adolescent Psychiatry",
                  "canonicalValue": false
               }
            ]
         }
      ],
      "type": "rdm/lookupTypes/App-LSCustomer360Taxonomy",
      "localizations": []
   }, {
      "startDate": 0,
      "code": "1223D0001X",
      "endDate": 0,
      "enabled": true,
      "tenantId": "{{rdmTenant}}",
      "parents": [],
      "sourceMappings": [{
            "source": "Reltio",
            "values": [{
                  "downStreamDefaultValue": true,
                  "code": "1223D0001X",
                  "enabled": true,
                  "value": "Dentist-Dental Public Health",
                  "canonicalValue": true
               }
            ]
         }, {
            "source": "ReltioRDM",
            "values": [{
                  "downStreamDefaultValue": true,
                  "code": "1223D0001X",
                  "enabled": true,
                  "value": "Dentist-Dental Public Health",
                  "canonicalValue": false
               }
            ]
         }
      ],
      "type": "rdm/lookupTypes/App-LSCustomer360Taxonomy",
      "localizations": []
   }, {
      "startDate": 0,
      "code": "2081S0010X",
      "endDate": 0,
      "enabled": true,
      "tenantId": "{{rdmTenant}}",
      "parents": [],
      "sourceMappings": [{
            "source": "Reltio",
            "values": [{
                  "downStreamDefaultValue": true,
                  "code": "2081S0010X",
                  "enabled": true,
                  "value": "Physical Medicine & Rehabilitation-Sports Medicine",
                  "canonicalValue": true
               }
            ]
         }, {
            "source": "ReltioRDM",
            "values": [{
                  "downStreamDefaultValue": true,
                  "code": "2081S0010X",
                  "enabled": true,
                  "value": "Physical Medicine & Rehabilitation-Sports Medicine",
                  "canonicalValue": false
               }
            ]
         }
      ],
      "type": "rdm/lookupTypes/App-LSCustomer360Taxonomy",
      "localizations": []
   }, {
      "startDate": 0,
      "code": "163WD1100X",
      "endDate": 0,
      "enabled": true,
      "tenantId": "{{rdmTenant}}",
      "parents": [],
      "sourceMappings": [{
            "source": "Reltio",
            "values": [{
                  "downStreamDefaultValue": true,
                  "code": "163WD1100X",
                  "enabled": true,
                  "value": "Registered Nurse-Dialysis, Peritoneal",
                  "canonicalValue": true
               }
            ]
         }, {
            "source": "ReltioRDM",
            "values": [{
                  "downStreamDefaultValue": true,
                  "code": "163WD1100X",
                  "enabled": true,
                  "value": "Registered Nurse-Dialysis, Peritoneal",
                  "canonicalValue": false
               }
            ]
         }
      ],
      "type": "rdm/lookupTypes/App-LSCustomer360Taxonomy",
      "localizations": []
   }, {
      "startDate": 0,
      "code": "225CX0006X",
      "endDate": 0,
      "enabled": true,
      "tenantId": "{{rdmTenant}}",
      "parents": [],
      "sourceMappings": [{
            "source": "Reltio",
            "values": [{
                  "downStreamDefaultValue": true,
                  "code": "225CX0006X",
                  "enabled": true,
                  "value": "Rehabilitation Counselor-Orientation and Mobility Training Provider",
                  "canonicalValue": true
               }
            ]
         }, {
            "source": "ReltioRDM",
            "values": [{
                  "downStreamDefaultValue": true,
                  "code": "225CX0006X",
                  "enabled": true,
                  "value": "Rehabilitation Counselor-Orientation and Mobility Training Provider",
                  "canonicalValue": false
               }
            ]
         }
      ],
      "type": "rdm/lookupTypes/App-LSCustomer360Taxonomy",
      "localizations": []
   }, {
      "startDate": 0,
      "code": "261QM1200X",
      "endDate": 0,
      "enabled": true,
      "tenantId": "{{rdmTenant}}",
      "parents": [],
      "sourceMappings": [{
            "source": "Reltio",
            "values": [{
                  "downStreamDefaultValue": true,
                  "code": "261QM1200X",
                  "enabled": true,
                  "value": "Clinic/Center-Magnetic Resonance Imaging (MRI)",
                  "canonicalValue": true
               }
            ]
         }, {
            "source": "ReltioRDM",
            "values": [{
                  "downStreamDefaultValue": true,
                  "code": "261QM1200X",
                  "enabled": true,
                  "value": "Clinic/Center-Magnetic Resonance Imaging (MRI)",
                  "canonicalValue": false
               }
            ]
         }
      ],
      "type": "rdm/lookupTypes/App-LSCustomer360Taxonomy",
      "localizations": []
   }, {
      "startDate": 0,
      "code": "246ZI1000X",
      "endDate": 0,
      "enabled": true,
      "tenantId": "{{rdmTenant}}",
      "parents": [],
      "sourceMappings": [{
            "source": "Reltio",
            "values": [{
                  "downStreamDefaultValue": true,
                  "code": "246ZI1000X",
                  "enabled": true,
                  "value": "Specialist/Technologist, Other-Illustration, Medical",
                  "canonicalValue": true
               }
            ]
         }, {
            "source": "ReltioRDM",
            "values": [{
                  "downStreamDefaultValue": true,
                  "code": "246ZI1000X",
                  "enabled": true,
                  "value": "Specialist/Technologist, Other-Illustration, Medical",
                  "canonicalValue": false
               }
            ]
         }
      ],
      "type": "rdm/lookupTypes/App-LSCustomer360Taxonomy",
      "localizations": []
   }, {
      "startDate": 0,
      "code": "220000000X",
      "endDate": 0,
      "enabled": true,
      "tenantId": "{{rdmTenant}}",
      "parents": [],
      "sourceMappings": [{
            "source": "Reltio",
            "values": [{
                  "downStreamDefaultValue": true,
                  "code": "220000000X",
                  "enabled": true,
                  "value": "Respiratory, Developmental, Rehabilitative and Restorative Service Providers",
                  "canonicalValue": true
               }
            ]
         }, {
            "source": "ReltioRDM",
            "values": [{
                  "downStreamDefaultValue": true,
                  "code": "220000000X",
                  "enabled": true,
                  "value": "Respiratory, Developmental, Rehabilitative and Restorative Service Providers",
                  "canonicalValue": false
               }
            ]
         }
      ],
      "type": "rdm/lookupTypes/App-LSCustomer360Taxonomy",
      "localizations": []
   }, {
      "startDate": 0,
      "code": "175F00000X",
      "endDate": 0,
      "enabled": true,
      "tenantId": "{{rdmTenant}}",
      "parents": [],
      "sourceMappings": [{
            "source": "Reltio",
            "values": [{
                  "downStreamDefaultValue": true,
                  "code": "175F00000X",
                  "enabled": true,
                  "value": "Naturopath",
                  "canonicalValue": true
               }
            ]
         }, {
            "source": "ReltioRDM",
            "values": [{
                  "downStreamDefaultValue": true,
                  "code": "175F00000X",
                  "enabled": true,
                  "value": "Naturopath",
                  "canonicalValue": false
               }
            ]
         }
      ],
      "type": "rdm/lookupTypes/App-LSCustomer360Taxonomy",
      "localizations": []
   }, {
      "startDate": 0,
      "code": "163WS0121X",
      "endDate": 0,
      "enabled": true,
      "tenantId": "{{rdmTenant}}",
      "parents": [],
      "sourceMappings": [{
            "source": "Reltio",
            "values": [{
                  "downStreamDefaultValue": true,
                  "code": "163WS0121X",
                  "enabled": true,
                  "value": "Registered Nurse-Plastic Surgery",
                  "canonicalValue": true
               }
            ]
         }, {
            "source": "ReltioRDM",
            "values": [{
                  "downStreamDefaultValue": true,
                  "code": "163WS0121X",
                  "enabled": true,
                  "value": "Registered Nurse-Plastic Surgery",
                  "canonicalValue": false
               }
            ]
         }
      ],
      "type": "rdm/lookupTypes/App-LSCustomer360Taxonomy",
      "localizations": []
   }, {
      "startDate": 0,
      "code": "103TC1900X",
      "endDate": 0,
      "enabled": true,
      "tenantId": "{{rdmTenant}}",
      "parents": [],
      "sourceMappings": [{
            "source": "Reltio",
            "values": [{
                  "downStreamDefaultValue": true,
                  "code": "103TC1900X",
                  "enabled": true,
                  "value": "Psychologist-Counseling",
                  "canonicalValue": true
               }
            ]
         }, {
            "source": "ReltioRDM",
            "values": [{
                  "downStreamDefaultValue": true,
                  "code": "103TC1900X",
                  "enabled": true,
                  "value": "Psychologist-Counseling",
                  "canonicalValue": false
               }
            ]
         }
      ],
      "type": "rdm/lookupTypes/App-LSCustomer360Taxonomy",
      "localizations": []
   }, {
      "startDate": 0,
      "code": "2472D0500X",
      "endDate": 0,
      "enabled": true,
      "tenantId": "{{rdmTenant}}",
      "parents": [],
      "sourceMappings": [{
            "source": "Reltio",
            "values": [{
                  "downStreamDefaultValue": true,
                  "code": "2472D0500X",
                  "enabled": true,
                  "value": "Technician, Other-Darkroom",
                  "canonicalValue": true
               }
            ]
         }, {
            "source": "ReltioRDM",
            "values": [{
                  "downStreamDefaultValue": true,
                  "code": "2472D0500X",
                  "enabled": true,
                  "value": "Technician, Other-Darkroom",
                  "canonicalValue": false
               }
            ]
         }
      ],
      "type": "rdm/lookupTypes/App-LSCustomer360Taxonomy",
      "localizations": []
   }, {
      "startDate": 0,
      "code": "313M00000X",
      "endDate": 0,
      "enabled": true,
      "tenantId": "{{rdmTenant}}",
      "parents": [],
      "sourceMappings": [{
            "source": "Reltio",
            "values": [{
                  "downStreamDefaultValue": true,
                  "code": "313M00000X",
                  "enabled": true,
                  "value": "Nursing Facility/Intermediate Care Facility",
                  "canonicalValue": true
               }
            ]
         }, {
            "source": "ReltioRDM",
            "values": [{
                  "downStreamDefaultValue": true,
                  "code": "313M00000X",
                  "enabled": true,
                  "value": "Nursing Facility/Intermediate Care Facility",
                  "canonicalValue": false
               }
            ]
         }
      ],
      "type": "rdm/lookupTypes/App-LSCustomer360Taxonomy",
      "localizations": []
   }, {
      "startDate": 0,
      "code": "390200000X",
      "endDate": 0,
      "enabled": true,
      "tenantId": "{{rdmTenant}}",
      "parents": [],
      "sourceMappings": [{
            "source": "Reltio",
            "values": [{
                  "downStreamDefaultValue": true,
                  "code": "390200000X",
                  "enabled": true,
                  "value": "Student in an Organized Health Care Education/Training Program",
                  "canonicalValue": true
               }
            ]
         }, {
            "source": "ReltioRDM",
            "values": [{
                  "downStreamDefaultValue": true,
                  "code": "390200000X",
                  "enabled": true,
                  "value": "Student in an Organized Health Care Education/Training Program",
                  "canonicalValue": false
               }
            ]
         }
      ],
      "type": "rdm/lookupTypes/App-LSCustomer360Taxonomy",
      "localizations": []
   }, {
      "startDate": 0,
      "code": "2471C1101X",
      "endDate": 0,
      "enabled": true,
      "tenantId": "{{rdmTenant}}",
      "parents": [],
      "sourceMappings": [{
            "source": "Reltio",
            "values": [{
                  "downStreamDefaultValue": true,
                  "code": "2471C1101X",
                  "enabled": true,
                  "value": "Radiologic Technologist-Cardiovascular-Interventional Technology",
                  "canonicalValue": true
               }
            ]
         }, {
            "source": "ReltioRDM",
            "values": [{
                  "downStreamDefaultValue": true,
                  "code": "2471C1101X",
                  "enabled": true,
                  "value": "Radiologic Technologist-Cardiovascular-Interventional Technology",
                  "canonicalValue": false
               }
            ]
         }
      ],
      "type": "rdm/lookupTypes/App-LSCustomer360Taxonomy",
      "localizations": []
   }, {
      "startDate": 0,
      "code": "163WR0006X",
      "endDate": 0,
      "enabled": true,
      "tenantId": "{{rdmTenant}}",
      "parents": [],
      "sourceMappings": [{
            "source": "Reltio",
            "values": [{
                  "downStreamDefaultValue": true,
                  "code": "163WR0006X",
                  "enabled": true,
                  "value": "Registered Nurse-Registered Nurse First Assistant",
                  "canonicalValue": true
               }
            ]
         }, {
            "source": "ReltioRDM",
            "values": [{
                  "downStreamDefaultValue": true,
                  "code": "163WR0006X",
                  "enabled": true,
                  "value": "Registered Nurse-Registered Nurse First Assistant",
                  "canonicalValue": false
               }
            ]
         }
      ],
      "type": "rdm/lookupTypes/App-LSCustomer360Taxonomy",
      "localizations": []
   }, {
      "startDate": 0,
      "code": "246ZG1000X",
      "endDate": 0,
      "enabled": true,
      "tenantId": "{{rdmTenant}}",
      "parents": [],
      "sourceMappings": [{
            "source": "Reltio",
            "values": [{
                  "downStreamDefaultValue": true,
                  "code": "246ZG1000X",
                  "enabled": true,
                  "value": "Specialist/Technologist, Other-Geneticist, Medical (PhD)",
                  "canonicalValue": true
               }
            ]
         }, {
            "source": "ReltioRDM",
            "values": [{
                  "downStreamDefaultValue": true,
                  "code": "246ZG1000X",
                  "enabled": true,
                  "value": "Specialist/Technologist, Other-Geneticist, Medical (PhD)",
                  "canonicalValue": false
               }
            ]
         }
      ],
      "type": "rdm/lookupTypes/App-LSCustomer360Taxonomy",
      "localizations": []
   }, {
      "startDate": 0,
      "code": "208M00000X",
      "endDate": 0,
      "enabled": true,
      "tenantId": "{{rdmTenant}}",
      "parents": [],
      "sourceMappings": [{
            "source": "Reltio",
            "values": [{
                  "downStreamDefaultValue": true,
                  "code": "208M00000X",
                  "enabled": true,
                  "value": "Hospitalist",
                  "canonicalValue": true
               }
            ]
         }, {
            "source": "ReltioRDM",
            "values": [{
                  "downStreamDefaultValue": true,
                  "code": "208M00000X",
                  "enabled": true,
                  "value": "Hospitalist",
                  "canonicalValue": false
               }
            ]
         }
      ],
      "type": "rdm/lookupTypes/App-LSCustomer360Taxonomy",
      "localizations": []
   }, {
      "startDate": 0,
      "code": "163WG0600X",
      "endDate": 0,
      "enabled": true,
      "tenantId": "{{rdmTenant}}",
      "parents": [],
      "sourceMappings": [{
            "source": "Reltio",
            "values": [{
                  "downStreamDefaultValue": true,
                  "code": "163WG0600X",
                  "enabled": true,
                  "value": "Registered Nurse-Gerontology",
                  "canonicalValue": true
               }
            ]
         }, {
            "source": "ReltioRDM",
            "values": [{
                  "downStreamDefaultValue": true,
                  "code": "163WG0600X",
                  "enabled": true,
                  "value": "Registered Nurse-Gerontology",
                  "canonicalValue": false
               }
            ]
         }
      ],
      "type": "rdm/lookupTypes/App-LSCustomer360Taxonomy",
      "localizations": []
   }, {
      "startDate": 0,
      "code": "364SE0003X",
      "endDate": 0,
      "enabled": true,
      "tenantId": "{{rdmTenant}}",
      "parents": [],
      "sourceMappings": [{
            "source": "Reltio",
            "values": [{
                  "downStreamDefaultValue": true,
                  "code": "364SE0003X",
                  "enabled": true,
                  "value": "Clinical Nurse Specialist-Emergency",
                  "canonicalValue": true
               }
            ]
         }, {
            "source": "ReltioRDM",
            "values": [{
                  "downStreamDefaultValue": true,
                  "code": "364SE0003X",
                  "enabled": true,
                  "value": "Clinical Nurse Specialist-Emergency",
                  "canonicalValue": false
               }
            ]
         }
      ],
      "type": "rdm/lookupTypes/App-LSCustomer360Taxonomy",
      "localizations": []
   }, {
      "startDate": 0,
      "code": "251300000X",
      "endDate": 0,
      "enabled": true,
      "tenantId": "{{rdmTenant}}",
      "parents": [],
      "sourceMappings": [{
            "source": "Reltio",
            "values": [{
                  "downStreamDefaultValue": true,
                  "code": "251300000X",
                  "enabled": true,
                  "value": "Local Education Agency (LEA)",
                  "canonicalValue": true
               }
            ]
         }, {
            "source": "ReltioRDM",
            "values": [{
                  "downStreamDefaultValue": true,
                  "code": "251300000X",
                  "enabled": true,
                  "value": "Local Education Agency (LEA)",
                  "canonicalValue": false
               }
            ]
         }
      ],
      "type": "rdm/lookupTypes/App-LSCustomer360Taxonomy",
      "localizations": []
   }, {
      "startDate": 0,
      "code": "364SP0811X",
      "endDate": 0,
      "enabled": true,
      "tenantId": "{{rdmTenant}}",
      "parents": [],
      "sourceMappings": [{
            "source": "Reltio",
            "values": [{
                  "downStreamDefaultValue": true,
                  "code": "364SP0811X",
                  "enabled": true,
                  "value": "Clinical Nurse Specialist-Psych/Mental Health, Chronically Ill",
                  "canonicalValue": true
               }
            ]
         }, {
            "source": "ReltioRDM",
            "values": [{
                  "downStreamDefaultValue": true,
                  "code": "364SP0811X",
                  "enabled": true,
                  "value": "Clinical Nurse Specialist-Psych/Mental Health, Chronically Ill",
                  "canonicalValue": false
               }
            ]
         }
      ],
      "type": "rdm/lookupTypes/App-LSCustomer360Taxonomy",
      "localizations": []
   }, {
      "startDate": 0,
      "code": "2279P3800X",
      "endDate": 0,
      "enabled": true,
      "tenantId": "{{rdmTenant}}",
      "parents": [],
      "sourceMappings": [{
            "source": "Reltio",
            "values": [{
                  "downStreamDefaultValue": true,
                  "code": "2279P3800X",
                  "enabled": true,
                  "value": "Respiratory Therapist, Registered-Palliative/Hospice",
                  "canonicalValue": true
               }
            ]
         }, {
            "source": "ReltioRDM",
            "values": [{
                  "downStreamDefaultValue": true,
                  "code": "2279P3800X",
                  "enabled": true,
                  "value": "Respiratory Therapist, Registered-Palliative/Hospice",
                  "canonicalValue": false
               }
            ]
         }
      ],
      "type": "rdm/lookupTypes/App-LSCustomer360Taxonomy",
      "localizations": []
   }, {
      "startDate": 0,
      "code": "103TB0200X",
      "endDate": 0,
      "enabled": true,
      "tenantId": "{{rdmTenant}}",
      "parents": [],
      "sourceMappings": [{
            "source": "Reltio",
            "values": [{
                  "downStreamDefaultValue": true,
                  "code": "103TB0200X",
                  "enabled": true,
                  "value": "Psychologist-Cognitive & Behavioral",
                  "canonicalValue": true
               }
            ]
         }, {
            "source": "ReltioRDM",
            "values": [{
                  "downStreamDefaultValue": true,
                  "code": "103TB0200X",
                  "enabled": true,
                  "value": "Psychologist-Cognitive & Behavioral",
                  "canonicalValue": false
               }
            ]
         }
      ],
      "type": "rdm/lookupTypes/App-LSCustomer360Taxonomy",
      "localizations": []
   }, {
      "startDate": 0,
      "code": "207ZM0300X",
      "endDate": 0,
      "enabled": true,
      "tenantId": "{{rdmTenant}}",
      "parents": [],
      "sourceMappings": [{
            "source": "Reltio",
            "values": [{
                  "downStreamDefaultValue": true,
                  "code": "207ZM0300X",
                  "enabled": true,
                  "value": "Pathology-Medical Microbiology",
                  "canonicalValue": true
               }
            ]
         }, {
            "source": "ReltioRDM",
            "values": [{
                  "downStreamDefaultValue": true,
                  "code": "207ZM0300X",
                  "enabled": true,
                  "value": "Pathology-Medical Microbiology",
                  "canonicalValue": false
               }
            ]
         }
      ],
      "type": "rdm/lookupTypes/App-LSCustomer360Taxonomy",
      "localizations": []
   }, {
      "startDate": 0,
      "code": "213ER0200X",
      "endDate": 0,
      "enabled": true,
      "tenantId": "{{rdmTenant}}",
      "parents": [],
      "sourceMappings": [{
            "source": "Reltio",
            "values": [{
                  "downStreamDefaultValue": true,
                  "code": "213ER0200X",
                  "enabled": true,
                  "value": "Podiatrist-Radiology",
                  "canonicalValue": true
               }
            ]
         }, {
            "source": "ReltioRDM",
            "values": [{
                  "downStreamDefaultValue": true,
                  "code": "213ER0200X",
                  "enabled": true,
                  "value": "Podiatrist-Radiology",
                  "canonicalValue": false
               }
            ]
         }
      ],
      "type": "rdm/lookupTypes/App-LSCustomer360Taxonomy",
      "localizations": []
   }, {
      "startDate": 0,
      "code": "332100000X",
      "endDate": 0,
      "enabled": true,
      "tenantId": "{{rdmTenant}}",
      "parents": [],
      "sourceMappings": [{
            "source": "Reltio",
            "values": [{
                  "downStreamDefaultValue": true,
                  "code": "332100000X",
                  "enabled": true,
                  "value": "Department of Veterans Affairs (VA) Pharmacy",
                  "canonicalValue": true
               }
            ]
         }, {
            "source": "ReltioRDM",
            "values": [{
                  "downStreamDefaultValue": true,
                  "code": "332100000X",
                  "enabled": true,
                  "value": "Department of Veterans Affairs (VA) Pharmacy",
                  "canonicalValue": false
               }
            ]
         }
      ],
      "type": "rdm/lookupTypes/App-LSCustomer360Taxonomy",
      "localizations": []
   }, {
      "startDate": 0,
      "code": "273R00000X",
      "endDate": 0,
      "enabled": true,
      "tenantId": "{{rdmTenant}}",
      "parents": [],
      "sourceMappings": [{
            "source": "Reltio",
            "values": [{
                  "downStreamDefaultValue": true,
                  "code": "273R00000X",
                  "enabled": true,
                  "value": "Psychiatric Unit",
                  "canonicalValue": true
               }
            ]
         }, {
            "source": "ReltioRDM",
            "values": [{
                  "downStreamDefaultValue": true,
                  "code": "273R00000X",
                  "enabled": true,
                  "value": "Psychiatric Unit",
                  "canonicalValue": false
               }
            ]
         }
      ],
      "type": "rdm/lookupTypes/App-LSCustomer360Taxonomy",
      "localizations": []
   }, {
      "startDate": 0,
      "code": "2085R0001X",
      "endDate": 0,
      "enabled": true,
      "tenantId": "{{rdmTenant}}",
      "parents": [],
      "sourceMappings": [{
            "source": "Reltio",
            "values": [{
                  "downStreamDefaultValue": true,
                  "code": "2085R0001X",
                  "enabled": true,
                  "value": "Radiology-Radiation Oncology",
                  "canonicalValue": true
               }
            ]
         }, {
            "source": "ReltioRDM",
            "values": [{
                  "downStreamDefaultValue": true,
                  "code": "2085R0001X",
                  "enabled": true,
                  "value": "Radiology-Radiation Oncology",
                  "canonicalValue": false
               }
            ]
         }
      ],
      "type": "rdm/lookupTypes/App-LSCustomer360Taxonomy",
      "localizations": []
   }, {
      "startDate": 0,
      "code": "163WA0400X",
      "endDate": 0,
      "enabled": true,
      "tenantId": "{{rdmTenant}}",
      "parents": [],
      "sourceMappings": [{
            "source": "Reltio",
            "values": [{
                  "downStreamDefaultValue": true,
                  "code": "163WA0400X",
                  "enabled": true,
                  "value": "Registered Nurse-Addiction (Substance Use Disorder)",
                  "canonicalValue": true
               }
            ]
         }, {
            "source": "ReltioRDM",
            "values": [{
                  "downStreamDefaultValue": true,
                  "code": "163WA0400X",
                  "enabled": true,
                  "value": "Registered Nurse-Addiction (Substance Use Disorder)",
                  "canonicalValue": false
               }
            ]
         }
      ],
      "type": "rdm/lookupTypes/App-LSCustomer360Taxonomy",
      "localizations": []
   }, {
      "startDate": 0,
      "code": "103GC0700X",
      "endDate": 0,
      "enabled": true,
      "tenantId": "{{rdmTenant}}",
      "parents": [],
      "sourceMappings": [{
            "source": "Reltio",
            "values": [{
                  "downStreamDefaultValue": true,
                  "code": "103GC0700X",
                  "enabled": true,
                  "value": "Clinical Neuropsychologist-Clinical",
                  "canonicalValue": true
               }
            ]
         }, {
            "source": "ReltioRDM",
            "values": [{
                  "downStreamDefaultValue": true,
                  "code": "103GC0700X",
                  "enabled": true,
                  "value": "Clinical Neuropsychologist-Clinical",
                  "canonicalValue": false
               }
            ]
         }
      ],
      "type": "rdm/lookupTypes/App-LSCustomer360Taxonomy",
      "localizations": []
   }, {
      "startDate": 0,
      "code": "207KI0005X",
      "endDate": 0,
      "enabled": true,
      "tenantId": "{{rdmTenant}}",
      "parents": [],
      "sourceMappings": [{
            "source": "Reltio",
            "values": [{
                  "downStreamDefaultValue": true,
                  "code": "207KI0005X",
                  "enabled": true,
                  "value": "Allergy & Immunology-Clinical & Laboratory Immunology",
                  "canonicalValue": true
               }
            ]
         }, {
            "source": "ReltioRDM",
            "values": [{
                  "downStreamDefaultValue": true,
                  "code": "207KI0005X",
                  "enabled": true,
                  "value": "Allergy & Immunology-Clinical & Laboratory Immunology",
                  "canonicalValue": false
               }
            ]
         }
      ],
      "type": "rdm/lookupTypes/App-LSCustomer360Taxonomy",
      "localizations": []
   }, {
      "startDate": 0,
      "code": "2472B0301X",
      "endDate": 0,
      "enabled": true,
      "tenantId": "{{rdmTenant}}",
      "parents": [],
      "sourceMappings": [{
            "source": "Reltio",
            "values": [{
                  "downStreamDefaultValue": true,
                  "code": "2472B0301X",
                  "enabled": true,
                  "value": "Technician, Other-Biomedical Engineering",
                  "canonicalValue": true
               }
            ]
         }, {
            "source": "ReltioRDM",
            "values": [{
                  "downStreamDefaultValue": true,
                  "code": "2472B0301X",
                  "enabled": true,
                  "value": "Technician, Other-Biomedical Engineering",
                  "canonicalValue": false
               }
            ]
         }
      ],
      "type": "rdm/lookupTypes/App-LSCustomer360Taxonomy",
      "localizations": []
   }, {
      "startDate": 0,
      "code": "2080P0201X",
      "endDate": 0,
      "enabled": true,
      "tenantId": "{{rdmTenant}}",
      "parents": [],
      "sourceMappings": [{
            "source": "Reltio",
            "values": [{
                  "downStreamDefaultValue": true,
                  "code": "2080P0201X",
                  "enabled": true,
                  "value": "Pediatrics-Pediatric Allergy/Immunology",
                  "canonicalValue": true
               }
            ]
         }, {
            "source": "ReltioRDM",
            "values": [{
                  "downStreamDefaultValue": true,
                  "code": "2080P0201X",
                  "enabled": true,
                  "value": "Pediatrics-Pediatric Allergy/Immunology",
                  "canonicalValue": false
               }
            ]
         }
      ],
      "type": "rdm/lookupTypes/App-LSCustomer360Taxonomy",
      "localizations": []
   }, {
      "startDate": 0,
      "code": "163WC1600X",
      "endDate": 0,
      "enabled": true,
      "tenantId": "{{rdmTenant}}",
      "parents": [],
      "sourceMappings": [{
            "source": "Reltio",
            "values": [{
                  "downStreamDefaultValue": true,
                  "code": "163WC1600X",
                  "enabled": true,
                  "value": "Registered Nurse-Continuing Education/Staff Development",
                  "canonicalValue": true
               }
            ]
         }, {
            "source": "ReltioRDM",
            "values": [{
                  "downStreamDefaultValue": true,
                  "code": "163WC1600X",
                  "enabled": true,
                  "value": "Registered Nurse-Continuing Education/Staff Development",
                  "canonicalValue": false
               }
            ]
         }
      ],
      "type": "rdm/lookupTypes/App-LSCustomer360Taxonomy",
      "localizations": []
   }, {
      "startDate": 0,
      "code": "174V00000X",
      "endDate": 0,
      "enabled": true,
      "tenantId": "{{rdmTenant}}",
      "parents": [],
      "sourceMappings": [{
            "source": "Reltio",
            "values": [{
                  "downStreamDefaultValue": true,
                  "code": "174V00000X",
                  "enabled": true,
                  "value": "Clinical Ethicist",
                  "canonicalValue": true
               }
            ]
         }, {
            "source": "ReltioRDM",
            "values": [{
                  "downStreamDefaultValue": true,
                  "code": "174V00000X",
                  "enabled": true,
                  "value": "Clinical Ethicist",
                  "canonicalValue": false
               }
            ]
         }
      ],
      "type": "rdm/lookupTypes/App-LSCustomer360Taxonomy",
      "localizations": []
   }, {
      "startDate": 0,
      "code": "111NX0100X",
      "endDate": 0,
      "enabled": true,
      "tenantId": "{{rdmTenant}}",
      "parents": [],
      "sourceMappings": [{
            "source": "Reltio",
            "values": [{
                  "downStreamDefaultValue": true,
                  "code": "111NX0100X",
                  "enabled": true,
                  "value": "Chiropractor-Occupational Health",
                  "canonicalValue": true
               }
            ]
         }, {
            "source": "ReltioRDM",
            "values": [{
                  "downStreamDefaultValue": true,
                  "code": "111NX0100X",
                  "enabled": true,
                  "value": "Chiropractor-Occupational Health",
                  "canonicalValue": false
               }
            ]
         }
      ],
      "type": "rdm/lookupTypes/App-LSCustomer360Taxonomy",
      "localizations": []
   }, {
      "startDate": 0,
      "code": "261QM2500X",
      "endDate": 0,
      "enabled": true,
      "tenantId": "{{rdmTenant}}",
      "parents": [],
      "sourceMappings": [{
            "source": "Reltio",
            "values": [{
                  "downStreamDefaultValue": true,
                  "code": "261QM2500X",
                  "enabled": true,
                  "value": "Clinic/Center-Medical Specialty",
                  "canonicalValue": true
               }
            ]
         }, {
            "source": "ReltioRDM",
            "values": [{
                  "downStreamDefaultValue": true,
                  "code": "261QM2500X",
                  "enabled": true,
                  "value": "Clinic/Center-Medical Specialty",
                  "canonicalValue": false
               }
            ]
         }
      ],
      "type": "rdm/lookupTypes/App-LSCustomer360Taxonomy",
      "localizations": []
   }, {
      "startDate": 0,
      "code": "207RG0100X",
      "endDate": 0,
      "enabled": true,
      "tenantId": "{{rdmTenant}}",
      "parents": [],
      "sourceMappings": [{
            "source": "Reltio",
            "values": [{
                  "downStreamDefaultValue": true,
                  "code": "207RG0100X",
                  "enabled": true,
                  "value": "Internal Medicine-Gastroenterology",
                  "canonicalValue": true
               }
            ]
         }, {
            "source": "ReltioRDM",
            "values": [{
                  "downStreamDefaultValue": true,
                  "code": "207RG0100X",
                  "enabled": true,
                  "value": "Internal Medicine-Gastroenterology",
                  "canonicalValue": false
               }
            ]
         }
      ],
      "type": "rdm/lookupTypes/App-LSCustomer360Taxonomy",
      "localizations": []
   }, {
      "startDate": 0,
      "code": "305R00000X",
      "endDate": 0,
      "enabled": true,
      "tenantId": "{{rdmTenant}}",
      "parents": [],
      "sourceMappings": [{
            "source": "Reltio",
            "values": [{
                  "downStreamDefaultValue": true,
                  "code": "305R00000X",
                  "enabled": true,
                  "value": "Preferred Provider Organization",
                  "canonicalValue": true
               }
            ]
         }, {
            "source": "ReltioRDM",
            "values": [{
                  "downStreamDefaultValue": true,
                  "code": "305R00000X",
                  "enabled": true,
                  "value": "Preferred Provider Organization",
                  "canonicalValue": false
               }
            ]
         }
      ],
      "type": "rdm/lookupTypes/App-LSCustomer360Taxonomy",
      "localizations": []
   }, {
      "startDate": 0,
      "code": "225700000X",
      "endDate": 0,
      "enabled": true,
      "tenantId": "{{rdmTenant}}",
      "parents": [],
      "sourceMappings": [{
            "source": "Reltio",
            "values": [{
                  "downStreamDefaultValue": true,
                  "code": "225700000X",
                  "enabled": true,
                  "value": "Massage Therapist",
                  "canonicalValue": true
               }
            ]
         }, {
            "source": "ReltioRDM",
            "values": [{
                  "downStreamDefaultValue": true,
                  "code": "225700000X",
                  "enabled": true,
                  "value": "Massage Therapist",
                  "canonicalValue": false
               }
            ]
         }
      ],
      "type": "rdm/lookupTypes/App-LSCustomer360Taxonomy",
      "localizations": []
   }, {
      "startDate": 0,
      "code": "2471N0900X",
      "endDate": 0,
      "enabled": true,
      "tenantId": "{{rdmTenant}}",
      "parents": [],
      "sourceMappings": [{
            "source": "Reltio",
            "values": [{
                  "downStreamDefaultValue": true,
                  "code": "2471N0900X",
                  "enabled": true,
                  "value": "Radiologic Technologist-Nuclear Medicine Technology",
                  "canonicalValue": true
               }
            ]
         }, {
            "source": "ReltioRDM",
            "values": [{
                  "downStreamDefaultValue": true,
                  "code": "2471N0900X",
                  "enabled": true,
                  "value": "Radiologic Technologist-Nuclear Medicine Technology",
                  "canonicalValue": false
               }
            ]
         }
      ],
      "type": "rdm/lookupTypes/App-LSCustomer360Taxonomy",
      "localizations": []
   }, {
      "startDate": 0,
      "code": "311Z00000X",
      "endDate": 0,
      "enabled": true,
      "tenantId": "{{rdmTenant}}",
      "parents": [],
      "sourceMappings": [{
            "source": "Reltio",
            "values": [{
                  "downStreamDefaultValue": true,
                  "code": "311Z00000X",
                  "enabled": true,
                  "value": "Custodial Care Facility",
                  "canonicalValue": true
               }
            ]
         }, {
            "source": "ReltioRDM",
            "values": [{
                  "downStreamDefaultValue": true,
                  "code": "311Z00000X",
                  "enabled": true,
                  "value": "Custodial Care Facility",
                  "canonicalValue": false
               }
            ]
         }
      ],
      "type": "rdm/lookupTypes/App-LSCustomer360Taxonomy",
      "localizations": []
   }, {
      "startDate": 0,
      "code": "1744G0900X",
      "endDate": 0,
      "enabled": true,
      "tenantId": "{{rdmTenant}}",
      "parents": [],
      "sourceMappings": [{
            "source": "Reltio",
            "values": [{
                  "downStreamDefaultValue": true,
                  "code": "1744G0900X",
                  "enabled": true,
                  "value": "Specialist-Graphics Designer",
                  "canonicalValue": true
               }
            ]
         }, {
            "source": "ReltioRDM",
            "values": [{
                  "downStreamDefaultValue": true,
                  "code": "1744G0900X",
                  "enabled": true,
                  "value": "Specialist-Graphics Designer",
                  "canonicalValue": false
               }
            ]
         }
      ],
      "type": "rdm/lookupTypes/App-LSCustomer360Taxonomy",
      "localizations": []
   }, {
      "startDate": 0,
      "code": "207ZC0500X",
      "endDate": 0,
      "enabled": true,
      "tenantId": "{{rdmTenant}}",
      "parents": [],
      "sourceMappings": [{
            "source": "Reltio",
            "values": [{
                  "downStreamDefaultValue": true,
                  "code": "207ZC0500X",
                  "enabled": true,
                  "value": "Pathology-Cytopathology",
                  "canonicalValue": true
               }
            ]
         }, {
            "source": "ReltioRDM",
            "values": [{
                  "downStreamDefaultValue": true,
                  "code": "207ZC0500X",
                  "enabled": true,
                  "value": "Pathology-Cytopathology",
                  "canonicalValue": false
               }
            ]
         }
      ],
      "type": "rdm/lookupTypes/App-LSCustomer360Taxonomy",
      "localizations": []
   }, {
      "startDate": 0,
      "code": "246YR1600X",
      "endDate": 0,
      "enabled": true,
      "tenantId": "{{rdmTenant}}",
      "parents": [],
      "sourceMappings": [{
            "source": "Reltio",
            "values": [{
                  "downStreamDefaultValue": true,
                  "code": "246YR1600X",
                  "enabled": true,
                  "value": "Spec/Tech, Health Info-Registered Record Administrator",
                  "canonicalValue": true
               }
            ]
         }, {
            "source": "ReltioRDM",
            "values": [{
                  "downStreamDefaultValue": true,
                  "code": "246YR1600X",
                  "enabled": true,
                  "value": "Spec/Tech, Health Info-Registered Record Administrator",
                  "canonicalValue": false
               }
            ]
         }
      ],
      "type": "rdm/lookupTypes/App-LSCustomer360Taxonomy",
      "localizations": []
   }, {
      "startDate": 0,
      "code": "246ZC0007X",
      "endDate": 0,
      "enabled": true,
      "tenantId": "{{rdmTenant}}",
      "parents": [],
      "sourceMappings": [{
            "source": "Reltio",
            "values": [{
                  "downStreamDefaultValue": true,
                  "code": "246ZC0007X",
                  "enabled": true,
                  "value": "Specialist/Technologist, Other-Certified First Assistant",
                  "canonicalValue": true
               }
            ]
         }, {
            "source": "ReltioRDM",
            "values": [{
                  "downStreamDefaultValue": true,
                  "code": "246ZC0007X",
                  "enabled": true,
                  "value": "Specialist/Technologist, Other-Certified First Assistant",
                  "canonicalValue": false
               }
            ]
         }
      ],
      "type": "rdm/lookupTypes/App-LSCustomer360Taxonomy",
      "localizations": []
   }, {
      "startDate": 0,
      "code": "374J00000X",
      "endDate": 0,
      "enabled": true,
      "tenantId": "{{rdmTenant}}",
      "parents": [],
      "sourceMappings": [{
            "source": "Reltio",
            "values": [{
                  "downStreamDefaultValue": true,
                  "code": "374J00000X",
                  "enabled": true,
                  "value": "Doula",
                  "canonicalValue": true
               }
            ]
         }, {
            "source": "ReltioRDM",
            "values": [{
                  "downStreamDefaultValue": true,
                  "code": "374J00000X",
                  "enabled": true,
                  "value": "Doula",
                  "canonicalValue": false
               }
            ]
         }
      ],
      "type": "rdm/lookupTypes/App-LSCustomer360Taxonomy",
      "localizations": []
   }, {
      "startDate": 0,
      "code": "347E00000X",
      "endDate": 0,
      "enabled": true,
      "tenantId": "{{rdmTenant}}",
      "parents": [],
      "sourceMappings": [{
            "source": "Reltio",
            "values": [{
                  "downStreamDefaultValue": true,
                  "code": "347E00000X",
                  "enabled": true,
                  "value": "Transportation Broker",
                  "canonicalValue": true
               }
            ]
         }, {
            "source": "ReltioRDM",
            "values": [{
                  "downStreamDefaultValue": true,
                  "code": "347E00000X",
                  "enabled": true,
                  "value": "Transportation Broker",
                  "canonicalValue": false
               }
            ]
         }
      ],
      "type": "rdm/lookupTypes/App-LSCustomer360Taxonomy",
      "localizations": []
   }, {
      "startDate": 0,
      "code": "163WH1000X",
      "endDate": 0,
      "enabled": true,
      "tenantId": "{{rdmTenant}}",
      "parents": [],
      "sourceMappings": [{
            "source": "Reltio",
            "values": [{
                  "downStreamDefaultValue": true,
                  "code": "163WH1000X",
                  "enabled": true,
                  "value": "Registered Nurse-Hospice",
                  "canonicalValue": true
               }
            ]
         }, {
            "source": "ReltioRDM",
            "values": [{
                  "downStreamDefaultValue": true,
                  "code": "163WH1000X",
                  "enabled": true,
                  "value": "Registered Nurse-Hospice",
                  "canonicalValue": false
               }
            ]
         }
      ],
      "type": "rdm/lookupTypes/App-LSCustomer360Taxonomy",
      "localizations": []
   }, {
      "startDate": 0,
      "code": "2080H0002X",
      "endDate": 0,
      "enabled": true,
      "tenantId": "{{rdmTenant}}",
      "parents": [],
      "sourceMappings": [{
            "source": "Reltio",
            "values": [{
                  "downStreamDefaultValue": true,
                  "code": "2080H0002X",
                  "enabled": true,
                  "value": "Pediatrics-Hospice and Palliative Medicine",
                  "canonicalValue": true
               }
            ]
         }, {
            "source": "ReltioRDM",
            "values": [{
                  "downStreamDefaultValue": true,
                  "code": "2080H0002X",
                  "enabled": true,
                  "value": "Pediatrics-Hospice and Palliative Medicine",
                  "canonicalValue": false
               }
            ]
         }
      ],
      "type": "rdm/lookupTypes/App-LSCustomer360Taxonomy",
      "localizations": []
   }, {
      "startDate": 0,
      "code": "261QP0905X",
      "endDate": 0,
      "enabled": true,
      "tenantId": "{{rdmTenant}}",
      "parents": [],
      "sourceMappings": [{
            "source": "Reltio",
            "values": [{
                  "downStreamDefaultValue": true,
                  "code": "261QP0905X",
                  "enabled": true,
                  "value": "Clinic/Center-Public Health, State or Local",
                  "canonicalValue": true
               }
            ]
         }, {
            "source": "ReltioRDM",
            "values": [{
                  "downStreamDefaultValue": true,
                  "code": "261QP0905X",
                  "enabled": true,
                  "value": "Clinic/Center-Public Health, State or Local",
                  "canonicalValue": false
               }
            ]
         }
      ],
      "type": "rdm/lookupTypes/App-LSCustomer360Taxonomy",
      "localizations": []
   }, {
      "startDate": 0,
      "code": "283XC2000X",
      "endDate": 0,
      "enabled": true,
      "tenantId": "{{rdmTenant}}",
      "parents": [],
      "sourceMappings": [{
            "source": "Reltio",
            "values": [{
                  "downStreamDefaultValue": true,
                  "code": "283XC2000X",
                  "enabled": true,
                  "value": "Rehabilitation Hospital-Children",
                  "canonicalValue": true
               }
            ]
         }, {
            "source": "ReltioRDM",
            "values": [{
                  "downStreamDefaultValue": true,
                  "code": "283XC2000X",
                  "enabled": true,
                  "value": "Rehabilitation Hospital-Children",
                  "canonicalValue": false
               }
            ]
         }
      ],
      "type": "rdm/lookupTypes/App-LSCustomer360Taxonomy",
      "localizations": []
   }, {
      "startDate": 0,
      "code": "152WC0802X",
      "endDate": 0,
      "enabled": true,
      "tenantId": "{{rdmTenant}}",
      "parents": [],
      "sourceMappings": [{
            "source": "Reltio",
            "values": [{
                  "downStreamDefaultValue": true,
                  "code": "152WC0802X",
                  "enabled": true,
                  "value": "Optometrist-Corneal and Contact Management",
                  "canonicalValue": true
               }
            ]
         }, {
            "source": "ReltioRDM",
            "values": [{
                  "downStreamDefaultValue": true,
                  "code": "152WC0802X",
                  "enabled": true,
                  "value": "Optometrist-Corneal and Contact Management",
                  "canonicalValue": false
               }
            ]
         }
      ],
      "type": "rdm/lookupTypes/App-LSCustomer360Taxonomy",
      "localizations": []
   }, {
      "startDate": 0,
      "code": "261QM0801X",
      "endDate": 0,
      "enabled": true,
      "tenantId": "{{rdmTenant}}",
      "parents": [],
      "sourceMappings": [{
            "source": "Reltio",
            "values": [{
                  "downStreamDefaultValue": true,
                  "code": "261QM0801X",
                  "enabled": true,
                  "value": "Clinic/Center-Mental Health (Including Community Mental Health Center)",
                  "canonicalValue": true
               }
            ]
         }, {
            "source": "ReltioRDM",
            "values": [{
                  "downStreamDefaultValue": true,
                  "code": "261QM0801X",
                  "enabled": true,
                  "value": "Clinic/Center-Mental Health (Including Community Mental Health Center)",
                  "canonicalValue": false
               }
            ]
         }
      ],
      "type": "rdm/lookupTypes/App-LSCustomer360Taxonomy",
      "localizations": []
   }, {
      "startDate": 0,
      "code": "163WH0200X",
      "endDate": 0,
      "enabled": true,
      "tenantId": "{{rdmTenant}}",
      "parents": [],
      "sourceMappings": [{
            "source": "Reltio",
            "values": [{
                  "downStreamDefaultValue": true,
                  "code": "163WH0200X",
                  "enabled": true,
                  "value": "Registered Nurse-Home Health",
                  "canonicalValue": true
               }
            ]
         }, {
            "source": "ReltioRDM",
            "values": [{
                  "downStreamDefaultValue": true,
                  "code": "163WH0200X",
                  "enabled": true,
                  "value": "Registered Nurse-Home Health",
                  "canonicalValue": false
               }
            ]
         }
      ],
      "type": "rdm/lookupTypes/App-LSCustomer360Taxonomy",
      "localizations": []
   }, {
      "startDate": 0,
      "code": "246ZE0500X",
      "endDate": 0,
      "enabled": true,
      "tenantId": "{{rdmTenant}}",
      "parents": [],
      "sourceMappings": [{
            "source": "Reltio",
            "values": [{
                  "downStreamDefaultValue": true,
                  "code": "246ZE0500X",
                  "enabled": true,
                  "value": "Specialist/Technologist, Other-EEG",
                  "canonicalValue": true
               }
            ]
         }, {
            "source": "ReltioRDM",
            "values": [{
                  "downStreamDefaultValue": true,
                  "code": "246ZE0500X",
                  "enabled": true,
                  "value": "Specialist/Technologist, Other-EEG",
                  "canonicalValue": false
               }
            ]
         }
      ],
      "type": "rdm/lookupTypes/App-LSCustomer360Taxonomy",
      "localizations": []
   }
]