{"interactionTypes" :[
  {
    "uri": "configuration/interactionTypes/OmniChannelInteractions",
    "label": "Omni Channel Interactions",
    "memberTypes": [
      {
        "uri": "configuration/interactionTypes/OmniChannelInteractions/memberTypes/Product",
        "label": "Product",
        "name": "Product",
        "objectTypeURI": "configuration/entityTypes/Product"
      },
      {
        "uri": "configuration/interactionTypes/OmniChannelInteractions/memberTypes/Organization",
        "label": "Organization",
        "name": "Organization",
        "objectTypeURI": "configuration/entityTypes/Organization"
      },
      {
        "uri": "configuration/interactionTypes/OmniChannelInteractions/memberTypes/Individual",
        "label": "Individual",
        "name": "Individual",
        "objectTypeURI": "configuration/entityTypes/Individual"
      }
    ],
    "hasMembers": true,
    "attributes": [
      {
        "label": "Channel Type",
        "name": "ChannelType",
        "type": "string",
        "hidden": false,
        "important": false,
        "system": false,
        "attributeOrdering": {
          "orderingStrategy": "LUD"
        },
        "uri": "configuration/interactionTypes/OmniChannelInteractions/attributes/ChannelType"
      },
      {
        "label": "Channel Value",
        "name": "Date",
        "type": "String",
        "hidden": false,
        "important": false,
        "system": false,
        "attributeOrdering": {
          "orderingStrategy": "LUD"
        },
        "uri": "configuration/interactionTypes/OmniChannelInteractions/attributes/ChannelValue"
      },
      {
        "label": "Date",
        "name": "Date",
        "type": "Timestamp",
        "hidden": false,
        "important": false,
        "system": false,
        "attributeOrdering": {
          "orderingStrategy": "LUD"
        },
        "uri": "configuration/interactionTypes/OmniChannelInteractions/attributes/Date"
      },
      {
        "label": "Campaign Name",
        "name": "CampaignName",
        "type": "String",
        "hidden": false,
        "important": false,
        "system": false,
        "attributeOrdering": {
          "orderingStrategy": "LUD"
        },
        "uri": "configuration/interactionTypes/Orders/attributes/CampaignName"
      },
      {
        "label": "Brand",
        "name": "Brand",
        "type": "String",
        "hidden": false,
        "important": false,
        "system": false,
        "attributeOrdering": {
          "orderingStrategy": "LUD"
        },
        "uri": "configuration/interactionTypes/Orders/attributes/Brand"
      },
      {
        "label": "Objective Message",
        "name": "ObjectiveMessage",
        "type": "String",
        "hidden": false,
        "important": false,
        "system": false,
        "attributeOrdering": {
          "orderingStrategy": "LUD"
        },
        "uri": "configuration/interactionTypes/Orders/attributes/ObjectiveMessage"
      },
      {
        "label": "Follow up Activities",
        "name": "FollowUpActivities",
        "type": "Number",
        "hidden": false,
        "important": false,
        "system": false,
        "attributeOrdering": {
          "orderingStrategy": "LUD"
        },
        "uri": "configuration/interactionTypes/Orders/attributes/FollowUpActivities"
      },
      {
        "label": "Expenses",
        "name": "Expenses",
        "type": "Number",
        "hidden": false,
        "important": false,
        "system": false,
        "attributeOrdering": {
          "orderingStrategy": "LUD"
        },
        "uri": "configuration/interactionTypes/Orders/attributes/Expenses"
      },
      {
        "label": "Notes",
        "name": "Notes",
        "type": "String",
        "hidden": false,
        "important": false,
        "system": false,
        "attributeOrdering": {
          "orderingStrategy": "LUD"
        },
        "uri": "configuration/interactionTypes/Orders/attributes/Notes"
      }
    ]
  }
]}